src/21_fixed_point/cordic_unroll/cordic_unroll_slave_variable/cordic_tb_waves_v.vcd
$date
	Thu Mar  9 21:15:41 2023
$end
$version
	Icarus Verilog
$end
$timescale
	100ps
$end
$scope module tb $end
$var wire 32 ! result [31:0] $end
$var wire 1 " done $end
$var reg 1 # clk $end
$var reg 1 $ clk_en $end
$var reg 32 % dataa [31:0] $end
$var reg 1 & reset $end
$var reg 1 ' start $end
$scope module unit $end
$var wire 1 & aclr $end
$var wire 1 $ clk_en $end
$var wire 1 # clock $end
$var wire 32 ( dataa [31:0] $end
$var wire 32 ) result [31:0] $end
$var wire 1 ' start $end
$var wire 32 * result_fp [31:0] $end
$var wire 21 + offsetZ7 [20:0] $end
$var wire 21 , offsetZ6 [20:0] $end
$var wire 21 - offsetZ5 [20:0] $end
$var wire 21 . offsetZ4 [20:0] $end
$var wire 21 / offsetZ3 [20:0] $end
$var wire 21 0 offsetZ2 [20:0] $end
$var wire 21 1 offsetZ1 [20:0] $end
$var wire 21 2 offsetZ [20:0] $end
$var wire 21 3 offsetY7 [20:0] $end
$var wire 21 4 offsetY6 [20:0] $end
$var wire 21 5 offsetY5 [20:0] $end
$var wire 21 6 offsetY4 [20:0] $end
$var wire 21 7 offsetY3 [20:0] $end
$var wire 21 8 offsetY2 [20:0] $end
$var wire 21 9 offsetY1 [20:0] $end
$var wire 21 : offsetY [20:0] $end
$var wire 21 ; offsetX7 [20:0] $end
$var wire 21 < offsetX6 [20:0] $end
$var wire 21 = offsetX5 [20:0] $end
$var wire 21 > offsetX4 [20:0] $end
$var wire 21 ? offsetX3 [20:0] $end
$var wire 21 @ offsetX2 [20:0] $end
$var wire 21 A offsetX1 [20:0] $end
$var wire 21 B offsetX [20:0] $end
$var wire 21 C fixed_point_result [20:0] $end
$var wire 21 D fixed_point_input [20:0] $end
$var wire 1 " done $end
$var reg 21 E rotateAngle [20:0] $end
$var reg 21 F rotateAngle1 [20:0] $end
$var reg 21 G rotateAngle2 [20:0] $end
$var reg 21 H rotateAngle3 [20:0] $end
$var reg 21 I rotateAngle4 [20:0] $end
$var reg 21 J rotateAngle5 [20:0] $end
$var reg 21 K rotateAngle6 [20:0] $end
$var reg 21 L rotateAngle7 [20:0] $end
$var reg 5 M rotate_index [4:0] $end
$var reg 5 N rotate_index1 [4:0] $end
$var reg 5 O rotate_index2 [4:0] $end
$var reg 5 P rotate_index3 [4:0] $end
$var reg 5 Q rotate_index4 [4:0] $end
$var reg 5 R rotate_index5 [4:0] $end
$var reg 5 S rotate_index6 [4:0] $end
$var reg 5 T rotate_index7 [4:0] $end
$var reg 21 U x [20:0] $end
$var reg 21 V x1 [20:0] $end
$var reg 21 W x2 [20:0] $end
$var reg 21 X x3 [20:0] $end
$var reg 21 Y x4 [20:0] $end
$var reg 21 Z x5 [20:0] $end
$var reg 21 [ x6 [20:0] $end
$var reg 21 \ x7 [20:0] $end
$var reg 21 ] y [20:0] $end
$var reg 21 ^ y1 [20:0] $end
$var reg 21 _ y2 [20:0] $end
$var reg 21 ` y3 [20:0] $end
$var reg 21 a y4 [20:0] $end
$var reg 21 b y5 [20:0] $end
$var reg 21 c y6 [20:0] $end
$var reg 21 d y7 [20:0] $end
$var reg 21 e z [20:0] $end
$var reg 21 f z1 [20:0] $end
$var reg 21 g z2 [20:0] $end
$var reg 21 h z3 [20:0] $end
$var reg 21 i z4 [20:0] $end
$var reg 21 j z5 [20:0] $end
$var reg 21 k z6 [20:0] $end
$var reg 21 l z7 [20:0] $end
$scope module fixed_to_float_unit $end
$var wire 21 m fixed_point_result [20:0] $end
$var wire 5 n leadingOneIndex [4:0] $end
$var wire 32 o fixed_point_result_appended_to_32_bits [31:0] $end
$var wire 1 p containOne_valid $end
$var reg 21 q intermediate_result [20:0] $end
$var reg 8 r result_exponent [7:0] $end
$var reg 32 s result_fp [31:0] $end
$var reg 23 t result_significant [22:0] $end
$scope module encoder32 $end
$var wire 32 u encoder_input [31:0] $end
$var wire 1 v valid7 $end
$var wire 1 w valid6 $end
$var wire 1 x valid5 $end
$var wire 1 y valid4 $end
$var wire 1 z valid3 $end
$var wire 1 { valid2 $end
$var wire 1 | valid1 $end
$var wire 1 } valid0 $end
$var wire 1 p valid $end
$var wire 3 ~ encoder_output8 [2:0] $end
$var wire 2 !" encoder_output7 [1:0] $end
$var wire 2 "" encoder_output6 [1:0] $end
$var wire 2 #" encoder_output5 [1:0] $end
$var wire 2 $" encoder_output4 [1:0] $end
$var wire 2 %" encoder_output3 [1:0] $end
$var wire 2 &" encoder_output2 [1:0] $end
$var wire 2 '" encoder_output1 [1:0] $end
$var wire 2 (" encoder_output0 [1:0] $end
$var wire 8 )" encoder_input8 [7:0] $end
$var reg 4 *" encoder_input0 [3:0] $end
$var reg 4 +" encoder_input1 [3:0] $end
$var reg 4 ," encoder_input2 [3:0] $end
$var reg 4 -" encoder_input3 [3:0] $end
$var reg 4 ." encoder_input4 [3:0] $end
$var reg 4 /" encoder_input5 [3:0] $end
$var reg 4 0" encoder_input6 [3:0] $end
$var reg 4 1" encoder_input7 [3:0] $end
$var reg 5 2" encoder_output [4:0] $end
$scope module encoder0 $end
$var wire 4 3" encoder_input [3:0] $end
$var reg 2 4" encoder_output [1:0] $end
$var reg 1 } valid $end
$upscope $end
$scope module encoder1 $end
$var wire 4 5" encoder_input [3:0] $end
$var reg 2 6" encoder_output [1:0] $end
$var reg 1 | valid $end
$upscope $end
$scope module encoder2 $end
$var wire 4 7" encoder_input [3:0] $end
$var reg 2 8" encoder_output [1:0] $end
$var reg 1 { valid $end
$upscope $end
$scope module encoder3 $end
$var wire 4 9" encoder_input [3:0] $end
$var reg 2 :" encoder_output [1:0] $end
$var reg 1 z valid $end
$upscope $end
$scope module encoder4 $end
$var wire 4 ;" encoder_input [3:0] $end
$var reg 2 <" encoder_output [1:0] $end
$var reg 1 y valid $end
$upscope $end
$scope module encoder5 $end
$var wire 4 =" encoder_input [3:0] $end
$var reg 2 >" encoder_output [1:0] $end
$var reg 1 x valid $end
$upscope $end
$scope module encoder6 $end
$var wire 4 ?" encoder_input [3:0] $end
$var reg 2 @" encoder_output [1:0] $end
$var reg 1 w valid $end
$upscope $end
$scope module encoder7 $end
$var wire 4 A" encoder_input [3:0] $end
$var reg 2 B" encoder_output [1:0] $end
$var reg 1 v valid $end
$upscope $end
$scope module encoder8 $end
$var wire 8 C" encoder_input [7:0] $end
$var wire 1 D" valid8_1 $end
$var wire 1 E" valid8_0 $end
$var wire 2 F" encoder_output8_1 [1:0] $end
$var wire 2 G" encoder_output8_0 [1:0] $end
$var reg 4 H" encoder_input8_0 [3:0] $end
$var reg 4 I" encoder_input8_1 [3:0] $end
$var reg 3 J" encoder_output [2:0] $end
$var reg 1 p valid $end
$scope module encoder8_0 $end
$var wire 4 K" encoder_input [3:0] $end
$var reg 2 L" encoder_output [1:0] $end
$var reg 1 E" valid $end
$upscope $end
$scope module encoder8_1 $end
$var wire 4 M" encoder_input [3:0] $end
$var reg 2 N" encoder_output [1:0] $end
$var reg 1 D" valid $end
$upscope $end
$upscope $end
$upscope $end
$upscope $end
$scope module floating_to_fixed_unit $end
$var wire 32 O" dataa [31:0] $end
$var wire 23 P" significand [22:0] $end
$var wire 21 Q" fixed_point_input [20:0] $end
$var wire 8 R" exponent [7:0] $end
$upscope $end
$scope module rotation_offset_unit_0 $end
$var wire 21 S" rotateAngle [20:0] $end
$var wire 5 T" rotate_index [4:0] $end
$var wire 21 U" x [20:0] $end
$var wire 21 V" y [20:0] $end
$var wire 21 W" z [20:0] $end
$var reg 21 X" offsetX [20:0] $end
$var reg 21 Y" offsetY [20:0] $end
$var reg 21 Z" offsetZ [20:0] $end
$upscope $end
$scope module rotation_offset_unit_1 $end
$var wire 21 [" rotateAngle [20:0] $end
$var wire 5 \" rotate_index [4:0] $end
$var wire 21 ]" x [20:0] $end
$var wire 21 ^" y [20:0] $end
$var wire 21 _" z [20:0] $end
$var reg 21 `" offsetX [20:0] $end
$var reg 21 a" offsetY [20:0] $end
$var reg 21 b" offsetZ [20:0] $end
$upscope $end
$scope module rotation_offset_unit_2 $end
$var wire 21 c" rotateAngle [20:0] $end
$var wire 5 d" rotate_index [4:0] $end
$var wire 21 e" x [20:0] $end
$var wire 21 f" y [20:0] $end
$var wire 21 g" z [20:0] $end
$var reg 21 h" offsetX [20:0] $end
$var reg 21 i" offsetY [20:0] $end
$var reg 21 j" offsetZ [20:0] $end
$upscope $end
$scope module rotation_offset_unit_3 $end
$var wire 21 k" rotateAngle [20:0] $end
$var wire 5 l" rotate_index [4:0] $end
$var wire 21 m" x [20:0] $end
$var wire 21 n" y [20:0] $end
$var wire 21 o" z [20:0] $end
$var reg 21 p" offsetX [20:0] $end
$var reg 21 q" offsetY [20:0] $end
$var reg 21 r" offsetZ [20:0] $end
$upscope $end
$scope module rotation_offset_unit_4 $end
$var wire 21 s" rotateAngle [20:0] $end
$var wire 5 t" rotate_index [4:0] $end
$var wire 21 u" x [20:0] $end
$var wire 21 v" y [20:0] $end
$var wire 21 w" z [20:0] $end
$var reg 21 x" offsetX [20:0] $end
$var reg 21 y" offsetY [20:0] $end
$var reg 21 z" offsetZ [20:0] $end
$upscope $end
$scope module rotation_offset_unit_5 $end
$var wire 21 {" rotateAngle [20:0] $end
$var wire 5 |" rotate_index [4:0] $end
$var wire 21 }" x [20:0] $end
$var wire 21 ~" y [20:0] $end
$var wire 21 !# z [20:0] $end
$var reg 21 "# offsetX [20:0] $end
$var reg 21 ## offsetY [20:0] $end
$var reg 21 $# offsetZ [20:0] $end
$upscope $end
$scope module rotation_offset_unit_6 $end
$var wire 21 %# rotateAngle [20:0] $end
$var wire 5 &# rotate_index [4:0] $end
$var wire 21 '# x [20:0] $end
$var wire 21 (# y [20:0] $end
$var wire 21 )# z [20:0] $end
$var reg 21 *# offsetX [20:0] $end
$var reg 21 +# offsetY [20:0] $end
$var reg 21 ,# offsetZ [20:0] $end
$upscope $end
$scope module rotation_offset_unit_7 $end
$var wire 21 -# rotateAngle [20:0] $end
$var wire 5 .# rotate_index [4:0] $end
$var wire 21 /# x [20:0] $end
$var wire 21 0# y [20:0] $end
$var wire 21 1# z [20:0] $end
$var reg 21 2# offsetX [20:0] $end
$var reg 21 3# offsetY [20:0] $end
$var reg 21 4# offsetZ [20:0] $end
$upscope $end
$upscope $end
$scope begin $ivl_for_loop0 $end
$var integer 32 5# i [31:0] $end
$upscope $end
$upscope $end
$enddefinitions $end
$comment Show the parameter values. $end
$dumpall
$end
#0
$dumpvars
bx 5#
bx 4#
bx 3#
bx 2#
bx 1#
bx 0#
bx /#
bx .#
bx -#
bx ,#
bx +#
bx *#
bx )#
bx (#
bx '#
bx &#
bx %#
bx $#
bx ##
bx "#
bx !#
bx ~"
bx }"
bx |"
bx {"
bx z"
bx y"
bx x"
bx w"
bx v"
bx u"
bx t"
bx s"
bx r"
bx q"
bx p"
bx o"
bx n"
bx m"
bx l"
bx k"
bx j"
bx i"
bx h"
bx g"
bx f"
bx e"
bx d"
bx c"
bx b"
bx a"
bx `"
bx _"
bx ^"
bx ]"
bx \"
bx ["
bx Z"
bx Y"
bx X"
bx W"
bx V"
bx U"
bx T"
bx S"
bx R"
bx Q"
bx P"
bx O"
b10 N"
b0 M"
b10 L"
b0 K"
b110 J"
b0 I"
b0 H"
b10 G"
b10 F"
0E"
0D"
b0 C"
b10 B"
b0 A"
b10 @"
b0 ?"
b10 >"
b0 ="
b10 <"
b0 ;"
b10 :"
b0 9"
b10 8"
b0 7"
b10 6"
b0 5"
b10 4"
b0 3"
bx 2"
b0 1"
b0 0"
b0 /"
b0 ."
b0 -"
b0 ,"
b0 +"
b0 *"
b0 )"
b10 ("
b10 '"
b10 &"
b10 %"
b10 $"
b10 #"
b10 ""
b10 !"
b110 ~
0}
0|
0{
0z
0y
0x
0w
0v
b0 u
bx000 t
b0xxxxxxxxxxxxxxxxxxxxxxxxxxxx000 s
bx r
bx q
0p
b0 o
bx n
b0 m
bx l
bx k
bx j
bx i
bx h
bx g
bx f
bx e
bx d
bx c
bx b
bx a
bx `
bx _
bx ^
bx ]
bx \
bx [
bx Z
bx Y
bx X
bx W
bx V
bx U
bx T
bx S
bx R
bx Q
bx P
bx O
bx N
bx M
bx L
bx K
bx J
bx I
bx H
bx G
bx F
bx E
bx D
b0 C
bx B
bx A
bx @
bx ?
bx >
bx =
bx <
bx ;
bx :
bx 9
bx 8
bx 7
bx 6
bx 5
bx 4
bx 3
bx 2
bx 1
bx 0
bx /
bx .
bx -
bx ,
bx +
b0xxxxxxxxxxxxxxxxxxxxxxxxxxxx000 *
b0xxxxxxxxxxxxxxxxxxxxxxxxxxxx000 )
bx (
0'
1&
bx %
0$
0#
x"
b0xxxxxxxxxxxxxxxxxxxxxxxxxxxx000 !
$end
#100
b1111111111111 3
b1111111111111 3#
b111 ;
b111 2#
b111111111110011001110 d
b111111111110011001110 0#
b11111111111111010011 \
b11111111111111010011 /#
b11111111111011 4
b11111111111011 +#
b100001101 <
b100001101 *#
b111111011110011010011 c
b111111011110011010011 (#
b11111111111011000110 [
b11111111111011000110 '#
b111111000000000011001 5
b111111000000000011001 ##
b111100101 =
b111100101 "#
b11110010111010 b
b11110010111010 ~"
b11111111110011100001 Z
b11111111110011100001 }"
b1111111100001011 6
b1111111100001011 y"
b110000100110 >
b110000100110 x"
b111110011110110101111 a
b111110011110110101111 v"
b11111111000010111011 Y
b11111111000010111011 u"
b111100000011011000101 7
b111100000011011000101 q"
b10011011011101 ?
b10011011011101 p"
b10011011011101010 `
b10011011011101010 n"
b11111100100111011110 X
b11111100100111011110 m"
b111000101101101000011 8
b111000101101101000011 i"
b10011011011101001 @
b10011011011101001 h"
b1001101101110100111 _
b1001101101110100111 f"
b11101001001011110101 W
b11101001001011110101 e"
b110110010010001011001 9
b110110010010001011001 a"
b1001101101110100111 A
b1001101101110100111 `"
b1100110010 l
b1100110010 1#
b100001100110000 k
b100001100110000 )#
b111111100001100111011 j
b111111100001100111011 !#
b1100001011100101 i
b1100001011100101 w"
b111101100010110001010 h
b111101100010110001010 o"
b110101101101000011100 g
b110101101101000011100 g"
b100110110111100000011 f
b100110110111100000011 _"
b10011011011101001110 ^
b10011011011101001110 ^"
b10011011011101001110 V
b10011011011101001110 ]"
b111111110000000000001 +
b111111110000000000001 4#
b111111100000000000010 ,
b111111100000000000010 ,#
b111111111110101 -
b111111111110101 $#
b111110000000001010110 .
b111110000000001010110 z"
b11111110101011011 /
b11111110101011011 r"
b111110101101101110 0
b111110101101101110 j"
b1110110101100011001 1
b1110110101100011001 b"
b100110110111100000011 2
b100110110111100000011 Z"
b10011011011101001110 :
b10011011011101001110 Y"
b0 B
b0 X"
b1111111111111 L
b1111111111111 -#
b11111111111110 K
b11111111111110 %#
b111111111110101 J
b111111111110101 {"
b1111111110101010 I
b1111111110101010 s"
b11111110101011011 H
b11111110101011011 k"
b111110101101101110 G
b111110101101101110 c"
b1110110101100011001 F
b1110110101100011001 ["
b11001001000011111101 E
b11001001000011111101 S"
b111 T
b111 .#
b110 S
b110 &#
b101 R
b101 |"
b100 Q
b100 t"
b11 P
b11 l"
b10 O
b10 d"
b1 N
b1 \"
b0 e
b0 W"
b0 ]
b0 V"
b10011011011101001110 U
b10011011011101001110 U"
0"
b0 M
b0 T"
1#
#200
b0 D
b0 Q"
b0 R"
b0 P"
b0 %
b0 (
b0 O"
1'
0&
1$
b0 5#
0#
#300
1#
#400
0'
0#
#500
b11111 +
b11111 4#
b111111111111111100001 3
b111111111111111100001 3#
b0 ;
b0 2#
b111111 ,
b111111 ,#
b111111111111111000001 4
b111111111111111000001 +#
b0 <
b0 *#
b111111111111110000001 -
b111111111111110000001 $#
b1111111 5
b1111111 ##
b1 =
b1 "#
b111111111111100000001 .
b111111111111100000001 z"
b11111111 6
b11111111 y"
b1 >
b1 x"
b111111111 /
b111111111 r"
b111111111111000000001 7
b111111111111000000001 q"
b0 ?
b0 p"
b1111111111 0
b1111111111 j"
b111111111110000000001 8
b111111111110000000001 i"
b1 @
b1 h"
b11111111111 1
b11111111111 b"
b111111111100000000001 9
b111111111100000000001 a"
b110 A
b110 `"
b111111111111 2
b111111111111 Z"
b111111111000000000001 :
b111111111000000000001 Y"
b11100 B
b11100 X"
b11111 L
b11111 -#
b111111 K
b111111 %#
b1111111 J
b1111111 {"
b11111111 I
b11111111 s"
b111111111 H
b111111111 k"
b1111111111 G
b1111111111 c"
b11111111111 F
b11111111111 ["
b111111111111 E
b111111111111 S"
b111111111111111110000 l
b111111111111111110000 1#
b10000 d
b10000 0#
b11111111111111111111 \
b11111111111111111111 /#
b1111 T
b1111 .#
b111111111111110110001 k
b111111111111110110001 )#
b1001111 c
b1001111 (#
b11111111111111111111 [
b11111111111111111111 '#
b1110 S
b1110 &#
b110000 j
b110000 !#
b111111111111111010000 b
b111111111111111010000 ~"
b11111111111111111110 Z
b11111111111111111110 }"
b1101 R
b1101 |"
b100101111 i
b100101111 w"
b111111111111011010001 a
b111111111111011010001 v"
b11111111111111111101 Y
b11111111111111111101 u"
b1100 Q
b1100 t"
b111111111111100110000 h
b111111111111100110000 o"
b11010000 `
b11010000 n"
b11111111111111111101 X
b11111111111111111101 m"
b1011 P
b1011 l"
b111111111101100110001 g
b111111111101100110001 g"
b10011001111 _
b10011001111 f"
b11111111111111111100 W
b11111111111111111100 e"
b1010 O
b1010 d"
b111111111001100110010 f
b111111111001100110010 _"
b110011001110 ^
b110011001110 ^"
b11111111111111110110 V
b11111111111111110110 ]"
b1001 N
b1001 \"
b111111110001100110011 e
b111111110001100110011 W"
b1110011001101 ]
b1110011001101 V"
b11111111111111011010 U
b11111111111111011010 U"
b1000 M
b1000 T"
1#
#600
0#
#700
b111111011111111111111111110000 !
b111111011111111111111111110000 )
b111111011111111111111111110000 *
b111111011111111111111111110000 s
b11111111111111111110000 t
b111111111111111111110 q
b1111110 r
b1 n
b1 2"
1p
b0 ~
b0 J"
1E"
b0 G"
b0 L"
1D"
b0 F"
b0 N"
b1111 H"
b1111 K"
b1100 I"
b1100 M"
1}
b1 ("
b1 4"
1|
b0 '"
b0 6"
1{
b1 &"
b1 8"
1z
b0 %"
b0 :"
1y
b0 $"
b0 <"
b11111100 )"
b11111100 C"
1x
b0 #"
b0 >"
b111 *"
b111 3"
b1111 +"
b1111 5"
b111 ,"
b111 7"
b1111 -"
b1111 9"
b1111 ."
b1111 ;"
b1000 /"
b1000 ="
b1111111111111111111100000000000 o
b1111111111111111111100000000000 u
b11111111111111111111 C
b11111111111111111111 m
b0 +
b0 4#
b111111111111111111111 3
b111111111111111111111 3#
b1 ;
b1 2#
b0 ,
b0 ,#
b111111111111111111111 4
b111111111111111111111 +#
b1 <
b1 *#
b0 -
b0 $#
b111111111111111111111 5
b111111111111111111111 ##
b0 .
b0 z"
b111111111111111111111 6
b111111111111111111111 y"
b0 /
b0 r"
b111111111111111111110 7
b111111111111111111110 q"
b1 ?
b1 p"
b0 0
b0 j"
b111111111111111111100 8
b111111111111111111100 i"
b0 1
b0 b"
b111111111111111111000 9
b111111111111111111000 a"
b0 A
b0 `"
b0 2
b0 Z"
b1111 :
b1111 Y"
b1 B
b1 X"
b0 L
b0 -#
b0 K
b0 %#
b0 J
b0 {"
b0 I
b0 s"
b0 H
b0 k"
b0 G
b0 c"
b0 F
b0 ["
b0 E
b0 S"
b1111 l
b1111 1#
b111111111111111101111 d
b111111111111111101111 0#
b100000000000000000101 \
b100000000000000000101 /#
b10111 T
b10111 .#
b1111 k
b1111 )#
b111111111111111110000 c
b111111111111111110000 (#
b100000000000000000100 [
b100000000000000000100 '#
b10110 S
b10110 &#
b1111 j
b1111 !#
b111111111111111110001 b
b111111111111111110001 ~"
b100000000000000000011 Z
b100000000000000000011 }"
b10101 R
b10101 |"
b1111 i
b1111 w"
b111111111111111110010 a
b111111111111111110010 v"
b100000000000000000010 Y
b100000000000000000010 u"
b10100 Q
b10100 t"
b1111 h
b1111 o"
b111111111111111110100 `
b111111111111111110100 n"
b100000000000000000001 X
b100000000000000000001 m"
b10011 P
b10011 l"
b1111 g
b1111 g"
b111111111111111111000 _
b111111111111111111000 f"
b100000000000000000000 W
b100000000000000000000 e"
b10010 O
b10010 d"
b1111 f
b1111 _"
b0 ^
b0 ^"
b100000000000000000000 V
b100000000000000000000 ]"
b10001 N
b10001 \"
b1111 e
b1111 W"
b111111111111111110001 ]
b111111111111111110001 V"
b11111111111111111111 U
b11111111111111111111 U"
1"
b10000 M
b10000 T"
1#
#800
b11001100110011001 D
b11001100110011001 Q"
b1111011 R"
b10011001100110011001101 P"
b111101110011001100110011001101 %
b111101110011001100110011001101 (
b111101110011001100110011001101 O"
1'
b1 5#
0#
#900
0p
b110 ~
b110 J"
0E"
b10 G"
b10 L"
0D"
b10 F"
b10 N"
b0 H"
b0 K"
b0 I"
b0 M"
0}
b10 ("
b10 4"
0|
b10 '"
b10 6"
0{
b10 &"
b10 8"
0z
b10 %"
b10 :"
0y
b10 $"
b10 <"
b0 )"
b0 C"
0x
b10 #"
b10 >"
b111111111110100010001 ;
b111111111110100010001 2#
b11011011101 <
b11011011101 *#
b111111000000000000000000000000 !
b111111000000000000000000000000 )
b111111000000000000000000000000 *
b111111000000000000000000000000 s
b0 t
b0 q
b0 *"
b0 3"
b0 +"
b0 5"
b0 ,"
b0 7"
b0 -"
b0 9"
b0 ."
b0 ;"
b0 /"
b0 ="
b111111110000000000001 +
b111111110000000000001 4#
b1111111011101 3
b1111111011101 3#
b11111111111110 ,
b11111111111110 ,#
b111111100000001100010 4
b111111100000001100010 +#
b111111111110101 -
b111111111110101 $#
b111111000000101010000 5
b111111000000101010000 ##
b1000110101111 =
b1000110101111 "#
b1111111110101010 .
b1111111110101010 z"
b111110000010111010000 6
b111110000010111010000 y"
b11001100000010 >
b11001100000010 x"
b111100000001010100101 /
b111100000001010100101 r"
b11111100100111011 7
b11111100100111011 q"
b111111101100100100011 ?
b111111101100100100011 p"
b111110101101101110 0
b111110101101101110 j"
b111000101101101000011 8
b111000101101101000011 i"
b10011011011101001 @
b10011011011101001 h"
b1110110101100011001 1
b1110110101100011001 b"
b110110010010001011001 9
b110110010010001011001 a"
b1001101101110100111 A
b1001101101110100111 `"
b0 o
b0 u
b0 C
b0 m
b100110110111100000011 2
b100110110111100000011 Z"
b10011011011101001110 :
b10011011011101001110 Y"
b0 B
b0 X"
b1111111111111 L
b1111111111111 -#
b11111111111110 K
b11111111111110 %#
b111111111110101 J
b111111111110101 {"
b1111111110101010 I
b1111111110101010 s"
b11111110101011011 H
b11111110101011011 k"
b111110101101101110 G
b111110101101101110 c"
b1110110101100011001 F
b1110110101100011001 ["
b11001001000011111101 E
b11001001000011111101 S"
b10000101100101 l
b10000101100101 1#
b10111011110100111 d
b10111011110100111 0#
b11111110111010001111 \
b11111110111010001111 /#
b111 T
b111 .#
b111111110000101100111 k
b111111110000101100111 )#
b11011011101000101 c
b11011011101000101 (#
b11111110011110110010 [
b11111110011110110010 '#
b110 S
b110 &#
b111110110000101110010 j
b111110110000101110010 !#
b100011010111110101 b
b100011010111110101 ~"
b11111101011000000011 Z
b11111101011000000011 }"
b101 R
b101 |"
b111100110000111001000 i
b111100110000111001000 w"
b110011000000100101 a
b110011000000100101 v"
b11111010001100000001 Y
b11111010001100000001 u"
b100 Q
b100 t"
b101111100100011 h
b101111100100011 o"
b10011011011101010 `
b10011011011101010 n"
b11111100100111011110 X
b11111100100111011110 m"
b11 P
b11 l"
b111000111001110110101 g
b111000111001110110101 g"
b1001101101110100111 _
b1001101101110100111 f"
b11101001001011110101 W
b11101001001011110101 e"
b10 O
b10 d"
b101010000100010011100 f
b101010000100010011100 _"
b10011011011101001110 ^
b10011011011101001110 ^"
b10011011011101001110 V
b10011011011101001110 ]"
b1 N
b1 \"
b11001100110011001 e
b11001100110011001 W"
b0 ]
b0 V"
b10011011011101001110 U
b10011011011101001110 U"
0"
b0 M
b0 T"
1#
#1000
0'
0#
#1100
b111111111111111100001 +
b111111111111111100001 4#
b11111 3
b11111 3#
b111111111111111111101 ;
b111111111111111111101 2#
b111111 ,
b111111 ,#
b111111111111111000001 4
b111111111111111000001 +#
b110 <
b110 *#
b111111111111110000001 -
b111111111111110000001 $#
b1111111 5
b1111111 ##
b111111111111111110100 =
b111111111111111110100 "#
b11111111 .
b11111111 z"
b111111111111100000010 6
b111111111111100000010 y"
b11001 >
b11001 x"
b111111111 /
b111111111 r"
b111111111111000000011 7
b111111111111000000011 q"
b110011 ?
b110011 p"
b1111111111 0
b1111111111 j"
b111111111110000000110 8
b111111111110000000110 i"
b1100111 @
b1100111 h"
b11111111111 1
b11111111111 b"
b111111111100000001011 9
b111111111100000001011 a"
b11010011 A
b11010011 `"
b111111111000000000001 2
b111111111000000000001 Z"
b111111101011 :
b111111101011 Y"
b111111111111001101001 B
b111111111111001101001 X"
b11111 L
b11111 -#
b111111 K
b111111 %#
b1111111 J
b1111111 {"
b11111111 I
b11111111 s"
b111111111 H
b111111111 k"
b1111111111 G
b1111111111 c"
b11111111111 F
b11111111111 ["
b111111111111 E
b111111111111 S"
b100011 l
b100011 1#
b11001100011000101 d
b11001100011000101 0#
b11111110101110001001 \
b11111110101110001001 /#
b1111 T
b1111 .#
b111111111111111100100 k
b111111111111111100100 )#
b11001100100000100 c
b11001100100000100 (#
b11111110101110000011 [
b11111110101110000011 '#
b1110 S
b1110 &#
b1100011 j
b1100011 !#
b11001100010000101 b
b11001100010000101 ~"
b11111110101110001111 Z
b11111110101110001111 }"
b1101 R
b1101 |"
b111111111111101100100 i
b111111111111101100100 w"
b11001100110000011 a
b11001100110000011 v"
b11111110101101110110 Y
b11111110101101110110 u"
b1100 Q
b1100 t"
b111111111110101100101 h
b111111111110101100101 o"
b11001101110000000 `
b11001101110000000 n"
b11111110101101000011 X
b11111110101101000011 m"
b1011 P
b1011 l"
b111111111100101100110 g
b111111111100101100110 g"
b11001111101111010 _
b11001111101111010 f"
b11111110101011011100 W
b11111110101011011100 e"
b1010 O
b1010 d"
b111111111000101100111 f
b111111111000101100111 _"
b11010011101101111 ^
b11010011101101111 ^"
b11111110101000001001 V
b11111110101000001001 ]"
b1001 N
b1001 \"
b101100110 e
b101100110 W"
b11001011110000100 ]
b11001011110000100 V"
b11111110101110100000 U
b11111110101110100000 U"
b1000 M
b1000 T"
1#
#1200
0#
#1300
1p
b0 ~
b0 J"
1E"
b0 G"
b0 L"
1D"
b0 F"
b0 N"
b1111 H"
b1111 K"
b1000 I"
b1000 M"
1}
b1 ("
b1 4"
1|
b0 '"
b0 6"
1{
1z
b0 %"
b0 :"
b11111000 )"
b11111000 C"
1y
b111111011111101011100001100000 !
b111111011111101011100001100000 )
b111111011111101011100001100000 *
b111111011111101011100001100000 s
b11111101011100001100000 t
b111111101011100001100 q
b111 *"
b111 3"
b1111 +"
b1111 5"
b10 ,"
b10 7"
b1100 -"
b1100 9"
b11 ."
b11 ;"
b1111111010111000011000000000000 o
b1111111010111000011000000000000 u
b11111110101110000110 C
b11111110101110000110 m
b0 +
b0 4#
b0 3
b0 3#
b0 ;
b0 2#
b0 ,
b0 ,#
b0 4
b0 +#
b0 <
b0 *#
b0 -
b0 $#
b0 5
b0 ##
b0 =
b0 "#
b0 .
b0 z"
b0 6
b0 y"
b0 >
b0 x"
b0 /
b0 r"
b1 7
b1 q"
b0 ?
b0 p"
b0 0
b0 j"
b11 8
b11 i"
b0 @
b0 h"
b0 1
b0 b"
b111 9
b111 a"
b0 A
b0 `"
b0 2
b0 Z"
b1111 :
b1111 Y"
b111111111111111111111 B
b111111111111111111111 X"
b0 L
b0 -#
b0 K
b0 %#
b0 J
b0 {"
b0 I
b0 s"
b0 H
b0 k"
b0 G
b0 c"
b0 F
b0 ["
b0 E
b0 S"
b100 l
b100 1#
b11001100011111110 d
b11001100011111110 0#
b11111110101110000101 \
b11111110101110000101 /#
b10111 T
b10111 .#
b100 k
b100 )#
b11001100011111110 c
b11001100011111110 (#
b11111110101110000101 [
b11111110101110000101 '#
b10110 S
b10110 &#
b100 j
b100 !#
b11001100011111110 b
b11001100011111110 ~"
b11111110101110000101 Z
b11111110101110000101 }"
b10101 R
b10101 |"
b100 i
b100 w"
b11001100011111110 a
b11001100011111110 v"
b11111110101110000101 Y
b11111110101110000101 u"
b10100 Q
b10100 t"
b100 h
b100 o"
b11001100011111101 `
b11001100011111101 n"
b11111110101110000101 X
b11111110101110000101 m"
b10011 P
b10011 l"
b100 g
b100 g"
b11001100011111010 _
b11001100011111010 f"
b11111110101110000101 W
b11111110101110000101 e"
b10010 O
b10010 d"
b100 f
b100 _"
b11001100011110011 ^
b11001100011110011 ^"
b11111110101110000101 V
b11111110101110000101 ]"
b10001 N
b10001 \"
b100 e
b100 W"
b11001100011100100 ]
b11001100011100100 V"
b11111110101110000110 U
b11111110101110000110 U"
1"
b10000 M
b10000 T"
1#
#1400
b110011001100110011 D
b110011001100110011 Q"
b1111100 R"
b111110010011001100110011001101 %
b111110010011001100110011001101 (
b111110010011001100110011001101 O"
1'
b10 5#
0#
