src/21_fixed_point/cordic_unroll/cordic_unroll_slave_variable/cordic_tb_waves_v.vcd
$date
	Thu Mar  9 04:29:40 2023
$end
$version
	Icarus Verilog
$end
$timescale
	100ps
$end
$scope module tb $end
$var wire 32 ! result [31:0] $end
$var wire 1 " done $end
$var reg 1 # clk $end
$var reg 1 $ clk_en $end
$var reg 32 % dataa [31:0] $end
$var reg 1 & reset $end
$var reg 1 ' start $end
$scope module unit $end
$var wire 1 & aclr $end
$var wire 1 $ clk_en $end
$var wire 1 # clock $end
$var wire 32 ( dataa [31:0] $end
$var wire 32 ) result [31:0] $end
$var wire 1 ' start $end
$var wire 32 * result_fp [31:0] $end
$var wire 21 + offsetZ3 [20:0] $end
$var wire 21 , offsetZ2 [20:0] $end
$var wire 21 - offsetZ1 [20:0] $end
$var wire 21 . offsetZ [20:0] $end
$var wire 21 / offsetY3 [20:0] $end
$var wire 21 0 offsetY2 [20:0] $end
$var wire 21 1 offsetY1 [20:0] $end
$var wire 21 2 offsetY [20:0] $end
$var wire 21 3 offsetX3 [20:0] $end
$var wire 21 4 offsetX2 [20:0] $end
$var wire 21 5 offsetX1 [20:0] $end
$var wire 21 6 offsetX [20:0] $end
$var wire 21 7 fixed_point_result [20:0] $end
$var wire 21 8 fixed_point_input [20:0] $end
$var wire 1 " done $end
$var reg 21 9 rotateAngle [20:0] $end
$var reg 21 : rotateAngle1 [20:0] $end
$var reg 21 ; rotateAngle2 [20:0] $end
$var reg 21 < rotateAngle3 [20:0] $end
$var reg 5 = rotate_index [4:0] $end
$var reg 5 > rotate_index1 [4:0] $end
$var reg 5 ? rotate_index2 [4:0] $end
$var reg 5 @ rotate_index3 [4:0] $end
$var reg 21 A x [20:0] $end
$var reg 21 B x1 [20:0] $end
$var reg 21 C x2 [20:0] $end
$var reg 21 D x3 [20:0] $end
$var reg 21 E y [20:0] $end
$var reg 21 F y1 [20:0] $end
$var reg 21 G y2 [20:0] $end
$var reg 21 H y3 [20:0] $end
$var reg 21 I z [20:0] $end
$var reg 21 J z1 [20:0] $end
$var reg 21 K z2 [20:0] $end
$var reg 21 L z3 [20:0] $end
$scope module fixed_to_float_unit $end
$var wire 21 M fixed_point_result [20:0] $end
$var wire 5 N leadingOneIndex [4:0] $end
$var wire 32 O fixed_point_result_appended_to_32_bits [31:0] $end
$var wire 1 P containOne_valid $end
$var reg 21 Q intermediate_result [20:0] $end
$var reg 8 R result_exponent [7:0] $end
$var reg 32 S result_fp [31:0] $end
$var reg 23 T result_significant [22:0] $end
$scope module encoder32 $end
$var wire 32 U encoder_input [31:0] $end
$var wire 1 V valid7 $end
$var wire 1 W valid6 $end
$var wire 1 X valid5 $end
$var wire 1 Y valid4 $end
$var wire 1 Z valid3 $end
$var wire 1 [ valid2 $end
$var wire 1 \ valid1 $end
$var wire 1 ] valid0 $end
$var wire 1 P valid $end
$var wire 3 ^ encoder_output8 [2:0] $end
$var wire 2 _ encoder_output7 [1:0] $end
$var wire 2 ` encoder_output6 [1:0] $end
$var wire 2 a encoder_output5 [1:0] $end
$var wire 2 b encoder_output4 [1:0] $end
$var wire 2 c encoder_output3 [1:0] $end
$var wire 2 d encoder_output2 [1:0] $end
$var wire 2 e encoder_output1 [1:0] $end
$var wire 2 f encoder_output0 [1:0] $end
$var wire 8 g encoder_input8 [7:0] $end
$var reg 4 h encoder_input0 [3:0] $end
$var reg 4 i encoder_input1 [3:0] $end
$var reg 4 j encoder_input2 [3:0] $end
$var reg 4 k encoder_input3 [3:0] $end
$var reg 4 l encoder_input4 [3:0] $end
$var reg 4 m encoder_input5 [3:0] $end
$var reg 4 n encoder_input6 [3:0] $end
$var reg 4 o encoder_input7 [3:0] $end
$var reg 5 p encoder_output [4:0] $end
$scope module encoder0 $end
$var wire 4 q encoder_input [3:0] $end
$var reg 2 r encoder_output [1:0] $end
$var reg 1 ] valid $end
$upscope $end
$scope module encoder1 $end
$var wire 4 s encoder_input [3:0] $end
$var reg 2 t encoder_output [1:0] $end
$var reg 1 \ valid $end
$upscope $end
$scope module encoder2 $end
$var wire 4 u encoder_input [3:0] $end
$var reg 2 v encoder_output [1:0] $end
$var reg 1 [ valid $end
$upscope $end
$scope module encoder3 $end
$var wire 4 w encoder_input [3:0] $end
$var reg 2 x encoder_output [1:0] $end
$var reg 1 Z valid $end
$upscope $end
$scope module encoder4 $end
$var wire 4 y encoder_input [3:0] $end
$var reg 2 z encoder_output [1:0] $end
$var reg 1 Y valid $end
$upscope $end
$scope module encoder5 $end
$var wire 4 { encoder_input [3:0] $end
$var reg 2 | encoder_output [1:0] $end
$var reg 1 X valid $end
$upscope $end
$scope module encoder6 $end
$var wire 4 } encoder_input [3:0] $end
$var reg 2 ~ encoder_output [1:0] $end
$var reg 1 W valid $end
$upscope $end
$scope module encoder7 $end
$var wire 4 !" encoder_input [3:0] $end
$var reg 2 "" encoder_output [1:0] $end
$var reg 1 V valid $end
$upscope $end
$scope module encoder8 $end
$var wire 8 #" encoder_input [7:0] $end
$var wire 1 $" valid8_1 $end
$var wire 1 %" valid8_0 $end
$var wire 2 &" encoder_output8_1 [1:0] $end
$var wire 2 '" encoder_output8_0 [1:0] $end
$var reg 4 (" encoder_input8_0 [3:0] $end
$var reg 4 )" encoder_input8_1 [3:0] $end
$var reg 3 *" encoder_output [2:0] $end
$var reg 1 P valid $end
$scope module encoder8_0 $end
$var wire 4 +" encoder_input [3:0] $end
$var reg 2 ," encoder_output [1:0] $end
$var reg 1 %" valid $end
$upscope $end
$scope module encoder8_1 $end
$var wire 4 -" encoder_input [3:0] $end
$var reg 2 ." encoder_output [1:0] $end
$var reg 1 $" valid $end
$upscope $end
$upscope $end
$upscope $end
$upscope $end
$scope module floating_to_fixed_unit $end
$var wire 32 /" dataa [31:0] $end
$var wire 23 0" significand [22:0] $end
$var wire 21 1" fixed_point_input [20:0] $end
$var wire 8 2" exponent [7:0] $end
$upscope $end
$scope module rotation_offset_unit_0 $end
$var wire 21 3" rotateAngle [20:0] $end
$var wire 5 4" rotate_index [4:0] $end
$var wire 21 5" x [20:0] $end
$var wire 21 6" y [20:0] $end
$var wire 21 7" z [20:0] $end
$var reg 21 8" offsetX [20:0] $end
$var reg 21 9" offsetY [20:0] $end
$var reg 21 :" offsetZ [20:0] $end
$upscope $end
$scope module rotation_offset_unit_1 $end
$var wire 21 ;" rotateAngle [20:0] $end
$var wire 5 <" rotate_index [4:0] $end
$var wire 21 =" x [20:0] $end
$var wire 21 >" y [20:0] $end
$var wire 21 ?" z [20:0] $end
$var reg 21 @" offsetX [20:0] $end
$var reg 21 A" offsetY [20:0] $end
$var reg 21 B" offsetZ [20:0] $end
$upscope $end
$scope module rotation_offset_unit_2 $end
$var wire 21 C" rotateAngle [20:0] $end
$var wire 5 D" rotate_index [4:0] $end
$var wire 21 E" x [20:0] $end
$var wire 21 F" y [20:0] $end
$var wire 21 G" z [20:0] $end
$var reg 21 H" offsetX [20:0] $end
$var reg 21 I" offsetY [20:0] $end
$var reg 21 J" offsetZ [20:0] $end
$upscope $end
$scope module rotation_offset_unit_3 $end
$var wire 21 K" rotateAngle [20:0] $end
$var wire 5 L" rotate_index [4:0] $end
$var wire 21 M" x [20:0] $end
$var wire 21 N" y [20:0] $end
$var wire 21 O" z [20:0] $end
$var reg 21 P" offsetX [20:0] $end
$var reg 21 Q" offsetY [20:0] $end
$var reg 21 R" offsetZ [20:0] $end
$upscope $end
$upscope $end
$scope begin $ivl_for_loop0 $end
$var integer 32 S" i [31:0] $end
$upscope $end
$upscope $end
$enddefinitions $end
$comment Show the parameter values. $end
$dumpall
$end
#0
$dumpvars
bx S"
bx R"
bx Q"
bx P"
bx O"
bx N"
bx M"
bx L"
bx K"
bx J"
bx I"
bx H"
bx G"
bx F"
bx E"
bx D"
bx C"
bx B"
bx A"
bx @"
bx ?"
bx >"
bx ="
bx <"
bx ;"
bx :"
bx 9"
bx 8"
bx 7"
bx 6"
bx 5"
bx 4"
bx 3"
bx 2"
bx 1"
bx 0"
bx /"
b10 ."
b0 -"
b10 ,"
b0 +"
b110 *"
b0 )"
b0 ("
b10 '"
b10 &"
0%"
0$"
b0 #"
b10 ""
b0 !"
b10 ~
b0 }
b10 |
b0 {
b10 z
b0 y
b10 x
b0 w
b10 v
b0 u
b10 t
b0 s
b10 r
b0 q
bx p
b0 o
b0 n
b0 m
b0 l
b0 k
b0 j
b0 i
b0 h
b0 g
b10 f
b10 e
b10 d
b10 c
b10 b
b10 a
b10 `
b10 _
b110 ^
0]
0\
0[
0Z
0Y
0X
0W
0V
b0 U
bx000 T
b0xxxxxxxxxxxxxxxxxxxxxxxxxxxx000 S
bx R
bx Q
0P
b0 O
bx N
b0 M
bx L
bx K
bx J
bx I
bx H
bx G
bx F
bx E
bx D
bx C
bx B
bx A
bx @
bx ?
bx >
bx =
bx <
bx ;
bx :
bx 9
bx 8
b0 7
bx 6
bx 5
bx 4
bx 3
bx 2
bx 1
bx 0
bx /
bx .
bx -
bx ,
bx +
b0xxxxxxxxxxxxxxxxxxxxxxxxxxxx000 *
b0xxxxxxxxxxxxxxxxxxxxxxxxxxxx000 )
bx (
0'
1&
bx %
0$
0#
x"
b0xxxxxxxxxxxxxxxxxxxxxxxxxxxx000 !
$end
#100
b111100000011011000011 /
b111100000011011000011 Q"
b10011011011100 3
b10011011011100 P"
b10011011011100110 H
b10011011011100110 N"
b11111100100111011110 D
b11111100100111011110 M"
b111000101101101000001 0
b111000101101101000001 I"
b10011011011101001 4
b10011011011101001 H"
b1001101101110100101 G
b1001101101110100101 F"
b11101001001011110101 C
b11101001001011110101 E"
b111101100010110001000 L
b111101100010110001000 O"
b110110010010001010111 1
b110110010010001010111 A"
b1001101101110100111 5
b1001101101110100111 @"
b110101101101000011010 K
b110101101101000011010 G"
b11 @
b11 L"
b100110110111100000001 J
b100110110111100000001 ?"
b10011011011101001110 F
b10011011011101001110 >"
b10011011011101001110 B
b10011011011101001110 ="
b11111110101011011 +
b11111110101011011 R"
b111110101101101110 ,
b111110101101101110 J"
b1110110101100011001 -
b1110110101100011001 B"
b10 ?
b10 D"
b100110110111100000001 .
b100110110111100000001 :"
b10011011011101001110 2
b10011011011101001110 9"
b0 6
b0 8"
b11111110101011011 <
b11111110101011011 K"
b111110101101101110 ;
b111110101101101110 C"
b1110110101100011001 :
b1110110101100011001 ;"
b11001001000011111101 9
b11001001000011111101 3"
b1 >
b1 <"
b0 I
b0 7"
b0 E
b0 6"
b10011011011101001110 A
b10011011011101001110 5"
0"
b0 =
b0 4"
1#
#200
b0 8
b0 1"
b0 2"
b0 0"
b0 %
b0 (
b0 /"
1'
0&
1$
b0 S"
0#
#300
1#
#400
0'
0#
#500
b1111111111111 /
b1111111111111 Q"
b111 3
b111 P"
b1100101100 L
b1100101100 O"
b111111111110011000110 H
b111111111110011000110 N"
b11111111111111010010 D
b11111111111111010010 M"
b111 @
b111 L"
b111111101111111111111 +
b111111101111111111111 R"
b111111100000000000000 ,
b111111100000000000000 J"
b11111111111011 0
b11111111111011 I"
b100001101 4
b100001101 H"
b111111111110101 -
b111111111110101 B"
b111111000000000010111 1
b111111000000000010111 A"
b111100101 5
b111100101 @"
b100001100101100 K
b100001100101100 G"
b111111011110011001011 G
b111111011110011001011 F"
b11111111111011000101 C
b11111111111011000101 E"
b110 ?
b110 D"
b111110000000001010100 .
b111110000000001010100 :"
b1111111100001011 2
b1111111100001011 9"
b110000100110 6
b110000100110 8"
b1111111111111 <
b1111111111111 K"
b11111111111110 ;
b11111111111110 C"
b111111111110101 :
b111111111110101 ;"
b1111111110101010 9
b1111111110101010 3"
b111111100001100110111 J
b111111100001100110111 ?"
b11110010110100 F
b11110010110100 >"
b11111111110011100000 B
b11111111110011100000 ="
b101 >
b101 <"
b1100001011100011 I
b1100001011100011 7"
b111110011110110101001 E
b111110011110110101001 6"
b11111111000010111010 A
b11111111000010111010 5"
b100 =
b100 4"
1#
#600
0#
#700
b111111111110111111111 /
b111111111110111111111 Q"
b0 3
b0 P"
b111111111111100101000 L
b111111111111100101000 O"
b11000010 H
b11000010 N"
b11111111111111111100 D
b11111111111111111100 M"
b1011 @
b1011 L"
b111111111 +
b111111111 R"
b1111111111 ,
b1111111111 J"
b111111111101111111111 0
b111111111101111111111 I"
b1 4
b1 H"
b11111111111 -
b11111111111 B"
b111111111011111111111 1
b111111111011111111111 A"
b110 5
b110 @"
b111111111101100101001 K
b111111111101100101001 G"
b10011000011 G
b10011000011 F"
b11111111111111111011 C
b11111111111111111011 E"
b1010 ?
b1010 D"
b111111111111 .
b111111111111 :"
b111111110111111111111 2
b111111110111111111111 9"
b11100 6
b11100 8"
b111111111 <
b111111111 K"
b1111111111 ;
b1111111111 C"
b11111111111 :
b11111111111 ;"
b111111111111 9
b111111111111 3"
b111111111001100101010 J
b111111111001100101010 ?"
b110011000100 F
b110011000100 >"
b11111111111111110101 B
b11111111111111110101 ="
b1001 >
b1001 <"
b111111110001100101011 I
b111111110001100101011 7"
b1110011000101 E
b1110011000101 6"
b11111111111111011001 A
b11111111111111011001 5"
b1000 =
b1000 4"
1#
#800
0#
#900
b0 4
b0 H"
b111111111111111011111 /
b111111111111111011111 Q"
b111111111111111111111 3
b111111111111111111111 P"
b111111111111111100100 L
b111111111111111100100 O"
b111111111111111111110 H
b111111111111111111110 N"
b11111111111111111110 D
b11111111111111111110 M"
b1111 @
b1111 L"
b11111 +
b11111 R"
b111111 ,
b111111 J"
b111111111111110111111 0
b111111111111110111111 I"
b111111111111101111111 -
b111111111111101111111 B"
b1111111 1
b1111111 A"
b1 5
b1 @"
b111111111111110100101 K
b111111111111110100101 G"
b111111 G
b111111 F"
b11111111111111111110 C
b11111111111111111110 E"
b1110 ?
b1110 D"
b111111111111011111111 .
b111111111111011111111 :"
b11111111 2
b11111111 9"
b1 6
b1 8"
b11111 <
b11111 K"
b111111 ;
b111111 C"
b1111111 :
b1111111 ;"
b11111111 9
b11111111 3"
b100110 J
b100110 ?"
b111111111111111000000 F
b111111111111111000000 >"
b11111111111111111101 B
b11111111111111111101 ="
b1101 >
b1101 <"
b100100111 I
b100100111 7"
b111111111111011000001 E
b111111111111011000001 6"
b11111111111111111100 A
b11111111111111111100 5"
b1100 =
b1100 4"
1#
#1000
0#
#1100
b111111011111111111111111010000 !
b111111011111111111111111010000 )
b111111011111111111111111010000 *
b111111011111111111111111010000 S
b11111111111111111010000 T
b111111111111111111010 Q
b1111110 R
b1 N
b1 p
1P
b0 ^
b0 *"
1%"
b0 '"
b0 ,"
1$"
b0 &"
b0 ."
b1111 ("
b1111 +"
b1100 )"
b1100 -"
1]
b1 f
b1 r
1\
b0 e
b0 t
1[
b1 d
b1 v
1Z
b0 c
b0 x
1Y
b0 b
b0 z
b11111100 g
b11111100 #"
1X
b0 a
b0 |
b111111111111111111111 4
b111111111111111111111 H"
b111111111111111111101 /
b111111111111111111101 Q"
b111111111111111111111 3
b111111111111111111111 P"
b111 h
b111 q
b1111 i
b1111 s
b111 j
b111 u
b1111 k
b1111 w
b1110 l
b1110 y
b1000 m
b1000 {
b111111111111111111111 L
b111111111111111111111 O"
b111111111111111101110 H
b111111111111111101110 N"
b11111111111111111110 D
b11111111111111111110 M"
b10011 @
b10011 L"
b1111111111111111110100000000000 O
b1111111111111111110100000000000 U
b11111111111111111101 7
b11111111111111111101 M
b0 +
b0 R"
b0 ,
b0 J"
b111111111111111111011 0
b111111111111111111011 I"
b111111111111111111110 -
b111111111111111111110 B"
b111 1
b111 A"
b1 5
b1 @"
b111111111111111111111 K
b111111111111111111111 G"
b111111111111111110011 G
b111111111111111110011 F"
b11111111111111111111 C
b11111111111111111111 E"
b10010 ?
b10010 D"
b111111111111111111110 .
b111111111111111111110 :"
b1111 2
b1111 9"
b0 <
b0 K"
b0 ;
b0 C"
b0 :
b0 ;"
b0 9
b0 3"
b1 J
b1 ?"
b111111111111111101100 F
b111111111111111101100 >"
b11111111111111111110 B
b11111111111111111110 ="
b10001 >
b10001 <"
b11 I
b11 7"
b111111111111111011101 E
b111111111111111011101 6"
b11111111111111111101 A
b11111111111111111101 5"
1"
b10000 =
b10000 4"
1#
#1200
b11001100110011001 8
b11001100110011001 1"
b1111011 2"
b10011001100110011001101 0"
b111101110011001100110011001101 %
b111101110011001100110011001101 (
b111101110011001100110011001101 /"
1'
b1 S"
0#
#1300
0P
b110 ^
b110 *"
0%"
b10 '"
b10 ,"
0$"
b10 &"
b10 ."
b0 ("
b0 +"
b0 )"
b0 -"
b11111100100111011 /
b11111100100111011 Q"
b111111101100100100100 3
b111111101100100100100 P"
0]
b10 f
b10 r
0\
b10 e
b10 t
0[
b10 d
b10 v
0Z
b10 c
b10 x
0Y
b10 b
b10 z
b0 g
b0 #"
0X
b10 a
b10 |
b101111100100001 L
b101111100100001 O"
b10011011011100110 H
b10011011011100110 N"
b11111100100111011110 D
b11111100100111011110 M"
b11 @
b11 L"
b111111000000000000000000000000 !
b111111000000000000000000000000 )
b111111000000000000000000000000 *
b111111000000000000000000000000 S
b0 T
b0 Q
b0 h
b0 q
b0 i
b0 s
b0 j
b0 u
b0 k
b0 w
b0 l
b0 y
b0 m
b0 {
b111100000001010100011 +
b111100000001010100011 R"
b111110101101101110 ,
b111110101101101110 J"
b111000101101101000001 0
b111000101101101000001 I"
b10011011011101001 4
b10011011011101001 H"
b1110110101100011001 -
b1110110101100011001 B"
b110110010010001010111 1
b110110010010001010111 A"
b1001101101110100111 5
b1001101101110100111 @"
b111000111001110110011 K
b111000111001110110011 G"
b1001101101110100101 G
b1001101101110100101 F"
b11101001001011110101 C
b11101001001011110101 E"
b10 ?
b10 D"
b0 O
b0 U
b0 7
b0 M
b100110110111100000001 .
b100110110111100000001 :"
b10011011011101001110 2
b10011011011101001110 9"
b0 6
b0 8"
b11111110101011011 <
b11111110101011011 K"
b111110101101101110 ;
b111110101101101110 C"
b1110110101100011001 :
b1110110101100011001 ;"
b11001001000011111101 9
b11001001000011111101 3"
b101010000100010011010 J
b101010000100010011010 ?"
b10011011011101001110 F
b10011011011101001110 >"
b10011011011101001110 B
b10011011011101001110 ="
b1 >
b1 <"
b11001100110011001 I
b11001100110011001 7"
b0 E
b0 6"
b10011011011101001110 A
b10011011011101001110 5"
0"
b0 =
b0 4"
1#
#1400
0'
0#
#1500
b1111111011101 /
b1111111011101 Q"
b111111111110100010001 3
b111111111110100010001 P"
b10000101100001 L
b10000101100001 O"
b10111011110011101 H
b10111011110011101 N"
b11111110111010001111 D
b11111110111010001111 M"
b111 @
b111 L"
b111111101111111111111 +
b111111101111111111111 R"
b11111111111110 ,
b11111111111110 J"
b111111100000001100000 0
b111111100000001100000 I"
b11011011100 4
b11011011100 H"
b111111111110101 -
b111111111110101 B"
b111111000000101001110 1
b111111000000101001110 A"
b1000110101111 5
b1000110101111 @"
b111111110000101100011 K
b111111110000101100011 G"
b11011011100111101 G
b11011011100111101 F"
b11111110011110110011 C
b11111110011110110011 E"
b110 ?
b110 D"
b1111111110101010 .
b1111111110101010 :"
b111110000010111001110 2
b111110000010111001110 9"
b11001100000010 6
b11001100000010 8"
b1111111111111 <
b1111111111111 K"
b11111111111110 ;
b11111111111110 C"
b111111111110101 :
b111111111110101 ;"
b1111111110101010 9
b1111111110101010 3"
b111110110000101101110 J
b111110110000101101110 ?"
b100011010111101111 F
b100011010111101111 >"
b11111101011000000100 B
b11111101011000000100 ="
b101 >
b101 <"
b111100110000111000100 I
b111100110000111000100 7"
b110011000000100001 E
b110011000000100001 6"
b11111010001100000010 A
b11111010001100000010 5"
b100 =
b100 4"
1#
#1600
0#
#1700
b111111111111000000001 /
b111111111111000000001 Q"
b110011 3
b110011 P"
b111111111110101011101 L
b111111111110101011101 O"
b11001101101110010 H
b11001101101110010 N"
b11111110101101000011 D
b11111110101101000011 M"
b1011 @
b1011 L"
b111111111 +
b111111111 R"
b1111111111 ,
b1111111111 J"
b111111111110000000100 0
b111111111110000000100 I"
b1100111 4
b1100111 H"
b11111111111 -
b11111111111 B"
b111111111100000001001 1
b111111111100000001001 A"
b11010011 5
b11010011 @"
b111111111100101011110 K
b111111111100101011110 G"
b11001111101101110 G
b11001111101101110 F"
b11111110101011011100 C
b11111110101011011100 E"
b1010 ?
b1010 D"
b111111110111111111111 .
b111111110111111111111 :"
b111111101011 2
b111111101011 9"
b111111111111001101001 6
b111111111111001101001 8"
b111111111 <
b111111111 K"
b1111111111 ;
b1111111111 C"
b11111111111 :
b11111111111 ;"
b111111111111 9
b111111111111 3"
b111111111000101011111 J
b111111111000101011111 ?"
b11010011101100101 F
b11010011101100101 >"
b11111110101000001001 B
b11111110101000001001 ="
b1001 >
b1001 <"
b101100000 I
b101100000 7"
b11001011101111010 E
b11001011101111010 6"
b11111110101110100000 A
b11111110101110100000 5"
b1000 =
b1000 4"
1#
#1800
0#
#1900
b11111 /
b11111 Q"
b111111111111111111101 3
b111111111111111111101 P"
b11001 L
b11001 O"
b11001100010110001 H
b11001100010110001 N"
b11111110101110001001 D
b11111110101110001001 M"
b1111 @
b1111 L"
b111111111111111011111 +
b111111111111111011111 R"
b111111 ,
b111111 J"
b111111111111110111111 0
b111111111111110111111 I"
b110 4
b110 H"
b111111111111101111111 -
b111111111111101111111 B"
b1111111 1
b1111111 A"
b111111111111111110100 5
b111111111111111110100 @"
b111111111111111011010 K
b111111111111111011010 G"
b11001100011110010 G
b11001100011110010 F"
b11111110101110000011 C
b11111110101110000011 E"
b1110 ?
b1110 D"
b11111111 .
b11111111 :"
b111111111111100000000 2
b111111111111100000000 9"
b11001 6
b11001 8"
b11111 <
b11111 K"
b111111 ;
b111111 C"
b1111111 :
b1111111 ;"
b11111111 9
b11111111 3"
b1011011 J
b1011011 ?"
b11001100001110011 F
b11001100001110011 >"
b11111110101110001111 B
b11111110101110001111 ="
b1101 >
b1101 <"
b111111111111101011100 I
b111111111111101011100 7"
b11001100101110011 E
b11001100101110011 6"
b11111110101101110110 A
b11111110101101110110 5"
b1100 =
b1100 4"
1#
#2000
0#
#2100
1P
b0 ^
b0 *"
1%"
b0 '"
b0 ,"
1$"
b0 &"
b0 ."
b1111 ("
b1111 +"
b1000 )"
b1000 -"
1]
b1 f
b1 r
1\
b0 e
b0 t
1[
1Z
b0 c
b0 x
b11111000 g
b11111000 #"
1Y
b111111111111111111101 /
b111111111111111111101 Q"
b0 3
b0 P"
b111111011111101011100001100000 !
b111111011111101011100001100000 )
b111111011111101011100001100000 *
b111111011111101011100001100000 S
b11111101011100001100000 T
b111111101011100001100 Q
b111 h
b111 q
b1111 i
b1111 s
b10 j
b10 u
b1100 k
b1100 w
b11 l
b11 y
b111111111111111111000 L
b111111111111111111000 O"
b11001100010110001 H
b11001100010110001 N"
b11111110101110000111 D
b11111110101110000111 M"
b10011 @
b10011 L"
b1111111010111000011000000000000 O
b1111111010111000011000000000000 U
b11111110101110000110 7
b11111110101110000110 M
b0 +
b0 R"
b0 ,
b0 J"
b111111111111111111011 0
b111111111111111111011 I"
b0 4
b0 H"
b0 -
b0 B"
b111111111111111110111 1
b111111111111111110111 A"
b0 5
b0 @"
b111111111111111111000 K
b111111111111111111000 G"
b11001100010110110 G
b11001100010110110 F"
b11111110101110000111 C
b11111110101110000111 E"
b10010 ?
b10010 D"
b0 .
b0 :"
b111111111111111101111 2
b111111111111111101111 9"
b1 6
b1 8"
b0 <
b0 K"
b0 ;
b0 C"
b0 :
b0 ;"
b0 9
b0 3"
b111111111111111111000 J
b111111111111111111000 ?"
b11001100010111111 F
b11001100010111111 >"
b11111110101110000111 B
b11111110101110000111 ="
b10001 >
b10001 <"
b111111111111111111000 I
b111111111111111111000 7"
b11001100011010000 E
b11001100011010000 6"
b11111110101110000110 A
b11111110101110000110 5"
1"
b10000 =
b10000 4"
1#
#2200
b110011001100110011 8
b110011001100110011 1"
b1111100 2"
b111110010011001100110011001101 %
b111110010011001100110011001101 (
b111110010011001100110011001101 /"
1'
b10 S"
0#
#2300
0P
b110 ^
b110 *"
0%"
b10 '"
b10 ,"
0$"
b10 &"
b10 ."
b0 ("
b0 +"
b0 )"
b0 -"
b11111100100111011 /
b11111100100111011 Q"
b111111101100100100100 3
b111111101100100100100 P"
0]
b10 f
b10 r
0\
b10 e
b10 t
0[
0Z
b10 c
b10 x
b0 g
b0 #"
0Y
b11111100010111011 L
b11111100010111011 O"
b10011011011100110 H
b10011011011100110 N"
b11111100100111011110 D
b11111100100111011110 M"
b11 @
b11 L"
b111111000000000000000000000000 !
b111111000000000000000000000000 )
b111111000000000000000000000000 *
b111111000000000000000000000000 S
b0 T
b0 Q
b0 h
b0 q
b0 i
b0 s
b0 j
b0 u
b0 k
b0 w
b0 l
b0 y
b111100000001010100011 +
b111100000001010100011 R"
b111110101101101110 ,
b111110101101101110 J"
b111000101101101000001 0
b111000101101101000001 I"
b10011011011101001 4
b10011011011101001 H"
b1110110101100011001 -
b1110110101100011001 B"
b110110010010001010111 1
b110110010010001010111 A"
b1001101101110100111 5
b1001101101110100111 @"
b111100000110101001101 K
b111100000110101001101 G"
b1001101101110100101 G
b1001101101110100101 F"
b11101001001011110101 C
b11101001001011110101 E"
b10 ?
b10 D"
b0 O
b0 U
b0 7
b0 M
b100110110111100000001 .
b100110110111100000001 :"
b10011011011101001110 2
b10011011011101001110 9"
b0 6
b0 8"
b11111110101011011 <
b11111110101011011 K"
b111110101101101110 ;
b111110101101101110 C"
b1110110101100011001 :
b1110110101100011001 ;"
b11001001000011111101 9
b11001001000011111101 3"
b101101010001000110100 J
b101101010001000110100 ?"
b10011011011101001110 F
b10011011011101001110 >"
b10011011011101001110 B
b10011011011101001110 ="
b1 >
b1 <"
b110011001100110011 I
b110011001100110011 7"
b0 E
b0 6"
b10011011011101001110 A
b10011011011101001110 5"
0"
b0 =
b0 4"
1#
#2400
0'
0#
#2500
b1111101110011 /
b1111101110011 Q"
b111111111101000011001 3
b111111111101000011001 P"
b11101100010001 L
b11101100010001 O"
b101111001110110000 H
b101111001110110000 N"
b11111011100110000011 D
b11111011100110000011 M"
b111 @
b111 L"
b111111101111111111111 +
b111111101111111111111 R"
b111111100000000000000 ,
b111111100000000000000 J"
b11111100010001 0
b11111100010001 I"
b111111111010100101110 4
b111111111010100101110 H"
b111111000000000001001 -
b111111000000000001001 B"
b111111010110000 1
b111111010110000 A"
b111111110111001010001 5
b111111110111001010001 @"
b111101100010001 K
b111101100010001 G"
b101011010010011111 G
b101011010010011111 F"
b11111100010001010101 C
b11111100010001010101 E"
b110 ?
b110 D"
b1111111110101010 .
b1111111110101010 :"
b111110000010111001110 2
b111110000010111001110 9"
b11001100000010 6
b11001100000010 8"
b1111111111111 <
b1111111111111 K"
b11111111111110 ;
b11111111111110 C"
b111111111110101 :
b111111111110101 ;"
b1111111110101010 9
b1111111110101010 3"
b1111101100001000 J
b1111101100001000 ?"
b100011010111101111 F
b100011010111101111 >"
b11111101011000000100 B
b11111101011000000100 ="
b101 >
b101 <"
b111111111101101011110 I
b111111111101101011110 7"
b110011000000100001 E
b110011000000100001 6"
b11111010001100000010 A
b11111010001100000010 5"
b100 =
b100 4"
1#
#2600
0#
#2700
b111111111111000001001 /
b111111111111000001001 Q"
b1100101 3
b1100101 P"
b111111111111100001101 L
b111111111111100001101 O"
b110010111010011001 H
b110010111010011001 N"
b11111010111000101110 D
b11111010111000101110 M"
b1011 @
b1011 L"
b111111111 +
b111111111 R"
b111111111101111111111 ,
b111111111101111111111 J"
b1111101011 0
b1111101011 I"
b111111111111100110110 4
b111111111111100110110 H"
b111111111011111111111 -
b111111111011111111111 B"
b11111011000 1
b11111011000 A"
b111111111111001101111 5
b111111111111001101111 @"
b1100001110 K
b1100001110 G"
b110010101010101110 G
b110010101010101110 F"
b11111010111011111000 C
b11111010111011111000 E"
b1010 ?
b1010 D"
b111111110111111111111 .
b111111110111111111111 :"
b111110110011 2
b111110110011 9"
b111111111110011101101 6
b111111111110011101101 8"
b111111111 <
b111111111 K"
b1111111111 ;
b1111111111 C"
b11111111111 :
b11111111111 ;"
b111111111111 9
b111111111111 3"
b101100001111 J
b101100001111 ?"
b110010001011010110 F
b110010001011010110 >"
b11111011000010001001 B
b11111011000010001001 ="
b1001 >
b1001 <"
b1101100010000 I
b1101100010000 7"
b110001001100100011 E
b110001001100100011 6"
b11111011001110011100 A
b11111011001110011100 5"
b1000 =
b1000 4"
1#
#2800
0#
#2900
b111111111111111011111 /
b111111111111111011111 Q"
b110 3
b110 P"
b111111111111111001001 L
b111111111111111001001 O"
b110010110111011001 H
b110010110111011001 N"
b11111010111001010100 D
b11111010111001010100 M"
b1111 @
b1111 L"
b11111 +
b11111 R"
b111111 ,
b111111 J"
b111111111111111000000 0
b111111111111111000000 I"
b1100 4
b1100 H"
b111111111111101111111 -
b111111111111101111111 B"
b1111101 1
b1111101 A"
b111111111111111100111 5
b111111111111111100111 @"
b111111111111110001010 K
b111111111111110001010 G"
b110010111000011001 G
b110010111000011001 F"
b11111010111001001000 C
b11111010111001001000 E"
b1110 ?
b1110 D"
b111111111111011111111 .
b111111111111011111111 :"
b11111010 2
b11111010 9"
b111111111111111001110 6
b111111111111111001110 8"
b11111 <
b11111 K"
b111111 ;
b111111 C"
b1111111 :
b1111111 ;"
b11111111 9
b11111111 3"
b1011 J
b1011 ?"
b110010110110011100 F
b110010110110011100 >"
b11111010111001100001 B
b11111010111001100001 ="
b1101 >
b1101 <"
b100001100 I
b100001100 7"
b110010110010100010 E
b110010110010100010 6"
b11111010111010010011 A
b11111010111010010011 5"
b1100 =
b1100 4"
1#
#3000
0#
