src/21_fixed_point/cordic_unroll/cordic_unroll_slave_variable/cordic_tb_waves_v.vcd
$date
	Wed Mar  8 04:04:47 2023
$end
$version
	Icarus Verilog
$end
$timescale
	100ps
$end
$scope module tb $end
$var wire 32 ! result [31:0] $end
$var wire 1 " done $end
$var reg 1 # clk $end
$var reg 1 $ clk_en $end
$var reg 32 % dataa [31:0] $end
$var reg 1 & reset $end
$var reg 1 ' start $end
$scope module unit $end
$var wire 1 & aclr $end
$var wire 1 $ clk_en $end
$var wire 1 # clock $end
$var wire 32 ( dataa [31:0] $end
$var wire 32 ) result [31:0] $end
$var wire 1 ' start $end
$var wire 32 * result_fp [31:0] $end
$var wire 21 + offsetZ7 [20:0] $end
$var wire 21 , offsetZ6 [20:0] $end
$var wire 21 - offsetZ5 [20:0] $end
$var wire 21 . offsetZ4 [20:0] $end
$var wire 21 / offsetZ3 [20:0] $end
$var wire 21 0 offsetZ2 [20:0] $end
$var wire 21 1 offsetZ1 [20:0] $end
$var wire 21 2 offsetZ [20:0] $end
$var wire 21 3 offsetY7 [20:0] $end
$var wire 21 4 offsetY6 [20:0] $end
$var wire 21 5 offsetY5 [20:0] $end
$var wire 21 6 offsetY4 [20:0] $end
$var wire 21 7 offsetY3 [20:0] $end
$var wire 21 8 offsetY2 [20:0] $end
$var wire 21 9 offsetY1 [20:0] $end
$var wire 21 : offsetY [20:0] $end
$var wire 21 ; offsetX7 [20:0] $end
$var wire 21 < offsetX6 [20:0] $end
$var wire 21 = offsetX5 [20:0] $end
$var wire 21 > offsetX4 [20:0] $end
$var wire 21 ? offsetX3 [20:0] $end
$var wire 21 @ offsetX2 [20:0] $end
$var wire 21 A offsetX1 [20:0] $end
$var wire 21 B offsetX [20:0] $end
$var wire 21 C fixed_point_result [20:0] $end
$var wire 21 D fixed_point_input [20:0] $end
$var wire 1 " done $end
$var reg 21 E rotateAngle [20:0] $end
$var reg 21 F rotateAngle1 [20:0] $end
$var reg 21 G rotateAngle2 [20:0] $end
$var reg 21 H rotateAngle3 [20:0] $end
$var reg 21 I rotateAngle4 [20:0] $end
$var reg 21 J rotateAngle5 [20:0] $end
$var reg 21 K rotateAngle6 [20:0] $end
$var reg 21 L rotateAngle7 [20:0] $end
$var reg 5 M rotate_index [4:0] $end
$var reg 5 N rotate_index1 [4:0] $end
$var reg 5 O rotate_index2 [4:0] $end
$var reg 5 P rotate_index3 [4:0] $end
$var reg 5 Q rotate_index4 [4:0] $end
$var reg 5 R rotate_index5 [4:0] $end
$var reg 5 S rotate_index6 [4:0] $end
$var reg 5 T rotate_index7 [4:0] $end
$var reg 21 U x [20:0] $end
$var reg 21 V x1 [20:0] $end
$var reg 21 W x2 [20:0] $end
$var reg 21 X x3 [20:0] $end
$var reg 21 Y x4 [20:0] $end
$var reg 21 Z x5 [20:0] $end
$var reg 21 [ x6 [20:0] $end
$var reg 21 \ x7 [20:0] $end
$var reg 21 ] y [20:0] $end
$var reg 21 ^ y1 [20:0] $end
$var reg 21 _ y2 [20:0] $end
$var reg 21 ` y3 [20:0] $end
$var reg 21 a y4 [20:0] $end
$var reg 21 b y5 [20:0] $end
$var reg 21 c y6 [20:0] $end
$var reg 21 d y7 [20:0] $end
$var reg 21 e z [20:0] $end
$var reg 21 f z1 [20:0] $end
$var reg 21 g z2 [20:0] $end
$var reg 21 h z3 [20:0] $end
$var reg 21 i z4 [20:0] $end
$var reg 21 j z5 [20:0] $end
$var reg 21 k z6 [20:0] $end
$var reg 21 l z7 [20:0] $end
$scope module fixed_to_float_unit $end
$var wire 21 m fixed_point_result [20:0] $end
$var wire 5 n leadingOneIndex [4:0] $end
$var wire 32 o fixed_point_result_appended_to_32_bits [31:0] $end
$var wire 1 p containOne_valid $end
$var reg 21 q intermediate_result [20:0] $end
$var reg 8 r result_exponent [7:0] $end
$var reg 32 s result_fp [31:0] $end
$var reg 23 t result_significant [22:0] $end
$scope module encoder32 $end
$var wire 32 u encoder_input [31:0] $end
$var wire 1 v valid7 $end
$var wire 1 w valid6 $end
$var wire 1 x valid5 $end
$var wire 1 y valid4 $end
$var wire 1 z valid3 $end
$var wire 1 { valid2 $end
$var wire 1 | valid1 $end
$var wire 1 } valid0 $end
$var wire 1 p valid $end
$var wire 3 ~ encoder_output8 [2:0] $end
$var wire 2 !" encoder_output7 [1:0] $end
$var wire 2 "" encoder_output6 [1:0] $end
$var wire 2 #" encoder_output5 [1:0] $end
$var wire 2 $" encoder_output4 [1:0] $end
$var wire 2 %" encoder_output3 [1:0] $end
$var wire 2 &" encoder_output2 [1:0] $end
$var wire 2 '" encoder_output1 [1:0] $end
$var wire 2 (" encoder_output0 [1:0] $end
$var wire 8 )" encoder_input8 [7:0] $end
$var reg 4 *" encoder_input0 [3:0] $end
$var reg 4 +" encoder_input1 [3:0] $end
$var reg 4 ," encoder_input2 [3:0] $end
$var reg 4 -" encoder_input3 [3:0] $end
$var reg 4 ." encoder_input4 [3:0] $end
$var reg 4 /" encoder_input5 [3:0] $end
$var reg 4 0" encoder_input6 [3:0] $end
$var reg 4 1" encoder_input7 [3:0] $end
$var reg 5 2" encoder_output [4:0] $end
$scope module encoder0 $end
$var wire 4 3" encoder_input [3:0] $end
$var reg 2 4" encoder_output [1:0] $end
$var reg 1 } valid $end
$upscope $end
$scope module encoder1 $end
$var wire 4 5" encoder_input [3:0] $end
$var reg 2 6" encoder_output [1:0] $end
$var reg 1 | valid $end
$upscope $end
$scope module encoder2 $end
$var wire 4 7" encoder_input [3:0] $end
$var reg 2 8" encoder_output [1:0] $end
$var reg 1 { valid $end
$upscope $end
$scope module encoder3 $end
$var wire 4 9" encoder_input [3:0] $end
$var reg 2 :" encoder_output [1:0] $end
$var reg 1 z valid $end
$upscope $end
$scope module encoder4 $end
$var wire 4 ;" encoder_input [3:0] $end
$var reg 2 <" encoder_output [1:0] $end
$var reg 1 y valid $end
$upscope $end
$scope module encoder5 $end
$var wire 4 =" encoder_input [3:0] $end
$var reg 2 >" encoder_output [1:0] $end
$var reg 1 x valid $end
$upscope $end
$scope module encoder6 $end
$var wire 4 ?" encoder_input [3:0] $end
$var reg 2 @" encoder_output [1:0] $end
$var reg 1 w valid $end
$upscope $end
$scope module encoder7 $end
$var wire 4 A" encoder_input [3:0] $end
$var reg 2 B" encoder_output [1:0] $end
$var reg 1 v valid $end
$upscope $end
$scope module encoder8 $end
$var wire 8 C" encoder_input [7:0] $end
$var wire 1 D" valid8_1 $end
$var wire 1 E" valid8_0 $end
$var wire 2 F" encoder_output8_1 [1:0] $end
$var wire 2 G" encoder_output8_0 [1:0] $end
$var reg 4 H" encoder_input8_0 [3:0] $end
$var reg 4 I" encoder_input8_1 [3:0] $end
$var reg 3 J" encoder_output [2:0] $end
$var reg 1 p valid $end
$scope module encoder8_0 $end
$var wire 4 K" encoder_input [3:0] $end
$var reg 2 L" encoder_output [1:0] $end
$var reg 1 E" valid $end
$upscope $end
$scope module encoder8_1 $end
$var wire 4 M" encoder_input [3:0] $end
$var reg 2 N" encoder_output [1:0] $end
$var reg 1 D" valid $end
$upscope $end
$upscope $end
$upscope $end
$upscope $end
$scope module floating_to_fixed_unit $end
$var wire 32 O" dataa [31:0] $end
$var wire 23 P" significand [22:0] $end
$var wire 21 Q" fixed_point_input [20:0] $end
$var wire 8 R" exponent [7:0] $end
$upscope $end
$scope module rotation_offset_unit_0 $end
$var wire 21 S" rotateAngle [20:0] $end
$var wire 5 T" rotate_index [4:0] $end
$var wire 21 U" x [20:0] $end
$var wire 21 V" y [20:0] $end
$var wire 21 W" z [20:0] $end
$var reg 21 X" offsetX [20:0] $end
$var reg 21 Y" offsetY [20:0] $end
$var reg 21 Z" offsetZ [20:0] $end
$upscope $end
$scope module rotation_offset_unit_1 $end
$var wire 21 [" rotateAngle [20:0] $end
$var wire 5 \" rotate_index [4:0] $end
$var wire 21 ]" x [20:0] $end
$var wire 21 ^" y [20:0] $end
$var wire 21 _" z [20:0] $end
$var reg 21 `" offsetX [20:0] $end
$var reg 21 a" offsetY [20:0] $end
$var reg 21 b" offsetZ [20:0] $end
$upscope $end
$scope module rotation_offset_unit_2 $end
$var wire 21 c" rotateAngle [20:0] $end
$var wire 5 d" rotate_index [4:0] $end
$var wire 21 e" x [20:0] $end
$var wire 21 f" y [20:0] $end
$var wire 21 g" z [20:0] $end
$var reg 21 h" offsetX [20:0] $end
$var reg 21 i" offsetY [20:0] $end
$var reg 21 j" offsetZ [20:0] $end
$upscope $end
$scope module rotation_offset_unit_3 $end
$var wire 21 k" rotateAngle [20:0] $end
$var wire 5 l" rotate_index [4:0] $end
$var wire 21 m" x [20:0] $end
$var wire 21 n" y [20:0] $end
$var wire 21 o" z [20:0] $end
$var reg 21 p" offsetX [20:0] $end
$var reg 21 q" offsetY [20:0] $end
$var reg 21 r" offsetZ [20:0] $end
$upscope $end
$scope module rotation_offset_unit_4 $end
$var wire 21 s" rotateAngle [20:0] $end
$var wire 5 t" rotate_index [4:0] $end
$var wire 21 u" x [20:0] $end
$var wire 21 v" y [20:0] $end
$var wire 21 w" z [20:0] $end
$var reg 21 x" offsetX [20:0] $end
$var reg 21 y" offsetY [20:0] $end
$var reg 21 z" offsetZ [20:0] $end
$upscope $end
$scope module rotation_offset_unit_5 $end
$var wire 21 {" rotateAngle [20:0] $end
$var wire 5 |" rotate_index [4:0] $end
$var wire 21 }" x [20:0] $end
$var wire 21 ~" y [20:0] $end
$var wire 21 !# z [20:0] $end
$var reg 21 "# offsetX [20:0] $end
$var reg 21 ## offsetY [20:0] $end
$var reg 21 $# offsetZ [20:0] $end
$upscope $end
$scope module rotation_offset_unit_6 $end
$var wire 21 %# rotateAngle [20:0] $end
$var wire 5 &# rotate_index [4:0] $end
$var wire 21 '# x [20:0] $end
$var wire 21 (# y [20:0] $end
$var wire 21 )# z [20:0] $end
$var reg 21 *# offsetX [20:0] $end
$var reg 21 +# offsetY [20:0] $end
$var reg 21 ,# offsetZ [20:0] $end
$upscope $end
$scope module rotation_offset_unit_7 $end
$var wire 21 -# rotateAngle [20:0] $end
$var wire 5 .# rotate_index [4:0] $end
$var wire 21 /# x [20:0] $end
$var wire 21 0# y [20:0] $end
$var wire 21 1# z [20:0] $end
$var reg 21 2# offsetX [20:0] $end
$var reg 21 3# offsetY [20:0] $end
$var reg 21 4# offsetZ [20:0] $end
$upscope $end
$upscope $end
$upscope $end
$enddefinitions $end
#0
$dumpvars
bx 4#
bx 3#
bx 2#
bx 1#
bx 0#
bx /#
bx .#
bx -#
bx ,#
bx +#
bx *#
bx )#
bx (#
bx '#
bx &#
bx %#
bx $#
bx ##
bx "#
bx !#
bx ~"
bx }"
bx |"
bx {"
bx z"
bx y"
bx x"
bx w"
bx v"
bx u"
bx t"
bx s"
bx r"
bx q"
bx p"
bx o"
bx n"
bx m"
bx l"
bx k"
bx j"
bx i"
bx h"
bx g"
bx f"
bx e"
bx d"
bx c"
bx b"
bx a"
bx `"
bx _"
bx ^"
bx ]"
bx \"
bx ["
bx Z"
bx Y"
bx X"
bx W"
bx V"
bx U"
bx T"
bx S"
bx R"
bx Q"
bx P"
bx O"
b10 N"
b0 M"
b10 L"
b0 K"
b110 J"
b0 I"
b0 H"
b10 G"
b10 F"
0E"
0D"
b0 C"
b10 B"
b0 A"
b10 @"
b0 ?"
b10 >"
b0 ="
b10 <"
b0 ;"
b10 :"
b0 9"
b10 8"
b0 7"
b10 6"
b0 5"
b10 4"
b0 3"
bx 2"
b0 1"
b0 0"
b0 /"
b0 ."
b0 -"
b0 ,"
b0 +"
b0 *"
b0 )"
b10 ("
b10 '"
b10 &"
b10 %"
b10 $"
b10 #"
b10 ""
b10 !"
b110 ~
0}
0|
0{
0z
0y
0x
0w
0v
b0 u
bx000 t
b0xxxxxxxxxxxxxxxxxxxxxxxxxxxx000 s
bx r
bx q
0p
b0 o
bx n
b0 m
bx l
bx k
bx j
bx i
bx h
bx g
bx f
bx e
bx d
bx c
bx b
bx a
bx `
bx _
bx ^
bx ]
bx \
bx [
bx Z
bx Y
bx X
bx W
bx V
bx U
bx T
bx S
bx R
bx Q
bx P
bx O
bx N
bx M
bx L
bx K
bx J
bx I
bx H
bx G
bx F
bx E
bx D
b0 C
bx B
bx A
bx @
bx ?
bx >
bx =
bx <
bx ;
bx :
bx 9
bx 8
bx 7
bx 6
bx 5
bx 4
bx 3
bx 2
bx 1
bx 0
bx /
bx .
bx -
bx ,
bx +
b0xxxxxxxxxxxxxxxxxxxxxxxxxxxx000 *
b0xxxxxxxxxxxxxxxxxxxxxxxxxxxx000 )
bx (
0'
1&
bx %
0$
0#
x"
b0xxxxxxxxxxxxxxxxxxxxxxxxxxxx000 !
$end
#100
b10011001110 d
b10011001110 0#
b11010111111110010011 \
b11010111111110010011 /#
b111111100110011010011 c
b111111100110011010011 (#
b11011111111011000110 [
b11011111111011000110 '#
b11110010111010 b
b11110010111010 ~"
b11011111110011100001 Z
b11011111110011100001 }"
b111110011110110101111 a
b111110011110110101111 v"
b11111111000010111011 Y
b11111111000010111011 u"
b111100000011011000101 7
b111100000011011000101 q"
b10011011011101010 `
b10011011011101010 n"
b11111100100111011110 X
b11111100100111011110 m"
b111000101101101000011 8
b111000101101101000011 i"
b1001101101110100111 _
b1001101101110100111 f"
b11101001001011110101 W
b11101001001011110101 e"
b1101011111111 3
b1101011111111 3#
b11011111111011 4
b11011111111011 +#
b111111001000000011001 5
b111111001000000011001 ##
b1111111100001011 6
b1111111100001011 y"
b110110010010001011001 9
b110110010010001011001 a"
b1100110010 l
b1100110010 1#
b100001100110000 k
b100001100110000 )#
b111111100001100111011 j
b111111100001100111011 !#
b1100001011100101 i
b1100001011100101 w"
b111101100010110001010 h
b111101100010110001010 o"
b110101101101000011100 g
b110101101101000011100 g"
b100110110111100000011 f
b100110110111100000011 _"
b10011011011101001110 ^
b10011011011101001110 ^"
b10011011011101001110 V
b10011011011101001110 ]"
b111111110000000000001 +
b111111110000000000001 4#
b111111111111111110111 ;
b111111111111111110111 2#
b111111100000000000010 ,
b111111100000000000010 ,#
b111111000000011001101 <
b111111000000011001101 *#
b111111111110101 -
b111111111110101 $#
b111100101 =
b111100101 "#
b111110000000001010110 .
b111110000000001010110 z"
b111100000110000100110 >
b111100000110000100110 x"
b11111110101011011 /
b11111110101011011 r"
b10011011011101 ?
b10011011011101 p"
b111110101101101110 0
b111110101101101110 j"
b10011011011101001 @
b10011011011101001 h"
b1110110101100011001 1
b1110110101100011001 b"
b1001101101110100111 A
b1001101101110100111 `"
b100110110111100000011 2
b100110110111100000011 Z"
b10011011011101001110 :
b10011011011101001110 Y"
b0 B
b0 X"
b1111111111111 L
b1111111111111 -#
b11111111111110 K
b11111111111110 %#
b111111111110101 J
b111111111110101 {"
b1111111110101010 I
b1111111110101010 s"
b11111110101011011 H
b11111110101011011 k"
b111110101101101110 G
b111110101101101110 c"
b1110110101100011001 F
b1110110101100011001 ["
b11001001000011111101 E
b11001001000011111101 S"
b111 T
b111 .#
b110 S
b110 &#
b101 R
b101 |"
b100 Q
b100 t"
b11 P
b11 l"
b10 O
b10 d"
b1 N
b1 \"
b0 e
b0 W"
b0 ]
b0 V"
b10011011011101001110 U
b10011011011101001110 U"
0"
b0 M
b0 T"
1#
#200
b10110011001100110011 D
b10110011001100110011 Q"
b1111110 R"
b1100110011001100110011 P"
b111111001100110011001100110011 %
b111111001100110011001100110011 (
b111111001100110011001100110011 O"
1'
0&
1$
0#
#300
b1111111111111 +
b1111111111111 4#
b111111110011110101010 3
b111111110011110101010 3#
b1010011000110 ;
b1010011000110 2#
b11111111111110 ,
b11111111111110 ,#
b111111100111111111101 4
b111111100111111111101 +#
b10101001001101 <
b10101001001101 *#
b1100010011000000 6
b1100010011000000 y"
b111110101110101000010 >
b111110101110101000010 x"
b10100110001101011000 d
b10100110001101011000 0#
b11000010101100010100 \
b11000010101100010100 /#
b10101001001101011011 c
b10101001001101011011 (#
b11000000000011000111 [
b11000000000011000111 '#
b10101111000010100101 b
b10101111000010100101 ~"
b10111010100101000010 Z
b10111010100101000010 }"
b10100010101111100101 a
b10100010101111100101 v"
b11000100110000000000 Y
b11000100110000000000 u"
b10001000000001100100 `
b10001000000001100100 n"
b11010101110000001100 X
b11010101110000001100 m"
b111111111110101 -
b111111111110101 $#
b111111010001010110110 5
b111111010001010110110 ##
b101011110000101 =
b101011110000101 "#
b111100000001010100101 /
b111100000001010100101 r"
b11010101110000001 7
b11010101110000001 q"
b111101110111111110100 ?
b111101110111111110100 p"
b111000001010010010010 0
b111000001010010010010 j"
b111010010010111101 8
b111010010010111101 i"
b111101100100100010111 @
b111101100100100010111 h"
b111111110010011001111 l
b111111110010011001111 1#
b111111010010011010001 k
b111111010010011010001 )#
b111110010010011011100 j
b111110010010011011100 !#
b10010010000110 i
b10010010000110 w"
b100010000111100001 h
b100010000111100001 o"
b1100000110101001111 g
b1100000110101001111 g"
b111101010001000110110 f
b111101010001000110110 _"
b10110011001100110011 e
b10110011001100110011 W"
1#
#400
0'
0#
#500
b111111111111111100001 +
b111111111111111100001 4#
b11000 3
b11000 3#
b111111111111111101100 ;
b111111111111111101100 2#
b111111111111111000001 ,
b111111111111111000001 ,#
b110000 4
b110000 +#
b111111111111111010111 <
b111111111111111010111 *#
b1111111 -
b1111111 $#
b111111111111110011111 5
b111111111111110011111 ##
b1010010 =
b1010010 "#
b11111111 .
b11111111 z"
b111111111111100111101 6
b111111111111100111101 y"
b10100100 >
b10100100 x"
b111111111111000000001 /
b111111111111000000001 r"
b110000111 7
b110000111 q"
b111111111111010110111 ?
b111111111111010110111 p"
b1111111111 0
b1111111111 j"
b111111111110011110010 8
b111111111110011110010 i"
b1010010100 @
b1010010100 h"
b11111111111 1
b11111111111 b"
b111111111100111100110 9
b111111111100111100110 a"
b10100101011 A
b10100101011 `"
b111111111000000000001 2
b111111111000000000001 Z"
b110000111111 :
b110000111111 Y"
b111111111010110110101 B
b111111111010110110101 X"
b11111 L
b11111 -#
b111111 K
b111111 %#
b1111111 J
b1111111 {"
b11111111 I
b11111111 s"
b111111111 H
b111111111 k"
b1111111111 G
b1111111111 c"
b11111111111 F
b11111111111 ["
b111111111111 E
b111111111111 S"
b1101 l
b1101 1#
b10100100111010101100 d
b10100100111010101100 0#
b11000011110011010010 \
b11000011110011010010 /#
b1111 T
b1111 .#
b1001100 k
b1001100 )#
b10100100111001111100 c
b10100100111001111100 (#
b11000011110011111011 [
b11000011110011111011 '#
b1110 S
b1110 &#
b111111111111111001101 j
b111111111111111001101 !#
b10100100111011011101 b
b10100100111011011101 ~"
b11000011110010101001 Z
b11000011110010101001 }"
b1101 R
b1101 |"
b111111111111011001110 i
b111111111111011001110 w"
b10100100111110100000 a
b10100100111110100000 v"
b11000011110000000101 Y
b11000011110000000101 u"
b1100 Q
b1100 t"
b11001101 h
b11001101 o"
b10100100111000011001 `
b10100100111000011001 n"
b11000011110101001110 X
b11000011110101001110 m"
b1011 P
b1011 l"
b111111111110011001110 g
b111111111110011001110 g"
b10100101000100100111 _
b10100101000100100111 f"
b11000011101010111010 W
b11000011101010111010 e"
b1010 O
b1010 d"
b111111111010011001111 f
b111111111010011001111 _"
b10100101011101000001 ^
b10100101011101000001 ^"
b11000011010110001111 V
b11000011010110001111 ]"
b1001 N
b1001 \"
b10011001110 e
b10011001110 W"
b10100100101100000010 ]
b10100100101100000010 V"
b11000011111111011010 U
b11000011111111011010 U"
b1000 M
b1000 T"
1#
#600
0#
#700
b111111010000111100101111100000 !
b111111010000111100101111100000 )
b111111010000111100101111100000 *
b111111010000111100101111100000 s
b10000111100101111100000 t
b110000111100101111100 q
b1111110 r
b1 n
b1 2"
1p
b0 ~
b0 J"
1E"
b0 G"
b0 L"
1D"
b0 F"
b0 N"
b1111 H"
b1111 K"
b1000 I"
b1000 M"
1}
b1 ("
b1 4"
1|
b11 '"
b11 6"
1{
b1 &"
b1 8"
1z
b1 %"
b1 :"
b11111000 )"
b11111000 C"
1y
b0 $"
b0 <"
b110 *"
b110 3"
b1 +"
b1 5"
b111 ,"
b111 7"
b101 -"
b101 9"
b1111 ."
b1111 ;"
b1100001111001011111000000000000 o
b1100001111001011111000000000000 u
b11000011110010111110 C
b11000011110010111110 m
b0 +
b0 4#
b0 3
b0 3#
b0 ;
b0 2#
b0 ,
b0 ,#
b0 4
b0 +#
b0 <
b0 *#
b0 -
b0 $#
b0 5
b0 ##
b0 =
b0 "#
b0 .
b0 z"
b0 6
b0 y"
b0 >
b0 x"
b0 /
b0 r"
b111111111111111111111 7
b111111111111111111111 q"
b1 ?
b1 p"
b0 0
b0 j"
b111111111111111111101 8
b111111111111111111101 i"
b10 @
b10 h"
b0 1
b0 b"
b111111111111111111010 9
b111111111111111111010 a"
b101 A
b101 `"
b0 2
b0 Z"
b111111111111111110100 :
b111111111111111110100 Y"
b1010 B
b1010 X"
b0 L
b0 -#
b0 K
b0 %#
b0 J
b0 {"
b0 I
b0 s"
b0 H
b0 k"
b0 G
b0 c"
b0 F
b0 ["
b0 E
b0 S"
b111111111111111101110 l
b111111111111111101110 1#
b10100100111010101110 d
b10100100111010101110 0#
b11000011110011010000 \
b11000011110011010000 /#
b10111 T
b10111 .#
b111111111111111101110 k
b111111111111111101110 )#
b10100100111010101110 c
b10100100111010101110 (#
b11000011110011010000 [
b11000011110011010000 '#
b10110 S
b10110 &#
b111111111111111101110 j
b111111111111111101110 !#
b10100100111010101110 b
b10100100111010101110 ~"
b11000011110011010000 Z
b11000011110011010000 }"
b10101 R
b10101 |"
b111111111111111101110 i
b111111111111111101110 w"
b10100100111010101110 a
b10100100111010101110 v"
b11000011110011010000 Y
b11000011110011010000 u"
b10100 Q
b10100 t"
b111111111111111101110 h
b111111111111111101110 o"
b10100100111010101111 `
b10100100111010101111 n"
b11000011110011001111 X
b11000011110011001111 m"
b10011 P
b10011 l"
b111111111111111101110 g
b111111111111111101110 g"
b10100100111010110010 _
b10100100111010110010 f"
b11000011110011001101 W
b11000011110011001101 e"
b10010 O
b10010 d"
b111111111111111101110 f
b111111111111111101110 _"
b10100100111010111000 ^
b10100100111010111000 ^"
b11000011110011001000 V
b11000011110011001000 ]"
b10001 N
b10001 \"
b111111111111111101110 e
b111111111111111101110 W"
b10100100111011000100 ]
b10100100111011000100 V"
b11000011110010111110 U
b11000011110010111110 U"
1"
b10000 M
b10000 T"
1#
#800
0#
#900
0p
b110 ~
b110 J"
0E"
b10 G"
b10 L"
0D"
b10 F"
b10 N"
b0 H"
b0 K"
b0 I"
b0 M"
0}
b10 ("
b10 4"
0|
b10 '"
b10 6"
0{
b10 &"
b10 8"
0z
b10 %"
b10 :"
b0 )"
b0 C"
0y
b10 $"
b10 <"
b111111000000000000000000000000 !
b111111000000000000000000000000 )
b111111000000000000000000000000 *
b111111000000000000000000000000 s
b0 t
b0 q
b0 *"
b0 3"
b0 +"
b0 5"
b0 ,"
b0 7"
b0 -"
b0 9"
b0 ."
b0 ;"
b0 7
b0 q"
b0 ?
b0 p"
b0 8
b0 i"
b0 @
b0 h"
b0 9
b0 a"
b0 A
b0 `"
b0 o
b0 u
b0 C
b0 m
b0 :
b0 Y"
b0 B
b0 X"
b10100100111010101110 d
b10100100111010101110 0#
b11000011110011010000 \
b11000011110011010000 /#
b11111 T
b11111 .#
b10100100111010101110 c
b10100100111010101110 (#
b11000011110011010000 [
b11000011110011010000 '#
b11110 S
b11110 &#
b10100100111010101110 b
b10100100111010101110 ~"
b11000011110011010000 Z
b11000011110011010000 }"
b11101 R
b11101 |"
b10100100111010101110 a
b10100100111010101110 v"
b11000011110011010000 Y
b11000011110011010000 u"
b11100 Q
b11100 t"
b10100100111010101110 `
b10100100111010101110 n"
b11000011110011010000 X
b11000011110011010000 m"
b11011 P
b11011 l"
b10100100111010101110 _
b10100100111010101110 f"
b11000011110011010000 W
b11000011110011010000 e"
b11010 O
b11010 d"
b10100100111010101110 ^
b10100100111010101110 ^"
b11000011110011010000 V
b11000011110011010000 ]"
b11001 N
b11001 \"
b10100100111010101110 ]
b10100100111010101110 V"
b11000011110011010000 U
b11000011110011010000 U"
0"
b11000 M
b11000 T"
1#
#1000
0#
#1100
b111111111110010111100 l
b111111111110010111100 1#
b10111011010011111101 d
b10111011010011111101 0#
b1000101010110001000 \
b1000101010110001000 /#
b111111011110010111110 k
b111111011110010111110 )#
b10111100010110010110 c
b10111100010110010110 (#
b1000010011001110010 [
b1000010011001110010 '#
b11110010110011 j
b11110010110011 !#
b10111010000101111011 b
b10111010000101111011 ~"
b1001000001101111101 Z
b1001000001101111101 }"
b111110011110100001001 i
b111110011110100001001 w"
b10111101110111010101 a
b10111101110111010101 v"
b111100010110100000 Y
b111100010110100000 u"
b10011101001100100 h
b10011101001100100 o"
b10110011100001000000 `
b10110011100001000000 n"
b1010010110010101000 X
b1010010110010101000 m"
b1010010010111010010 g
b1010010010111010010 g"
b10010101011110011101 _
b10010101011110011101 f"
b1111000001010001111 W
b1111000001010001111 e"
b11001001000011101011 f
b11001001000011101011 _"
b111100001000111011110 ^
b111100001000111011110 ^"
b101101000101101111110 V
b101101000101101111110 ]"
b1111111111111 +
b1111111111111 4#
b111111111011101010101 3
b111111111011101010101 3#
b1011101101001 ;
b1011101101001 2#
b11111111111110 ,
b11111111111110 ,#
b111111110111101100111 4
b111111110111101100111 +#
b10111100010110 <
b10111100010110 *#
b111111000000000001011 -
b111111000000000001011 $#
b10010000011011 5
b10010000011011 ##
b111111010001011110101 =
b111111010001011110101 "#
b1111111110101010 .
b1111111110101010 z"
b111111100001110100110 6
b111111100001110100110 y"
b1011110111011101 >
b1011110111011101 x"
b111100000001010100101 /
b111100000001010100101 r"
b1010010110010101 7
b1010010110010101 q"
b111101001100011111000 ?
b111101001100011111000 p"
b111000001010010010010 0
b111000001010010010010 j"
b11110000010100011 8
b11110000010100011 i"
b111011010101000011001 @
b111011010101000011001 h"
b110001001010011100111 1
b110001001010011100111 b"
b10110100010110111111 9
b10110100010110111111 a"
b100001111011100010001 A
b100001111011100010001 `"
b11001001000011111101 2
b11001001000011111101 Z"
b100111100001100110000 :
b100111100001100110000 Y"
b10100100111010101110 B
b10100100111010101110 X"
b1111111111111 L
b1111111111111 -#
b11111111111110 K
b11111111111110 %#
b111111111110101 J
b111111111110101 {"
b1111111110101010 I
b1111111110101010 s"
b11111110101011011 H
b11111110101011011 k"
b111110101101101110 G
b111110101101101110 c"
b1110110101100011001 F
b1110110101100011001 ["
b11001001000011111101 E
b11001001000011111101 S"
b111 T
b111 .#
b110 S
b110 &#
b101 R
b101 |"
b100 Q
b100 t"
b11 P
b11 l"
b10 O
b10 d"
b1 N
b1 \"
b0 M
b0 T"
1#
#1200
0#
#1300
b11111 +
b11111 4#
b111111111111111111000 3
b111111111111111111000 3#
b10111 ;
b10111 2#
b111111111111111000001 ,
b111111111111111000001 ,#
b10001 4
b10001 +#
b111111111111111010010 <
b111111111111111010010 *#
b1111111 -
b1111111 $#
b111111111111111011110 5
b111111111111111011110 ##
b1011101 =
b1011101 "#
b11111111 .
b11111111 z"
b111111111111110111011 6
b111111111111110111011 y"
b10111011 >
b10111011 x"
b111111111111000000001 /
b111111111111000000001 r"
b10001011 7
b10001011 q"
b111111111111010001010 ?
b111111111111010001010 p"
b111111111110000000001 0
b111111111110000000001 j"
b100010110 8
b100010110 i"
b111111111110100010100 @
b111111111110100010100 h"
b111111111100000000001 1
b111111111100000000001 b"
b1000110000 9
b1000110000 a"
b111111111101000101000 A
b111111111101000101000 `"
b111111111000000000001 2
b111111111000000000001 Z"
b10001101100 :
b10001101100 Y"
b111111111010001010100 B
b111111111010001010100 X"
b11111 L
b11111 -#
b111111 K
b111111 %#
b1111111 J
b1111111 {"
b11111111 I
b11111111 s"
b111111111 H
b111111111 k"
b1111111111 G
b1111111111 c"
b11111111111 F
b11111111111 ["
b111111111111 E
b111111111111 S"
b111111111111111111110 l
b111111111111111111110 1#
b10111011010000111001 d
b10111011010000111001 0#
b1000101011111110101 \
b1000101011111110101 /#
b1111 T
b1111 .#
b111101 k
b111101 )#
b10111011010000101000 c
b10111011010000101000 (#
b1000101100000100011 [
b1000101100000100011 '#
b1110 S
b1110 &#
b111111111111110111110 j
b111111111111110111110 !#
b10111011010001001010 b
b10111011010001001010 ~"
b1000101011111000110 Z
b1000101011111000110 }"
b1101 R
b1101 |"
b111111111111010111111 i
b111111111111010111111 w"
b10111011010010001111 a
b10111011010010001111 v"
b1000101011100001011 Y
b1000101011100001011 u"
b1100 Q
b1100 t"
b10111110 h
b10111110 o"
b10111011010000000100 `
b10111011010000000100 n"
b1000101100010000001 X
b1000101100010000001 m"
b1011 P
b1011 l"
b10010111101 g
b10010111101 g"
b10111011001011101110 _
b10111011001011101110 f"
b1000101101101101101 W
b1000101101101101101 e"
b1010 O
b1010 d"
b110010111100 f
b110010111100 _"
b10111011000010111110 ^
b10111011000010111110 ^"
b1000110000101000101 V
b1000110000101000101 ]"
b1001 N
b1001 \"
b1110010111011 e
b1110010111011 W"
b10111010110001010010 ]
b10111010110001010010 V"
b1000110110011110001 U
b1000110110011110001 U"
b1000 M
b1000 T"
1#
#1400
0#
