src/cordic_unroll/cordic_tb_waves_v.vcd
$date
	Tue Mar  7 05:21:47 2023
$end
$version
	Icarus Verilog
$end
$timescale
	100ps
$end
$scope module tb $end
$var wire 32 ! result [31:0] $end
$var wire 1 " done $end
$var reg 1 # clk $end
$var reg 1 $ clk_en $end
$var reg 32 % dataa [31:0] $end
$var reg 1 & reset $end
$var reg 1 ' start $end
$scope module unit $end
$var wire 1 & aclr $end
$var wire 1 $ clk_en $end
$var wire 1 # clock $end
$var wire 32 ( dataa [31:0] $end
$var wire 32 ) result [31:0] $end
$var wire 1 ' start $end
$var wire 23 * significand [22:0] $end
$var wire 5 + leading_one_index [4:0] $end
$var wire 32 , fixed_point_input [31:0] $end
$var wire 8 - exponent [7:0] $end
$var wire 1 " done $end
$var wire 1 . contain_one_valid $end
$var reg 32 / intermediate_result [31:0] $end
$var reg 32 0 offsetX [31:0] $end
$var reg 32 1 offsetY [31:0] $end
$var reg 32 2 offsetZ [31:0] $end
$var reg 8 3 result_exponent [7:0] $end
$var reg 32 4 result_fp [31:0] $end
$var reg 23 5 result_significand [22:0] $end
$var reg 32 6 rotateAngle [31:0] $end
$var reg 5 7 rotate_index [4:0] $end
$var reg 32 8 x [31:0] $end
$var reg 32 9 y [31:0] $end
$var reg 32 : z [31:0] $end
$scope module encoder32 $end
$var wire 32 ; encoder_input [31:0] $end
$var wire 1 < valid7 $end
$var wire 1 = valid6 $end
$var wire 1 > valid5 $end
$var wire 1 ? valid4 $end
$var wire 1 @ valid3 $end
$var wire 1 A valid2 $end
$var wire 1 B valid1 $end
$var wire 1 C valid0 $end
$var wire 1 . valid $end
$var wire 3 D encoder_output8 [2:0] $end
$var wire 2 E encoder_output7 [1:0] $end
$var wire 2 F encoder_output6 [1:0] $end
$var wire 2 G encoder_output5 [1:0] $end
$var wire 2 H encoder_output4 [1:0] $end
$var wire 2 I encoder_output3 [1:0] $end
$var wire 2 J encoder_output2 [1:0] $end
$var wire 2 K encoder_output1 [1:0] $end
$var wire 2 L encoder_output0 [1:0] $end
$var wire 8 M encoder_input8 [7:0] $end
$var reg 4 N encoder_input0 [3:0] $end
$var reg 4 O encoder_input1 [3:0] $end
$var reg 4 P encoder_input2 [3:0] $end
$var reg 4 Q encoder_input3 [3:0] $end
$var reg 4 R encoder_input4 [3:0] $end
$var reg 4 S encoder_input5 [3:0] $end
$var reg 4 T encoder_input6 [3:0] $end
$var reg 4 U encoder_input7 [3:0] $end
$var reg 5 V encoder_output [4:0] $end
$scope module encoder0 $end
$var wire 4 W encoder_input [3:0] $end
$var reg 2 X encoder_output [1:0] $end
$var reg 1 C valid $end
$upscope $end
$scope module encoder1 $end
$var wire 4 Y encoder_input [3:0] $end
$var reg 2 Z encoder_output [1:0] $end
$var reg 1 B valid $end
$upscope $end
$scope module encoder2 $end
$var wire 4 [ encoder_input [3:0] $end
$var reg 2 \ encoder_output [1:0] $end
$var reg 1 A valid $end
$upscope $end
$scope module encoder3 $end
$var wire 4 ] encoder_input [3:0] $end
$var reg 2 ^ encoder_output [1:0] $end
$var reg 1 @ valid $end
$upscope $end
$scope module encoder4 $end
$var wire 4 _ encoder_input [3:0] $end
$var reg 2 ` encoder_output [1:0] $end
$var reg 1 ? valid $end
$upscope $end
$scope module encoder5 $end
$var wire 4 a encoder_input [3:0] $end
$var reg 2 b encoder_output [1:0] $end
$var reg 1 > valid $end
$upscope $end
$scope module encoder6 $end
$var wire 4 c encoder_input [3:0] $end
$var reg 2 d encoder_output [1:0] $end
$var reg 1 = valid $end
$upscope $end
$scope module encoder7 $end
$var wire 4 e encoder_input [3:0] $end
$var reg 2 f encoder_output [1:0] $end
$var reg 1 < valid $end
$upscope $end
$scope module encoder8 $end
$var wire 8 g encoder_input [7:0] $end
$var wire 1 h valid8_1 $end
$var wire 1 i valid8_0 $end
$var wire 2 j encoder_output8_1 [1:0] $end
$var wire 2 k encoder_output8_0 [1:0] $end
$var reg 4 l encoder_input8_0 [3:0] $end
$var reg 4 m encoder_input8_1 [3:0] $end
$var reg 3 n encoder_output [2:0] $end
$var reg 1 . valid $end
$scope module encoder8_0 $end
$var wire 4 o encoder_input [3:0] $end
$var reg 2 p encoder_output [1:0] $end
$var reg 1 i valid $end
$upscope $end
$scope module encoder8_1 $end
$var wire 4 q encoder_input [3:0] $end
$var reg 2 r encoder_output [1:0] $end
$var reg 1 h valid $end
$upscope $end
$upscope $end
$upscope $end
$upscope $end
$upscope $end
$enddefinitions $end
$comment Show the parameter values. $end
$dumpall
$end
#0
$dumpvars
bx r
bx q
bx p
bx o
bx n
bx m
bx l
bx k
bx j
xi
xh
bx g
bx f
bx e
bx d
bx c
bx b
bx a
bx `
bx _
bx ^
bx ]
bx \
bx [
bx Z
bx Y
bx X
bx W
bx V
bx U
bx T
bx S
bx R
bx Q
bx P
bx O
bx N
bx M
bx L
bx K
bx J
bx I
bx H
bx G
bx F
bx E
bx D
xC
xB
xA
x@
x?
x>
x=
x<
bx ;
bx :
bx 9
bx 8
bx 7
bx 6
bx 5
bx 4
bx 3
bx 2
bx 1
bx 0
bx /
x.
bx -
bx ,
bx +
bx *
bx )
bx (
0'
1&
bx %
0$
0#
x"
bx !
$end
#100
b110110111010011101101 5
b10011011011101001110110110101000 /
b1111110 3
b1 +
b1 V
1.
b0 D
b0 n
1i
b0 k
b0 p
1h
b0 j
b0 r
b1111 l
b1111 o
b1111 m
b1111 q
1C
b1 L
b1 X
1B
b0 K
b0 Z
1A
b1 J
b1 \
1@
b0 I
b0 ^
1?
b1 H
b1 `
1>
b1 G
b1 b
1=
b0 F
b0 d
b11111111 M
b11111111 g
1<
b1 E
b1 f
b100 N
b100 W
b1101 O
b1101 Y
b101 P
b101 [
b1010 Q
b1010 ]
b111 R
b111 _
b110 S
b110 a
b1101 T
b1101 c
b100 U
b100 e
b111111000110110111010011101101 !
b111111000110110111010011101101 )
b111111000110110111010011101101 4
b10011011011110000001001010101101 2
b1001101101110100111011011010100 1
b0 0
b1100100100001111110110101010001 6
b0 :
b0 9
b1001101101110100111011011010100 8
b1001101101110100111011011010100 ;
0"
b0 7
1#
#200
b1011001100110011001100110000000 ,
b1111110 -
b1100110011001100110011 *
b111111001100110011001100110011 %
b111111001100110011001100110011 (
1'
0&
1$
0#
#300
b1011001100110011001100110000000 :
1#
#400
0'
0#
#500
b111011010110001100111000001010 2
b11011001001000101100010010010100 1
b100110110111010011101101101010 0
b111011010110001100111000001010 6
b11110101000100011010110000101101 :
b1001101101110100111011011010100 9
b1 7
1#
#600
0#
#700
b1 K
b1 Z
b1 I
b1 ^
b0 H
b0 `
b10 G
b10 b
b10 F
b10 d
b0 E
b0 f
b111 N
b111 W
b100 O
b100 Y
b100 P
b100 [
b111 Q
b111 ]
b1011 R
b1011 _
b10 S
b10 a
b11 T
b11 c
b1110 U
b1110 e
b111111011010010010111101100100 !
b111111011010010010111101100100 )
b111111011010010010111101100100 4
b11010010010111101100100 5
b11101001001011110110010001111100 /
b11100000101001001000101000000101 2
b11101001001011110110010001111 1
b11110110010010001011000100100110 0
b11111010110110111010111111001 6
b110000011010100111101000110111 :
b100110110111010011101101101000 9
b1110100100101111011001000111110 8
b1110100100101111011001000111110 ;
b10 7
1#
#800
0#
#900
b1110 l
b1110 o
b0 K
b0 Z
b11101111 M
b11101111 g
0@
b10 I
b10 ^
b1 H
b1 `
b1 F
b1 d
b1 E
b1 f
b110 N
b110 W
b1010 O
b1010 Y
b111 P
b111 [
b0 Q
b0 ]
b110 R
b110 _
b11 S
b11 a
b110 T
b110 c
b100 U
b100 e
b111111010101011100000011000110 !
b111111010101011100000011000110 )
b111111010101011100000011000110 4
b10101011100000011000110 5
b11010101110000001100011011001000 /
b11110000000101010010001010110001 2
b1101010111000000110001101100 1
b11110111011111111001101100000010 0
b1111111010101101110101001101 6
b10001000011110000010000111100 :
b1000100000000110010011111110111 9
b1101010111000000110001101100100 8
b1101010111000000110001101100100 ;
b11 7
1#
#1000
0#
#1100
b1111 l
b1111 o
b10 K
b10 Z
b10 J
b10 \
b11111111 M
b11111111 g
1@
b0 I
b0 ^
b0 H
b0 `
b0 G
b0 b
b10 O
b10 Y
b10 P
b10 [
b1111 Q
b1111 ]
b1111 R
b1111 _
b1110 S
b1110 a
b110 U
b110 e
b111111010001001011111111111100 !
b111111010001001011111111111100 )
b111111010001001011111111111100 4
b10001001011111111111100 5
b11000100101111111111110011001100 /
b11111000000000101010100100010001 2
b110001001011111111111100110 1
b11111010111010100000110010111010 0
b111111111010101011011101101 6
b1001001000010011011101101 :
b1010001010111110011010001100011 9
b1100010010111111111111001100110 8
b1100010010111111111111001100110 ;
b100 7
1#
#1200
0#
#1300
b1 j
b1 r
b110 m
b110 q
b0 K
b0 Z
0?
b10 H
b10 `
b10 F
b10 d
b11110110 M
b11110110 g
0<
b10 E
b10 f
b101 N
b101 W
b1101 O
b1101 Y
b1010 Q
b1010 ]
b0 R
b0 _
b1011 S
b1011 a
b10 T
b10 c
b0 U
b0 e
b111111001110101001010000010110 !
b111111001110101001010000010110 )
b111111001110101001010000010110 4
b1110101001010000010110 5
b10111010100101000001011001000000 /
b11111111111010101010110111 2
b11111101000101011010111110100101 1
b10101111000010100110100010 0
b11111111111010101010110111 6
b11111001001001101100111111111110 :
b1010111100001010011010001001001 9
b1011101010010100000101100100000 8
b1011101010010100000101100100000 ;
b101 7
1#
#1400
0#
#1500
b0 j
b0 r
b1001 l
b1001 o
b1111 m
b1111 q
0B
b10 K
b10 Z
0A
b1 I
b1 ^
1?
b1 G
b1 b
b0 F
b0 d
b10011111 M
b10011111 g
1<
b110 N
b110 W
b0 O
b0 Y
b0 P
b0 [
b110 Q
b110 ]
b11 R
b11 _
b100 S
b100 a
b1100 T
b1100 c
b10 U
b10 e
b111111010000000000110001101001 !
b111111010000000000110001101001 )
b111111010000000000110001101001 4
b10000000000110001101001 5
b11000000000011000110100110000100 /
b1111111111111010101010101 2
b11111110011111111110011100101011 1
b1010100100110101110001111 0
b1111111111111010101010101 6
b11111101001001100111101010110101 :
b1010100100110101110001111101110 9
b1100000000001100011010011000010 8
b1100000000001100011010011000010 ;
b110 7
1#
#1600
0#
#1700
b1111 l
b1111 o
b1011 m
b1011 q
1B
b11 K
b11 Z
1A
b0 I
b0 ^
b0 H
b0 `
b11111011 M
b11111011 g
0>
b10 G
b10 b
b1 F
b1 d
b11 E
b11 f
b1 O
b1 Y
b10 P
b10 [
b1000 Q
b1000 ]
b1010 R
b1010 _
b0 S
b0 a
b101 T
b101 c
b1 U
b1 e
b111111010000101011000101000000 !
b111111010000101011000101000000 )
b111111010000101011000101000000 4
b10000101011000101000000 5
b11000010101100010100000010100010 /
b111111111111111010101010 2
b11111111001111010100111010111110 1
b101001100011010110010110 0
b111111111111111010101010 6
b11111111001001100111000000001010 :
b1010011000110101100101100011001 9
b1100001010110001010000001010001 8
b1100001010110001010000001010001 ;
b111 7
1#
#1800
0#
#1900
b1111 m
b1111 q
b1 J
b1 \
b11111111 M
b11111111 g
1>
b1 G
b1 b
b0 F
b0 d
b1 E
b1 f
b111 P
b111 [
b1110 Q
b1110 ]
b1101 R
b1101 _
b101 S
b101 a
b1110 T
b1110 c
b111 U
b111 e
b111111010000111111110110101011 !
b111111010000111111110110101011 )
b111111010000111111110110101011 4
b10000111111110110101011 5
b11000011111111011010101111001110 /
b11111111100000000000000000101001 2
b11000011111111011010101 1
b11111111101011011010011111100111 0
b11111111111111111010101 6
b1001100110111010110100 :
b1010010010110000001100111010111 9
b1100001111111101101010111100111 8
b1100001111111101101010111100111 ;
b1000 7
1#
#2000
0#
#2100
b1 H
b1 `
b0 G
b0 b
b0 E
b0 f
b101 P
b101 [
b1100 Q
b1100 ]
b111 R
b111 _
b1101 S
b1101 a
b1100 T
b1100 c
b1110 U
b1110 e
b111111010000110101100011111011 !
b111111010000110101100011111011 )
b111111010000110101100011111011 4
b10000110101100011111011 5
b11000011010110001111101110011100 /
b1111111111111111111010 2
b11111111110011110010100111000000 1
b1010010101110100001100 0
b1111111111111111111010 6
b11111111101001100110111011011101 :
b1010010101110100001100010101100 9
b1100001101011000111110111001110 8
b1100001101011000111110111001110 ;
b1001 7
1#
#2200
0#
#2300
b1 I
b1 ^
b0 H
b0 `
b110 P
b110 [
b101 Q
b101 ]
b1101 R
b1101 _
b1010 S
b1010 a
b1101 T
b1101 c
b1010 U
b1010 e
b111111010000111010101110110101 !
b111111010000111010101110110101 )
b111111010000111010101110110101 4
b10000111010101110110101 5
b11000011101010111011010110110100 /
b111111111111111111111 2
b11111111111001111000101010001000 1
b101001010001001010000 0
b111111111111111111111 6
b11111111111001100110111011010111 :
b1010010100010010100001001101100 9
b1100001110101011101101011011010 8
b1100001110101011101101011011010 ;
b1010 7
1#
#2400
0#
#2500
b0 I
b0 ^
b1 H
b1 `
b10 F
b10 d
b111 P
b111 [
b1010 Q
b1010 ]
b111 R
b111 _
b1101 S
b1101 a
b10 T
b10 c
b111111010000111101010011111010 !
b111111010000111101010011111010 )
b111111010000111101010011111010 4
b10000111101010011111010 5
b11000011110101001111101001010100 /
b11111111111011111111111111111111 2
b11000011110101001111 1
b11111111111101011011000111100111 0
b11111111111111111111 6
b1100110111011010110 :
b1010010011100001100110011110100 9
b1100001111010100111110100101010 8
b1100001111010100111110100101010 ;
b1011 7
1#
#2600
0#
#2700
b1110 l
b1110 o
b11101111 M
b11101111 g
0@
b10 I
b10 ^
b10 H
b10 `
b11 F
b11 d
b11 E
b11 f
b0 Q
b0 ]
b10 R
b10 _
b1111 S
b1111 a
b1 T
b1 c
b1 U
b1 e
b111111010000111100000001011110 !
b111111010000111100000001011110 )
b111111010000111100000001011110 4
b10000111100000001011110 5
b11000011110000000101111000100010 /
b1111111111111111111 2
b11111111111110011110000111111100 1
b1010010011111010000 0
b1111111111111111111 6
b11111111111101100110111011010101 :
b1010010011111010000101001000011 9
b1100001111000000010111100010001 8
b1100001111000000010111100010001 ;
b1100 7
1#
#2800
0#
#2900
b1111 l
b1111 o
b11111111 M
b11111111 g
1@
b1 I
b1 ^
b1 H
b1 `
b1 G
b1 b
b0 F
b0 d
b101 Q
b101 ]
b101 R
b101 _
b110 S
b110 a
b1110 T
b1110 c
b111111010000111100101010101101 !
b111111010000111100101010101101 )
b111111010000111100101010101101 4
b10000111100101010101101 5
b11000011110010101010110111000010 /
b111111111111111111 2
b11111111111111001111000011010100 1
b101001001110110111 0
b111111111111111111 6
b11111111111111100110111011010100 :
b1010010011101101110110000111111 9
b1100001111001010101011011100001 8
b1100001111001010101011011100001 ;
b1101 7
1#
#3000
0#
#3100
b0 H
b0 `
b0 G
b0 b
b0 E
b0 f
b111 Q
b111 ]
b1110 R
b1110 _
b1010 S
b1010 a
b1001 T
b1001 c
b1000 U
b1000 e
b111111010000111100111111010101 !
b111111010000111100111111010101 )
b111111010000111100111111010101 4
b10000111100111111010101 5
b11000011110011111101010100110000 /
b11111111111111011111111111111111 2
b11000011110011111 1
b11111111111111101011011000110001 0
b11111111111111111 6
b100110111011010011 :
b1010010011100111101110100010011 9
b1100001111001111110101010011000 8
b1100001111001111110101010011000 ;
b1110 7
1#
#3200
0#
#3300
b1011 m
b1011 q
b11111011 M
b11111011 g
0>
b10 G
b10 b
b110 Q
b110 ]
b1010 R
b1010 _
b0 S
b0 a
b1100 T
b1100 c
b1001 U
b1001 e
b111111010000111100110101000001 !
b111111010000111100110101000001 )
b111111010000111100110101000001 4
b10000111100110101000001 5
b11000011110011010100000110010010 /
b11111111111111101111111111111111 2
b1100001111001101 1
b11111111111111110101101100010110 0
b1111111111111111 6
b110111011010010 :
b1010010011101010110010010110010 9
b1100001111001101010000011001001 8
b1100001111001101010000011001001 ;
b1111 7
1#
#3400
0#
#3500
b1111 m
b1111 q
b11111111 M
b11111111 g
1>
b0 G
b0 b
b101 Q
b101 ]
b1111 R
b1111 _
b1011 S
b1011 a
b1101 T
b1101 c
b1111 U
b1111 e
b111111010000111100101111110111 !
b111111010000111100101111110111 )
b111111010000111100101111110111 4
b10000111100101111110111 5
b11000011110010111111011110111110 /
b1100100100001111110110101010001 2
b11111111111111111001111000011001 1
b101001001110110 0
b1100100100001111110110101010001 6
b11111111111111110110111011010001 :
b1010010011101100010100001111111 9
b1100001111001011111101111011111 8
b1100001111001011111101111011111 ;
1"
b10000 7
1#
#3600
0#
#3700
b1 H
b1 `
b1 F
b1 d
b1 E
b1 f
b110 Q
b110 ]
b100 R
b100 _
b1110 S
b1110 a
b101 T
b101 c
b101 U
b101 e
b111111010000111100110010011100 !
b111111010000111100110010011100 )
b111111010000111100110010011100 4
b10000111100110010011100 5
b11000011110011001001110010101010 /
b11000100101001110011000111110100 2
b11000011110011 1
b11111111111111111101011011000110 0
b111011010110001100111000001010 6
b1100100100001110101110000100010 :
b1010010011101011100011010011000 9
b1100001111001100100111001010101 8
b1100001111001100100111001010101 ;
0"
b10001 7
1#
#3800
0#
#3900
b10 H
b10 `
b1 G
b1 b
b11 F
b11 d
b0 E
b0 f
b10 R
b10 _
b101 S
b101 a
b1 T
b1 c
b1011 U
b1011 e
b111111010000111100110001001010 !
b111111010000111100110001001010 )
b111111010000111100110001001010 4
b10000111100110001001010 5
b11000011110011000100101000110110 /
b11100000101001001000101000000101 2
b1100001111001 1
b11111111111111111110101101100011 0
b11111010110110111010111111001 6
b101001001011101000111000010110 :
b1010010011101011111011110001011 9
b1100001111001100010010100011011 8
b1100001111001100010010100011011 ;
b10010 7
1#
#4000
0#
#4100
b1011 m
b1011 q
b11 H
b11 `
b11111011 M
b11111011 g
0>
b10 G
b10 b
b1 F
b1 d
b1 R
b1 _
b0 S
b0 a
b111 T
b111 c
b1110 U
b1110 e
b111111010000111100110000100000 !
b111111010000111100110000100000 )
b111111010000111100110000100000 4
b10000111100110000100000 5
b11000011110011000010000011111100 /
b11110000000101010010001010110001 2
b110000111100 1
b11111111111111111111010110110010 0
b1111111010101101110101001101 6
b1001110100110001100000011011 :
b1010010011101100001000000000100 9
b1100001111001100001000001111110 8
b1100001111001100001000001111110 ;
b10011 7
1#
#4200
0#
#4300
b1 j
b1 r
b110 m
b110 q
0?
b10 H
b10 `
1>
b1 G
b1 b
b10 F
b10 d
b11110110 M
b11110110 g
0<
b10 E
b10 f
b0 R
b0 _
b110 S
b110 a
b11 T
b11 c
b0 U
b0 e
b111111010000111100110000001100 !
b111111010000111100110000001100 )
b111111010000111100110000001100 4
b10000111100110000001100 5
b11000011110011000000110001100000 /
b111111111010101011011101101 2
b11111111111111111111100111100000 1
b10100100111 0
b111111111010101011011101101 6
b11111001111010000011101011001100 :
b1010010011101100001110001000000 9
b1100001111001100000011000110000 8
b1100001111001100000011000110000 ;
b10100 7
1#
