src/cordic_tb_waves_v.vcd
$date
	Sat Mar 11 20:15:53 2023
$end
$version
	Icarus Verilog
$end
$timescale
	100ps
$end
$scope module tb $end
$var wire 32 ! result [31:0] $end
$var reg 1 " clk $end
$var reg 1 # clk_en $end
$var reg 32 $ dataa [31:0] $end
$var reg 1 % reset $end
$var integer 32 & i [31:0] $end
$scope module unit $end
$var wire 1 % aclr $end
$var wire 1 # clk_en $end
$var wire 1 " clock $end
$var wire 32 ' dataa [31:0] $end
$var wire 21 ( z9_out [20:0] $end
$var wire 21 ) z8_out [20:0] $end
$var wire 21 * z7_out [20:0] $end
$var wire 21 + z6_out [20:0] $end
$var wire 21 , z5_out [20:0] $end
$var wire 21 - z4_out [20:0] $end
$var wire 21 . z3_out [20:0] $end
$var wire 21 / z2_out [20:0] $end
$var wire 21 0 z1_out [20:0] $end
$var wire 21 1 z15_out [20:0] $end
$var wire 21 2 z14_out [20:0] $end
$var wire 21 3 z13_out [20:0] $end
$var wire 21 4 z12_out [20:0] $end
$var wire 21 5 z11_out [20:0] $end
$var wire 21 6 z10_out [20:0] $end
$var wire 21 7 z0_out [20:0] $end
$var wire 21 8 y9_out [20:0] $end
$var wire 21 9 y8_out [20:0] $end
$var wire 21 : y7_out [20:0] $end
$var wire 21 ; y6_out [20:0] $end
$var wire 21 < y5_out [20:0] $end
$var wire 21 = y4_out [20:0] $end
$var wire 21 > y3_out [20:0] $end
$var wire 21 ? y2_out [20:0] $end
$var wire 21 @ y1_out [20:0] $end
$var wire 21 A y15_out [20:0] $end
$var wire 21 B y14_out [20:0] $end
$var wire 21 C y13_out [20:0] $end
$var wire 21 D y12_out [20:0] $end
$var wire 21 E y11_out [20:0] $end
$var wire 21 F y10_out [20:0] $end
$var wire 21 G y0_out [20:0] $end
$var wire 21 H x9_out [20:0] $end
$var wire 21 I x8_out [20:0] $end
$var wire 21 J x7_out [20:0] $end
$var wire 21 K x6_out [20:0] $end
$var wire 21 L x5_out [20:0] $end
$var wire 21 M x4_out [20:0] $end
$var wire 21 N x3_out [20:0] $end
$var wire 21 O x2_out [20:0] $end
$var wire 21 P x1_out [20:0] $end
$var wire 21 Q x15_out [20:0] $end
$var wire 21 R x14_out [20:0] $end
$var wire 21 S x13_out [20:0] $end
$var wire 21 T x12_out [20:0] $end
$var wire 21 U x11_out [20:0] $end
$var wire 21 V x10_out [20:0] $end
$var wire 21 W x0_out [20:0] $end
$var wire 32 X result [31:0] $end
$var wire 21 Y fixed_point_input [20:0] $end
$var reg 21 Z x0 [20:0] $end
$var reg 21 [ x1 [20:0] $end
$var reg 21 \ x10 [20:0] $end
$var reg 21 ] x11 [20:0] $end
$var reg 21 ^ x12 [20:0] $end
$var reg 21 _ x13 [20:0] $end
$var reg 21 ` x14 [20:0] $end
$var reg 21 a x15 [20:0] $end
$var reg 21 b x2 [20:0] $end
$var reg 21 c x3 [20:0] $end
$var reg 21 d x4 [20:0] $end
$var reg 21 e x5 [20:0] $end
$var reg 21 f x6 [20:0] $end
$var reg 21 g x7 [20:0] $end
$var reg 21 h x8 [20:0] $end
$var reg 21 i x9 [20:0] $end
$var reg 21 j y0 [20:0] $end
$var reg 21 k y1 [20:0] $end
$var reg 21 l y10 [20:0] $end
$var reg 21 m y11 [20:0] $end
$var reg 21 n y12 [20:0] $end
$var reg 21 o y13 [20:0] $end
$var reg 21 p y14 [20:0] $end
$var reg 21 q y15 [20:0] $end
$var reg 21 r y2 [20:0] $end
$var reg 21 s y3 [20:0] $end
$var reg 21 t y4 [20:0] $end
$var reg 21 u y5 [20:0] $end
$var reg 21 v y6 [20:0] $end
$var reg 21 w y7 [20:0] $end
$var reg 21 x y8 [20:0] $end
$var reg 21 y y9 [20:0] $end
$var reg 21 z z0 [20:0] $end
$var reg 21 { z1 [20:0] $end
$var reg 21 | z10 [20:0] $end
$var reg 21 } z11 [20:0] $end
$var reg 21 ~ z12 [20:0] $end
$var reg 21 !" z13 [20:0] $end
$var reg 21 "" z14 [20:0] $end
$var reg 21 #" z15 [20:0] $end
$var reg 21 $" z2 [20:0] $end
$var reg 21 %" z3 [20:0] $end
$var reg 21 &" z4 [20:0] $end
$var reg 21 '" z5 [20:0] $end
$var reg 21 (" z6 [20:0] $end
$var reg 21 )" z7 [20:0] $end
$var reg 21 *" z8 [20:0] $end
$var reg 21 +" z9 [20:0] $end
$scope module fixed_to_float_unit $end
$var wire 5 ," leadingOneIndex [4:0] $end
$var wire 32 -" fixed_point_result_appended_to_32_bits [31:0] $end
$var wire 21 ." fixed_point_result [20:0] $end
$var wire 1 /" containOne_valid $end
$var reg 21 0" intermediate_result [20:0] $end
$var reg 8 1" result_exponent [7:0] $end
$var reg 32 2" result_fp [31:0] $end
$var reg 23 3" result_significant [22:0] $end
$scope module encoder32 $end
$var wire 32 4" encoder_input [31:0] $end
$var wire 1 5" valid7 $end
$var wire 1 6" valid6 $end
$var wire 1 7" valid5 $end
$var wire 1 8" valid4 $end
$var wire 1 9" valid3 $end
$var wire 1 :" valid2 $end
$var wire 1 ;" valid1 $end
$var wire 1 <" valid0 $end
$var wire 1 /" valid $end
$var wire 3 =" encoder_output8 [2:0] $end
$var wire 2 >" encoder_output7 [1:0] $end
$var wire 2 ?" encoder_output6 [1:0] $end
$var wire 2 @" encoder_output5 [1:0] $end
$var wire 2 A" encoder_output4 [1:0] $end
$var wire 2 B" encoder_output3 [1:0] $end
$var wire 2 C" encoder_output2 [1:0] $end
$var wire 2 D" encoder_output1 [1:0] $end
$var wire 2 E" encoder_output0 [1:0] $end
$var wire 8 F" encoder_input8 [7:0] $end
$var reg 4 G" encoder_input0 [3:0] $end
$var reg 4 H" encoder_input1 [3:0] $end
$var reg 4 I" encoder_input2 [3:0] $end
$var reg 4 J" encoder_input3 [3:0] $end
$var reg 4 K" encoder_input4 [3:0] $end
$var reg 4 L" encoder_input5 [3:0] $end
$var reg 4 M" encoder_input6 [3:0] $end
$var reg 4 N" encoder_input7 [3:0] $end
$var reg 5 O" encoder_output [4:0] $end
$scope module encoder0 $end
$var wire 4 P" encoder_input [3:0] $end
$var reg 2 Q" encoder_output [1:0] $end
$var reg 1 <" valid $end
$upscope $end
$scope module encoder1 $end
$var wire 4 R" encoder_input [3:0] $end
$var reg 2 S" encoder_output [1:0] $end
$var reg 1 ;" valid $end
$upscope $end
$scope module encoder2 $end
$var wire 4 T" encoder_input [3:0] $end
$var reg 2 U" encoder_output [1:0] $end
$var reg 1 :" valid $end
$upscope $end
$scope module encoder3 $end
$var wire 4 V" encoder_input [3:0] $end
$var reg 2 W" encoder_output [1:0] $end
$var reg 1 9" valid $end
$upscope $end
$scope module encoder4 $end
$var wire 4 X" encoder_input [3:0] $end
$var reg 2 Y" encoder_output [1:0] $end
$var reg 1 8" valid $end
$upscope $end
$scope module encoder5 $end
$var wire 4 Z" encoder_input [3:0] $end
$var reg 2 [" encoder_output [1:0] $end
$var reg 1 7" valid $end
$upscope $end
$scope module encoder6 $end
$var wire 4 \" encoder_input [3:0] $end
$var reg 2 ]" encoder_output [1:0] $end
$var reg 1 6" valid $end
$upscope $end
$scope module encoder7 $end
$var wire 4 ^" encoder_input [3:0] $end
$var reg 2 _" encoder_output [1:0] $end
$var reg 1 5" valid $end
$upscope $end
$scope module encoder8 $end
$var wire 8 `" encoder_input [7:0] $end
$var wire 1 a" valid8_1 $end
$var wire 1 b" valid8_0 $end
$var wire 2 c" encoder_output8_1 [1:0] $end
$var wire 2 d" encoder_output8_0 [1:0] $end
$var reg 4 e" encoder_input8_0 [3:0] $end
$var reg 4 f" encoder_input8_1 [3:0] $end
$var reg 3 g" encoder_output [2:0] $end
$var reg 1 /" valid $end
$scope module encoder8_0 $end
$var wire 4 h" encoder_input [3:0] $end
$var reg 2 i" encoder_output [1:0] $end
$var reg 1 b" valid $end
$upscope $end
$scope module encoder8_1 $end
$var wire 4 j" encoder_input [3:0] $end
$var reg 2 k" encoder_output [1:0] $end
$var reg 1 a" valid $end
$upscope $end
$upscope $end
$upscope $end
$upscope $end
$scope module floating_to_fixed_unit $end
$var wire 32 l" dataa [31:0] $end
$var wire 23 m" significand [22:0] $end
$var wire 21 n" fixed_point_input [20:0] $end
$var wire 8 o" exponent [7:0] $end
$upscope $end
$scope module rotation0 $end
$var wire 21 p" x [20:0] $end
$var wire 21 q" y [20:0] $end
$var wire 21 r" z [20:0] $end
$var parameter 21 s" rotate_angle $end
$var parameter 4 t" rotate_index $end
$var reg 21 u" offsetX [20:0] $end
$var reg 21 v" offsetY [20:0] $end
$var reg 21 w" offsetZ [20:0] $end
$var reg 21 x" x_out [20:0] $end
$var reg 21 y" y_out [20:0] $end
$var reg 21 z" z_out [20:0] $end
$upscope $end
$scope module rotation1 $end
$var wire 21 {" x [20:0] $end
$var wire 21 |" y [20:0] $end
$var wire 21 }" z [20:0] $end
$var parameter 21 ~" rotate_angle $end
$var parameter 4 !# rotate_index $end
$var reg 21 "# offsetX [20:0] $end
$var reg 21 ## offsetY [20:0] $end
$var reg 21 $# offsetZ [20:0] $end
$var reg 21 %# x_out [20:0] $end
$var reg 21 &# y_out [20:0] $end
$var reg 21 '# z_out [20:0] $end
$upscope $end
$scope module rotation10 $end
$var wire 21 (# x [20:0] $end
$var wire 21 )# y [20:0] $end
$var wire 21 *# z [20:0] $end
$var parameter 21 +# rotate_angle $end
$var parameter 4 ,# rotate_index $end
$var reg 21 -# offsetX [20:0] $end
$var reg 21 .# offsetY [20:0] $end
$var reg 21 /# offsetZ [20:0] $end
$var reg 21 0# x_out [20:0] $end
$var reg 21 1# y_out [20:0] $end
$var reg 21 2# z_out [20:0] $end
$upscope $end
$scope module rotation11 $end
$var wire 21 3# x [20:0] $end
$var wire 21 4# y [20:0] $end
$var wire 21 5# z [20:0] $end
$var parameter 21 6# rotate_angle $end
$var parameter 4 7# rotate_index $end
$var reg 21 8# offsetX [20:0] $end
$var reg 21 9# offsetY [20:0] $end
$var reg 21 :# offsetZ [20:0] $end
$var reg 21 ;# x_out [20:0] $end
$var reg 21 <# y_out [20:0] $end
$var reg 21 =# z_out [20:0] $end
$upscope $end
$scope module rotation12 $end
$var wire 21 ># x [20:0] $end
$var wire 21 ?# y [20:0] $end
$var wire 21 @# z [20:0] $end
$var parameter 21 A# rotate_angle $end
$var parameter 4 B# rotate_index $end
$var reg 21 C# offsetX [20:0] $end
$var reg 21 D# offsetY [20:0] $end
$var reg 21 E# offsetZ [20:0] $end
$var reg 21 F# x_out [20:0] $end
$var reg 21 G# y_out [20:0] $end
$var reg 21 H# z_out [20:0] $end
$upscope $end
$scope module rotation13 $end
$var wire 21 I# x [20:0] $end
$var wire 21 J# y [20:0] $end
$var wire 21 K# z [20:0] $end
$var parameter 21 L# rotate_angle $end
$var parameter 4 M# rotate_index $end
$var reg 21 N# offsetX [20:0] $end
$var reg 21 O# offsetY [20:0] $end
$var reg 21 P# offsetZ [20:0] $end
$var reg 21 Q# x_out [20:0] $end
$var reg 21 R# y_out [20:0] $end
$var reg 21 S# z_out [20:0] $end
$upscope $end
$scope module rotation14 $end
$var wire 21 T# x [20:0] $end
$var wire 21 U# y [20:0] $end
$var wire 21 V# z [20:0] $end
$var parameter 21 W# rotate_angle $end
$var parameter 4 X# rotate_index $end
$var reg 21 Y# offsetX [20:0] $end
$var reg 21 Z# offsetY [20:0] $end
$var reg 21 [# offsetZ [20:0] $end
$var reg 21 \# x_out [20:0] $end
$var reg 21 ]# y_out [20:0] $end
$var reg 21 ^# z_out [20:0] $end
$upscope $end
$scope module rotation15 $end
$var wire 21 _# x [20:0] $end
$var wire 21 `# y [20:0] $end
$var wire 21 a# z [20:0] $end
$var parameter 21 b# rotate_angle $end
$var parameter 4 c# rotate_index $end
$var reg 21 d# offsetX [20:0] $end
$var reg 21 e# offsetY [20:0] $end
$var reg 21 f# offsetZ [20:0] $end
$var reg 21 g# x_out [20:0] $end
$var reg 21 h# y_out [20:0] $end
$var reg 21 i# z_out [20:0] $end
$upscope $end
$scope module rotation2 $end
$var wire 21 j# x [20:0] $end
$var wire 21 k# y [20:0] $end
$var wire 21 l# z [20:0] $end
$var parameter 21 m# rotate_angle $end
$var parameter 4 n# rotate_index $end
$var reg 21 o# offsetX [20:0] $end
$var reg 21 p# offsetY [20:0] $end
$var reg 21 q# offsetZ [20:0] $end
$var reg 21 r# x_out [20:0] $end
$var reg 21 s# y_out [20:0] $end
$var reg 21 t# z_out [20:0] $end
$upscope $end
$scope module rotation3 $end
$var wire 21 u# x [20:0] $end
$var wire 21 v# y [20:0] $end
$var wire 21 w# z [20:0] $end
$var parameter 21 x# rotate_angle $end
$var parameter 4 y# rotate_index $end
$var reg 21 z# offsetX [20:0] $end
$var reg 21 {# offsetY [20:0] $end
$var reg 21 |# offsetZ [20:0] $end
$var reg 21 }# x_out [20:0] $end
$var reg 21 ~# y_out [20:0] $end
$var reg 21 !$ z_out [20:0] $end
$upscope $end
$scope module rotation4 $end
$var wire 21 "$ x [20:0] $end
$var wire 21 #$ y [20:0] $end
$var wire 21 $$ z [20:0] $end
$var parameter 21 %$ rotate_angle $end
$var parameter 4 &$ rotate_index $end
$var reg 21 '$ offsetX [20:0] $end
$var reg 21 ($ offsetY [20:0] $end
$var reg 21 )$ offsetZ [20:0] $end
$var reg 21 *$ x_out [20:0] $end
$var reg 21 +$ y_out [20:0] $end
$var reg 21 ,$ z_out [20:0] $end
$upscope $end
$scope module rotation5 $end
$var wire 21 -$ x [20:0] $end
$var wire 21 .$ y [20:0] $end
$var wire 21 /$ z [20:0] $end
$var parameter 21 0$ rotate_angle $end
$var parameter 4 1$ rotate_index $end
$var reg 21 2$ offsetX [20:0] $end
$var reg 21 3$ offsetY [20:0] $end
$var reg 21 4$ offsetZ [20:0] $end
$var reg 21 5$ x_out [20:0] $end
$var reg 21 6$ y_out [20:0] $end
$var reg 21 7$ z_out [20:0] $end
$upscope $end
$scope module rotation6 $end
$var wire 21 8$ x [20:0] $end
$var wire 21 9$ y [20:0] $end
$var wire 21 :$ z [20:0] $end
$var parameter 21 ;$ rotate_angle $end
$var parameter 4 <$ rotate_index $end
$var reg 21 =$ offsetX [20:0] $end
$var reg 21 >$ offsetY [20:0] $end
$var reg 21 ?$ offsetZ [20:0] $end
$var reg 21 @$ x_out [20:0] $end
$var reg 21 A$ y_out [20:0] $end
$var reg 21 B$ z_out [20:0] $end
$upscope $end
$scope module rotation7 $end
$var wire 21 C$ x [20:0] $end
$var wire 21 D$ y [20:0] $end
$var wire 21 E$ z [20:0] $end
$var parameter 21 F$ rotate_angle $end
$var parameter 4 G$ rotate_index $end
$var reg 21 H$ offsetX [20:0] $end
$var reg 21 I$ offsetY [20:0] $end
$var reg 21 J$ offsetZ [20:0] $end
$var reg 21 K$ x_out [20:0] $end
$var reg 21 L$ y_out [20:0] $end
$var reg 21 M$ z_out [20:0] $end
$upscope $end
$scope module rotation8 $end
$var wire 21 N$ x [20:0] $end
$var wire 21 O$ y [20:0] $end
$var wire 21 P$ z [20:0] $end
$var parameter 21 Q$ rotate_angle $end
$var parameter 4 R$ rotate_index $end
$var reg 21 S$ offsetX [20:0] $end
$var reg 21 T$ offsetY [20:0] $end
$var reg 21 U$ offsetZ [20:0] $end
$var reg 21 V$ x_out [20:0] $end
$var reg 21 W$ y_out [20:0] $end
$var reg 21 X$ z_out [20:0] $end
$upscope $end
$scope module rotation9 $end
$var wire 21 Y$ x [20:0] $end
$var wire 21 Z$ y [20:0] $end
$var wire 21 [$ z [20:0] $end
$var parameter 21 \$ rotate_angle $end
$var parameter 4 ]$ rotate_index $end
$var reg 21 ^$ offsetX [20:0] $end
$var reg 21 _$ offsetY [20:0] $end
$var reg 21 `$ offsetZ [20:0] $end
$var reg 21 a$ x_out [20:0] $end
$var reg 21 b$ y_out [20:0] $end
$var reg 21 c$ z_out [20:0] $end
$upscope $end
$upscope $end
$upscope $end
$enddefinitions $end
$comment Show the parameter values. $end
$dumpall
b1001 ]$
b100000000000 \$
b1000 R$
b1000000000000 Q$
b111 G$
b10000000000000 F$
b110 <$
b11111111111111 ;$
b101 1$
b111111111110101 0$
b100 &$
b1111111110101011 %$
b11 y#
b11111110101011100 x#
b10 n#
b111110101101101111 m#
b1111 c#
b100000 b#
b1110 X#
b1000000 W#
b1101 M#
b10000000 L#
b1100 B#
b100000000 A#
b1011 7#
b1000000000 6#
b1010 ,#
b10000000000 +#
b1 !#
b1110110101100011010 ~"
b0 t"
b11001001000011111110 s"
$end
#0
$dumpvars
bx c$
bx b$
bx a$
bx `$
bx _$
bx ^$
bx [$
bx Z$
bx Y$
bx X$
bx W$
bx V$
bx U$
bx T$
bx S$
bx P$
bx O$
bx N$
bx M$
bx L$
bx K$
bx J$
bx I$
bx H$
bx E$
bx D$
bx C$
bx B$
bx A$
bx @$
bx ?$
bx >$
bx =$
bx :$
bx 9$
bx 8$
bx 7$
bx 6$
bx 5$
bx 4$
bx 3$
bx 2$
bx /$
bx .$
bx -$
bx ,$
bx +$
bx *$
bx )$
bx ($
bx '$
bx $$
bx #$
bx "$
bx !$
bx ~#
bx }#
bx |#
bx {#
bx z#
bx w#
bx v#
bx u#
bx t#
bx s#
bx r#
bx q#
bx p#
bx o#
bx l#
bx k#
bx j#
bx i#
bx h#
bx g#
bx f#
bx e#
bx d#
bx a#
bx `#
bx _#
bx ^#
bx ]#
bx \#
bx [#
bx Z#
bx Y#
bx V#
bx U#
bx T#
bx S#
bx R#
bx Q#
bx P#
bx O#
bx N#
bx K#
bx J#
bx I#
bx H#
bx G#
bx F#
bx E#
bx D#
bx C#
bx @#
bx ?#
bx >#
bx =#
bx <#
bx ;#
bx :#
bx 9#
bx 8#
bx 5#
bx 4#
bx 3#
bx 2#
bx 1#
bx 0#
bx /#
bx .#
bx -#
bx *#
bx )#
bx (#
bx '#
bx &#
bx %#
bx $#
bx ##
bx "#
bx }"
bx |"
bx {"
bx z"
bx y"
bx x"
bx w"
bx v"
bx u"
bx r"
bx q"
bx p"
bx o"
bx n"
bx m"
bx l"
bx k"
bx00 j"
bx i"
bx h"
bx g"
bx00 f"
bx e"
bx d"
bx c"
xb"
xa"
bx00 `"
b10 _"
b0 ^"
b10 ]"
b0 \"
bx0 ["
bx000 Z"
bx Y"
bx X"
bx W"
bx V"
bx U"
b0xxx T"
bx S"
bx R"
bx Q"
bx P"
bx O"
b0 N"
b0 M"
bx000 L"
bx K"
bx J"
b0xxx I"
bx H"
bx G"
bx00 F"
bx E"
bx D"
bx C"
bx B"
bx A"
bx0 @"
b10 ?"
b10 >"
bx ="
x<"
x;"
x:"
x9"
x8"
x7"
06"
05"
bx00000000000 4"
bx 3"
bx 2"
bx 1"
bx 0"
x/"
bx ."
bx00000000000 -"
bx ,"
bx +"
bx *"
bx )"
bx ("
bx '"
bx &"
bx %"
bx $"
bx #"
bx ""
bx !"
bx ~
bx }
bx |
bx {
bx z
bx y
bx x
bx w
bx v
bx u
bx t
bx s
bx r
bx q
bx p
bx o
bx n
bx m
bx l
bx k
bx j
bx i
bx h
bx g
bx f
bx e
bx d
bx c
bx b
bx a
bx `
bx _
bx ^
bx ]
bx \
bx [
bx Z
bx Y
bx X
bx W
bx V
bx U
bx T
bx S
bx R
bx Q
bx P
bx O
bx N
bx M
bx L
bx K
bx J
bx I
bx H
bx G
bx F
bx E
bx D
bx C
bx B
bx A
bx @
bx ?
bx >
bx =
bx <
bx ;
bx :
bx 9
bx 8
bx 7
bx 6
bx 5
bx 4
bx 3
bx 2
bx 1
bx 0
bx /
bx .
bx -
bx ,
bx +
bx *
bx )
bx (
bx '
bx &
1%
bx $
0#
0"
bx !
$end
#100
0/"
b110 ="
b110 g"
0b"
b10 d"
b10 i"
0a"
b10 c"
b10 k"
b0 e"
b0 h"
b0 f"
b0 j"
0<"
b10 E"
b10 Q"
0;"
b10 D"
b10 S"
0:"
b10 C"
b10 U"
09"
b10 B"
b10 W"
08"
b10 A"
b10 Y"
b0 F"
b0 `"
07"
b10 @"
b10 ["
b0 G"
b0 P"
b0 H"
b0 R"
b0 I"
b0 T"
b0 J"
b0 V"
b0 K"
b0 X"
b0 L"
b0 Z"
b0xxxxxxxxxxxxxxxxxxxxxxxxxxxx000 !
b0xxxxxxxxxxxxxxxxxxxxxxxxxxxx000 X
b0xxxxxxxxxxxxxxxxxxxxxxxxxxxx000 2"
bx000 3"
b111111111111111100000 1
b111111111111111100000 i#
b0 A
b0 h#
b0 -"
b0 4"
b0 Q
b0 ."
b0 g#
b111111111111111100000 f#
b0 e#
b0 d#
b111111111111111000000 2
b111111111111111000000 ^#
b0 B
b0 ]#
b0 R
b0 \#
b111111111111111000000 [#
b0 Z#
b0 Y#
b111111111111110000000 3
b111111111111110000000 S#
b0 C
b0 R#
b0 S
b0 Q#
b111111111111110000000 P#
b0 O#
b0 N#
b111111111111100000000 4
b111111111111100000000 H#
b0 D
b0 G#
b0 T
b0 F#
b111111111111100000000 E#
b0 D#
b0 C#
b111111111111000000000 5
b111111111111000000000 =#
b0 E
b0 <#
b0 U
b0 ;#
b111111111111000000000 :#
b0 9#
b0 8#
b111111111110000000000 6
b111111111110000000000 2#
b0 F
b0 1#
b0 V
b0 0#
b111111111110000000000 /#
b0 .#
b0 -#
b111111111100000000000 (
b111111111100000000000 c$
b0 8
b0 b$
b0 H
b0 a$
b111111111100000000000 `$
b0 _$
b0 ^$
b111111111000000000000 )
b111111111000000000000 X$
b0 9
b0 W$
b0 I
b0 V$
b111111111000000000000 U$
b0 T$
b0 S$
b111111110000000000000 *
b111111110000000000000 M$
b0 :
b0 L$
b0 J
b0 K$
b111111110000000000000 J$
b0 I$
b0 H$
b111111100000000000001 +
b111111100000000000001 B$
b0 ;
b0 A$
b0 K
b0 @$
b111111100000000000001 ?$
b0 >$
b0 =$
b111111000000000001011 ,
b111111000000000001011 7$
b0 <
b0 6$
b0 L
b0 5$
b111111000000000001011 4$
b0 3$
b0 2$
b111110000000001010101 -
b111110000000001010101 ,$
b0 =
b0 +$
b0 M
b0 *$
b111110000000001010101 )$
b0 ($
b0 '$
b111100000001010100100 .
b111100000001010100100 !$
b0 >
b0 ~#
b0 N
b0 }#
b111100000001010100100 |#
b0 {#
b0 z#
b111000001010010010001 /
b111000001010010010001 t#
b0 ?
b0 s#
b0 O
b0 r#
b111000001010010010001 q#
b0 p#
b0 o#
b110001001010011100110 0
b110001001010011100110 '#
b0 @
b0 &#
b0 P
b0 %#
b110001001010011100110 $#
b0 ##
b0 "#
b100110110111100000010 7
b100110110111100000010 z"
b0 G
b0 y"
b0 W
b0 x"
b100110110111100000010 w"
b0 v"
b0 u"
b0 #"
b0 a#
b0 q
b0 `#
b0 a
b0 _#
b0 ""
b0 V#
b0 p
b0 U#
b0 `
b0 T#
b0 !"
b0 K#
b0 o
b0 J#
b0 _
b0 I#
b0 ~
b0 @#
b0 n
b0 ?#
b0 ^
b0 >#
b0 }
b0 5#
b0 m
b0 4#
b0 ]
b0 3#
b0 |
b0 *#
b0 l
b0 )#
b0 \
b0 (#
b0 +"
b0 [$
b0 y
b0 Z$
b0 i
b0 Y$
b0 *"
b0 P$
b0 x
b0 O$
b0 h
b0 N$
b0 )"
b0 E$
b0 w
b0 D$
b0 g
b0 C$
b0 ("
b0 :$
b0 v
b0 9$
b0 f
b0 8$
b0 '"
b0 /$
b0 u
b0 .$
b0 e
b0 -$
b0 &"
b0 $$
b0 t
b0 #$
b0 d
b0 "$
b0 %"
b0 w#
b0 s
b0 v#
b0 c
b0 u#
b0 $"
b0 l#
b0 r
b0 k#
b0 b
b0 j#
b0 {
b0 }"
b0 k
b0 |"
b0 [
b0 {"
b0 z
b0 r"
b0 j
b0 q"
b0 Z
b0 p"
1"
#200
b0 Y
b0 n"
b0 o"
b0 m"
b10000000000000000000000000000000 $
b10000000000000000000000000000000 '
b10000000000000000000000000000000 l"
0%
1#
b0 &
0"
#300
b100000 f#
b1000000 [#
b10000000 P#
b100000000 E#
b1000000000 :#
b10000000000 /#
b100000000000 `$
b1000000000000 U$
b111111110000000000001 *
b111111110000000000001 M$
b10000000000000 J$
b111111100000000001010 +
b111111100000000001010 B$
b11111111111111 ?$
b111111000000001001010 ,
b111111000000001001010 7$
b111111111110101 4$
b111110000001001001111 -
b111110000001001001111 ,$
b1111111110101011 )$
b111100001000111101101 .
b111100001000111101101 !$
b11111110101011100 |#
b111001000000001010101 /
b111001000000001010101 t#
b111110101101101111 q#
b110101101101000011100 0
b110101101101000011100 '#
b1110110101100011010 $#
b10011011011101001110 G
b10011011011101001110 y"
b10011011011101001110 W
b10011011011101001110 x"
b10011011011101001110 v"
b111111111111111000000 #"
b111111111111111000000 a#
b111111111111110000000 ""
b111111111111110000000 V#
b111111111111100000000 !"
b111111111111100000000 K#
b111111111111000000000 ~
b111111111111000000000 @#
b111111111110000000000 }
b111111111110000000000 5#
b111111111100000000000 |
b111111111100000000000 *#
b111111111000000000000 +"
b111111111000000000000 [$
b111111110000000000000 *"
b111111110000000000000 P$
b111111100000000000001 )"
b111111100000000000001 E$
b111111000000000001011 ("
b111111000000000001011 :$
b111110000000001010101 '"
b111110000000001010101 /$
b111100000001010100100 &"
b111100000001010100100 $$
b111000001010010010001 %"
b111000001010010010001 w#
b110001001010011100110 $"
b110001001010011100110 l#
b100110110111100000010 {
b100110110111100000010 }"
b10011011011101001110 Z
b10011011011101001110 p"
1"
#400
b11001100110011001 Y
b11001100110011001 n"
b1111011 o"
b10011001100110011001101 m"
b10111101110011001100110011001101 $
b10111101110011001100110011001101 '
b10111101110011001100110011001101 l"
b1 &
0"
#500
b111111111000000000001 )
b111111111000000000001 X$
b111111110000000001010 *
b111111110000000001010 M$
b111111100000001001001 +
b111111100000001001001 B$
b111111000001001000100 ,
b111111000001001000100 7$
b111110001000110011000 -
b111110001000110011000 ,$
b111100111110110110001 .
b111100111110110110001 !$
b111101100010110001011 /
b111101100010110001011 t#
b1001101101110100111 @
b1001101101110100111 &#
b11101001001011110101 P
b11101001001011110101 %#
b110110010010001011001 ##
b1001101101110100111 "#
b101010000100010011011 7
b101010000100010011011 z"
b111111110000000000001 *"
b111111110000000000001 P$
b111111100000000001010 )"
b111111100000000001010 E$
b111111000000001001010 ("
b111111000000001001010 :$
b111110000001001001111 '"
b111110000001001001111 /$
b111100001000111101101 &"
b111100001000111101101 $$
b111001000000001010101 %"
b111001000000001010101 w#
b110101101101000011100 $"
b110101101101000011100 l#
b10011011011101001110 k
b10011011011101001110 |"
b10011011011101001110 [
b10011011011101001110 {"
b11001100110011001 z
b11001100110011001 r"
1"
#600
b110011001100110011 Y
b110011001100110011 n"
b1111100 o"
b10111110010011001100110011001101 $
b10111110010011001100110011001101 '
b10111110010011001100110011001101 l"
b10 &
0"
#700
b111111111100000000001 (
b111111111100000000001 c$
b111111111000000001010 )
b111111111000000001010 X$
b111111110000001001001 *
b111111110000001001001 M$
b111111100001001000011 +
b111111100001001000011 B$
b111111001000110001101 ,
b111111001000110001101 7$
b111110111110101011100 -
b111110111110101011100 ,$
b1100001011100111 .
b1100001011100111 !$
b10011011011101010 ?
b10011011011101010 s#
b11111100100111011110 O
b11111100100111011110 r#
b111000101101101000011 p#
b10011011011101001 o#
b111000111001110110101 0
b111000111001110110101 '#
b101101010001000110101 7
b101101010001000110101 z"
b111111111000000000001 +"
b111111111000000000001 [$
b111111110000000001010 *"
b111111110000000001010 P$
b111111100000001001001 )"
b111111100000001001001 E$
b111111000001001000100 ("
b111111000001001000100 :$
b111110001000110011000 '"
b111110001000110011000 /$
b111100111110110110001 &"
b111100111110110110001 $$
b111101100010110001011 %"
b111101100010110001011 w#
b1001101101110100111 r
b1001101101110100111 k#
b11101001001011110101 b
b11101001001011110101 j#
b101010000100010011011 {
b101010000100010011011 }"
b110011001100110011 z
b110011001100110011 r"
1"
#800
b1001100110011001100 Y
b1001100110011001100 n"
b1111101 o"
b110011001100110011010 m"
b10111110100110011001100110011010 $
b10111110100110011001100110011010 '
b10111110100110011001100110011010 l"
b11 &
0"
#900
b111111111110000000001 6
b111111111110000000001 2#
b111111111100000001010 (
b111111111100000001010 c$
b111111111000001001001 )
b111111111000001001001 X$
b111111110001001000011 *
b111111110001001000011 M$
b111111101000110001100 +
b111111101000110001100 B$
b111111111110101010001 ,
b111111111110101010001 7$
b111111100001100111100 -
b111111100001100111100 ,$
b111110000000001010101 )$
b111110011110110101111 >
b111110011110110101111 ~#
b11111111000010111011 N
b11111111000010111011 }#
b111100000011011000101 {#
b10011011011101 z#
b101111100100100 /
b101111100100100 t#
b111100000110101001111 0
b111100000110101001111 '#
b110000011101111001110 7
b110000011101111001110 z"
b111111111100000000001 |
b111111111100000000001 *#
b111111111000000001010 +"
b111111111000000001010 [$
b111111110000001001001 *"
b111111110000001001001 P$
b111111100001001000011 )"
b111111100001001000011 E$
b111111001000110001101 ("
b111111001000110001101 :$
b111110111110101011100 '"
b111110111110101011100 /$
b1100001011100111 &"
b1100001011100111 $$
b10011011011101010 s
b10011011011101010 v#
b11111100100111011110 c
b11111100100111011110 u#
b111000111001110110101 $"
b111000111001110110101 l#
b101101010001000110101 {
b101101010001000110101 }"
b1001100110011001100 z
b1001100110011001100 r"
1"
#1000
b1100110011001100110 Y
b1100110011001100110 n"
b10011001100110011001101 m"
b10111110110011001100110011001101 $
b10111110110011001100110011001101 '
b10111110110011001100110011001101 l"
b100 &
0"
