src/cordic_tb_waves_v.vcd
$date
	Sat Mar 11 00:08:52 2023
$end
$version
	Icarus Verilog
$end
$timescale
	100ps
$end
$scope module tb $end
$var wire 32 ! result [31:0] $end
$var wire 1 " done $end
$var reg 1 # clk $end
$var reg 1 $ clk_en $end
$var reg 32 % dataa [31:0] $end
$var reg 1 & reset $end
$var reg 1 ' start $end
$scope module unit $end
$var wire 1 & aclr $end
$var wire 1 $ clk_en $end
$var wire 1 # clock $end
$var wire 32 ( dataa [31:0] $end
$var wire 32 ) result [31:0] $end
$var wire 1 ' start $end
$var wire 32 * result_fp [31:0] $end
$var wire 21 + fixed_point_result [20:0] $end
$var wire 21 , fixed_point_input [20:0] $end
$var wire 1 " done $end
$var reg 21 - offsetX [20:0] $end
$var reg 21 . offsetY [20:0] $end
$var reg 21 / offsetZ [20:0] $end
$var reg 21 0 rotateAngle [20:0] $end
$var reg 5 1 rotate_index [4:0] $end
$var reg 21 2 x [20:0] $end
$var reg 21 3 y [20:0] $end
$var reg 21 4 z [20:0] $end
$scope module fixed_to_float_unit $end
$var wire 21 5 fixed_point_result [20:0] $end
$var wire 5 6 leadingOneIndex [4:0] $end
$var wire 32 7 fixed_point_result_appended_to_32_bits [31:0] $end
$var wire 1 8 containOne_valid $end
$var reg 21 9 intermediate_result [20:0] $end
$var reg 8 : result_exponent [7:0] $end
$var reg 32 ; result_fp [31:0] $end
$var reg 23 < result_significant [22:0] $end
$scope module encoder32 $end
$var wire 32 = encoder_input [31:0] $end
$var wire 1 > valid7 $end
$var wire 1 ? valid6 $end
$var wire 1 @ valid5 $end
$var wire 1 A valid4 $end
$var wire 1 B valid3 $end
$var wire 1 C valid2 $end
$var wire 1 D valid1 $end
$var wire 1 E valid0 $end
$var wire 1 8 valid $end
$var wire 3 F encoder_output8 [2:0] $end
$var wire 2 G encoder_output7 [1:0] $end
$var wire 2 H encoder_output6 [1:0] $end
$var wire 2 I encoder_output5 [1:0] $end
$var wire 2 J encoder_output4 [1:0] $end
$var wire 2 K encoder_output3 [1:0] $end
$var wire 2 L encoder_output2 [1:0] $end
$var wire 2 M encoder_output1 [1:0] $end
$var wire 2 N encoder_output0 [1:0] $end
$var wire 8 O encoder_input8 [7:0] $end
$var reg 4 P encoder_input0 [3:0] $end
$var reg 4 Q encoder_input1 [3:0] $end
$var reg 4 R encoder_input2 [3:0] $end
$var reg 4 S encoder_input3 [3:0] $end
$var reg 4 T encoder_input4 [3:0] $end
$var reg 4 U encoder_input5 [3:0] $end
$var reg 4 V encoder_input6 [3:0] $end
$var reg 4 W encoder_input7 [3:0] $end
$var reg 5 X encoder_output [4:0] $end
$scope module encoder0 $end
$var wire 4 Y encoder_input [3:0] $end
$var reg 2 Z encoder_output [1:0] $end
$var reg 1 E valid $end
$upscope $end
$scope module encoder1 $end
$var wire 4 [ encoder_input [3:0] $end
$var reg 2 \ encoder_output [1:0] $end
$var reg 1 D valid $end
$upscope $end
$scope module encoder2 $end
$var wire 4 ] encoder_input [3:0] $end
$var reg 2 ^ encoder_output [1:0] $end
$var reg 1 C valid $end
$upscope $end
$scope module encoder3 $end
$var wire 4 _ encoder_input [3:0] $end
$var reg 2 ` encoder_output [1:0] $end
$var reg 1 B valid $end
$upscope $end
$scope module encoder4 $end
$var wire 4 a encoder_input [3:0] $end
$var reg 2 b encoder_output [1:0] $end
$var reg 1 A valid $end
$upscope $end
$scope module encoder5 $end
$var wire 4 c encoder_input [3:0] $end
$var reg 2 d encoder_output [1:0] $end
$var reg 1 @ valid $end
$upscope $end
$scope module encoder6 $end
$var wire 4 e encoder_input [3:0] $end
$var reg 2 f encoder_output [1:0] $end
$var reg 1 ? valid $end
$upscope $end
$scope module encoder7 $end
$var wire 4 g encoder_input [3:0] $end
$var reg 2 h encoder_output [1:0] $end
$var reg 1 > valid $end
$upscope $end
$scope module encoder8 $end
$var wire 8 i encoder_input [7:0] $end
$var wire 1 j valid8_1 $end
$var wire 1 k valid8_0 $end
$var wire 2 l encoder_output8_1 [1:0] $end
$var wire 2 m encoder_output8_0 [1:0] $end
$var reg 4 n encoder_input8_0 [3:0] $end
$var reg 4 o encoder_input8_1 [3:0] $end
$var reg 3 p encoder_output [2:0] $end
$var reg 1 8 valid $end
$scope module encoder8_0 $end
$var wire 4 q encoder_input [3:0] $end
$var reg 2 r encoder_output [1:0] $end
$var reg 1 k valid $end
$upscope $end
$scope module encoder8_1 $end
$var wire 4 s encoder_input [3:0] $end
$var reg 2 t encoder_output [1:0] $end
$var reg 1 j valid $end
$upscope $end
$upscope $end
$upscope $end
$upscope $end
$scope module floating_to_fixed_unit $end
$var wire 32 u dataa [31:0] $end
$var wire 23 v significand [22:0] $end
$var wire 21 w fixed_point_input [20:0] $end
$var wire 8 x exponent [7:0] $end
$upscope $end
$upscope $end
$scope begin $ivl_for_loop0 $end
$var integer 32 y i [31:0] $end
$upscope $end
$upscope $end
$enddefinitions $end
$comment Show the parameter values. $end
$dumpall
$end
#0
$dumpvars
bx y
bx x
bx w
bx v
bx u
bx t
bx00 s
bx r
bx q
bx p
bx00 o
bx n
bx m
bx l
xk
xj
bx00 i
b10 h
b0 g
b10 f
b0 e
bx0 d
bx000 c
bx b
bx a
bx `
bx _
bx ^
b0xxx ]
bx \
bx [
bx Z
bx Y
bx X
b0 W
b0 V
bx000 U
bx T
bx S
b0xxx R
bx Q
bx P
bx00 O
bx N
bx M
bx L
bx K
bx J
bx0 I
b10 H
b10 G
bx F
xE
xD
xC
xB
xA
x@
0?
0>
bx00000000000 =
bx <
bx ;
bx :
bx 9
x8
bx00000000000 7
bx 6
bx 5
bx 4
bx 3
bx 2
bx 1
bx 0
bx /
bx .
bx -
bx ,
bx +
bx *
bx )
bx (
0'
1&
bx %
0$
0#
x"
bx !
$end
#100
b100110110111010011100 9
b1111110 :
b1 6
b1 X
18
b0 F
b0 p
1k
b0 m
b0 r
1j
b0 l
b0 t
b1111 n
b1111 q
b1000 o
b1000 s
1E
b1 N
b1 Z
1D
b0 M
b0 \
1C
b1 L
b1 ^
1B
b0 K
b0 `
1A
b1 J
b1 b
b11111000 O
b11111000 i
0@
b10 I
b10 d
b111111000110110111010011100000 !
b111111000110110111010011100000 )
b111111000110110111010011100000 *
b111111000110110111010011100000 ;
b110110111010011100000 <
b100 P
b100 Y
b1101 Q
b1101 [
b101 R
b101 ]
b1010 S
b1010 _
b111 T
b111 a
b0 U
b0 c
b100110110111100000010 /
b10011011011101001110 .
b0 -
b11001001000011111110 0
b0 4
b0 3
b1001101101110100111000000000000 7
b1001101101110100111000000000000 =
b10011011011101001110 +
b10011011011101001110 2
b10011011011101001110 5
0"
b0 1
1#
#200
b10000 ,
b10000 w
b1101111 x
b0 v
b110111100000000000000000000000 %
b110111100000000000000000000000 (
b110111100000000000000000000000 u
1'
0&
1$
b0 y
0#
#300
b10000 4
1#
#400
0'
0#
#500
b1110110101100011010 /
b110110010010001011001 .
b1001101101110100111 -
b1110110101100011010 0
b100110110111100010010 4
b10011011011101001110 3
b1 1
1#
#600
0#
#700
b1100 o
b1100 s
b1 M
b1 \
b1 K
b1 `
b0 J
b0 b
b11111100 O
b11111100 i
1@
b0 I
b0 d
b111111011010010010111101010000 !
b111111011010010010111101010000 )
b111111011010010010111101010000 *
b111111011010010010111101010000 ;
b11010010010111101010000 <
b111010010010111101010 9
b111 P
b111 Y
b100 Q
b100 [
b100 R
b100 ]
b111 S
b111 _
b1010 T
b1010 a
b1000 U
b1000 c
b111110101101101111 /
b111000101101101000011 .
b10011011011101001 -
b111110101101101111 0
b110101101101000101100 4
b1001101101110100111 3
b1110100100101111010100000000000 7
b1110100100101111010100000000000 =
b11101001001011110101 +
b11101001001011110101 2
b11101001001011110101 5
b10 1
1#
#800
0#
#900
b1000 o
b1000 s
b0 M
b0 \
b10 L
b10 ^
b0 K
b0 `
b11111000 O
b11111000 i
0@
b10 I
b10 d
b111111011111001001110111100000 !
b111111011111001001110111100000 )
b111111011111001001110111100000 *
b111111011111001001110111100000 ;
b11111001001110111100000 <
b111111001001110111100 9
b1110 Q
b1110 [
b10 R
b10 ]
b1110 S
b1110 _
b1111 T
b1111 a
b0 U
b0 c
b11111110101011100 /
b111100000011011000101 .
b10011011011101 -
b11111110101011100 0
b111101100010110011011 4
b10011011011101010 3
b1111110010011101111000000000000 7
b1111110010011101111000000000000 =
b11111100100111011110 +
b11111100100111011110 2
b11111100100111011110 5
b11 1
1#
#1000
0#
#1100
b1100 o
b1100 s
b1 L
b1 ^
b1 K
b1 `
b11111100 O
b11111100 i
1@
b0 I
b0 d
b111111011111110000101110110000 !
b111111011111110000101110110000 )
b111111011111110000101110110000 *
b111111011111110000101110110000 ;
b11111110000101110110000 <
b111111110000101110110 9
b1111 Q
b1111 [
b100 R
b100 ]
b101 S
b101 _
b1101 T
b1101 a
b1000 U
b1000 c
b111110000000001010101 /
b1111111100001011 .
b111100000110000100110 -
b1111111110101011 0
b1100001011110111 4
b111110011110110101111 3
b1111111100001011101100000000000 7
b1111111100001011101100000000000 =
b11111111000010111011 +
b11111111000010111011 2
b11111111000010111011 5
b100 1
1#
#1200
0#
#1300
b1 l
b1 t
b100 o
b100 s
b11110100 O
b11110100 i
0A
b10 J
b10 b
b111111010111111100111000010000 !
b111111010111111100111000010000 )
b111111010111111100111000010000 *
b111111010111111100111000010000 ;
b10111111100111000010000 <
b110111111100111000010 9
b110 P
b110 Y
b111 R
b111 ]
b111 S
b111 _
b0 T
b0 a
b111111111110101 /
b111111001000000011001 .
b111100101 -
b111111111110101 0
b111111100001101001100 4
b11110010111010 3
b1101111111001110000100000000000 7
b1101111111001110000100000000000 =
b11011111110011100001 +
b11011111110011100001 2
b11011111110011100001 5
b101 1
1#
#1400
0#
#1500
b0 l
b0 t
b1000 o
b1000 s
1A
b11111000 O
b11111000 i
0@
b10 I
b10 d
b111111010111111110110001100000 !
b111111010111111110110001100000 )
b111111010111111110110001100000 *
b111111010111111110110001100000 ;
b10111111110110001100000 <
b110111111110110001100 9
b110 S
b110 _
b11 T
b11 a
b0 U
b0 c
b111111100000000000001 /
b11011111111011 .
b111111000000011001101 -
b11111111111111 0
b100001101000001 4
b111111100110011010011 3
b1101111111101100011000000000000 7
b1101111111101100011000000000000 =
b11011111111011000110 +
b11011111111011000110 2
b11011111111011000110 5
b110 1
1#
#1600
0#
#1700
b1100 o
b1100 s
b0 K
b0 `
b0 J
b0 b
b11111100 O
b11111100 i
1@
b0 I
b0 d
b111111010101111111100100110000 !
b111111010101111111100100110000 )
b111111010101111111100100110000 *
b111111010101111111100100110000 ;
b10101111111100100110000 <
b110101111111100100110 9
b1011 Q
b1011 [
b1100 S
b1100 _
b1001 T
b1001 a
b1000 U
b1000 c
b111111110000000000000 /
b1101011111111 .
b111111111111111110111 -
b10000000000000 0
b1101000010 4
b10011001110 3
b1101011111111001001100000000000 7
b1101011111111001001100000000000 =
b11010111111110010011 +
b11010111111110010011 2
b11010111111110010011 5
b111 1
1#
#1800
0#
#1900
b1000 o
b1000 s
b1 J
b1 b
b11111000 O
b11111000 i
0@
b10 I
b10 d
b111111010101111111100010100000 !
b111111010101111111100010100000 )
b111111010101111111100010100000 *
b111111010101111111100010100000 ;
b10101111111100010100000 <
b110101111111100010100 9
b101 T
b101 a
b0 U
b0 c
b1000000000000 /
b111111111001010000001 .
b11111 -
b1000000000000 0
b111111110001101000010 4
b1111111001101 3
b1101011111111000101000000000000 7
b1101011111111000101000000000000 =
b11010111111110001010 +
b11010111111110001010 2
b11010111111110001010 5
b1000 1
1#
#2000
0#
#2100
b1100 o
b1100 s
b11111100 O
b11111100 i
1@
b0 I
b0 d
b111111010101111111101010010000 !
b111111010101111111101010010000 )
b111111010101111111101010010000 *
b111111010101111111101010010000 ;
b10101111111101010010000 <
b110101111111101010010 9
b1101 S
b1101 _
b100 T
b100 a
b1000 U
b1000 c
b100000000000 /
b111111111100101000001 .
b1001 -
b100000000000 0
b111111111001101000010 4
b1001001001110 3
b1101011111111010100100000000000 7
b1101011111111010100100000000000 =
b11010111111110101001 +
b11010111111110101001 2
b11010111111110101001 5
b1001 1
1#
#2200
0#
#2300
b1000 o
b1000 s
b0 J
b0 b
b11111000 O
b11111000 i
0@
b10 I
b10 d
b111111010101111111101100100000 !
b111111010101111111101100100000 )
b111111010101111111101100100000 *
b111111010101111111101100100000 ;
b10101111111101100100000 <
b110101111111101100100 9
b1001 T
b1001 a
b0 U
b0 c
b10000000000 /
b111111111110010100001 .
b10 -
b10000000000 0
b111111111101101000010 4
b101110001111 3
b1101011111111011001000000000000 7
b1101011111111011001000000000000 =
b11010111111110110010 +
b11010111111110110010 2
b11010111111110110010 5
b1010 1
1#
#2400
0#
#2500
b111111010101111111101101000000 !
b111111010101111111101101000000 )
b111111010101111111101101000000 *
b111111010101111111101101000000 ;
b10101111111101101000000 <
b110101111111101101000 9
b1010 T
b1010 a
b1000000000 /
b111111111111001010001 .
b1 -
b1000000000 0
b111111111111101000010 4
b100000110000 3
b1101011111111011010000000000000 7
b1101011111111011010000000000000 =
b11010111111110110100 +
b11010111111110110100 2
b11010111111110110100 5
b1011 1
1#
#2600
0#
#2700
b1100 o
b1100 s
b11111100 O
b11111100 i
1@
b0 I
b0 d
b111111010101111111101101010000 !
b111111010101111111101101010000 )
b111111010101111111101101010000 *
b111111010101111111101101010000 ;
b10101111111101101010000 <
b110101111111101101010 9
b1000 U
b1000 c
b111111111111100000000 /
b11010111 .
b0 -
b100000000 0
b101000010 4
b11010000001 3
b1101011111111011010100000000000 7
b1101011111111011010100000000000 =
b11010111111110110101 +
b11010111111110110101 2
b11010111111110110101 5
b1100 1
1#
#2800
0#
#2900
b111111111111110000000 /
b1101011 .
b10000000 0
b1000010 4
b11101011000 3
b1101 1
1#
#3000
0#
#3100
b1000000 /
b111111111111111001011 .
b1000000 0
b111111111111111000010 4
b11111000011 3
b1110 1
1#
#3200
0#
#3300
b111111111111111100000 /
b11010 .
b100000 0
b10 4
b11110001110 3
b1111 1
1#
#3400
0#
#3500
b0 /
b111111111111111110011 .
b0 0
b111111111111111100010 4
b11110101000 3
1"
b10000 1
1#
#3600
b11001100110011001 ,
b11001100110011001 w
b1111011 x
b10011001100110011001101 v
b111101110011001100110011001101 %
b111101110011001100110011001101 (
b111101110011001100110011001101 u
1'
b1 y
0#
#3700
b1000 o
b1000 s
b1 J
b1 b
b11111000 O
b11111000 i
0@
b10 I
b10 d
b111111000110110111010011100000 !
b111111000110110111010011100000 )
b111111000110110111010011100000 *
b111111000110110111010011100000 ;
b110110111010011100000 <
b100110110111010011100 9
b100 P
b100 Y
b1101 Q
b1101 [
b101 R
b101 ]
b1010 S
b1010 _
b111 T
b111 a
b0 U
b0 c
b100110110111100000010 /
b10011011011101001110 .
b11001001000011111110 0
b11001100110011001 4
b0 3
b1001101101110100111000000000000 7
b1001101101110100111000000000000 =
b10011011011101001110 +
b10011011011101001110 2
b10011011011101001110 5
0"
b0 1
1#
#3800
0'
0#
#3900
b1110110101100011010 /
b110110010010001011001 .
b1001101101110100111 -
b1110110101100011010 0
b101010000100010011011 4
b10011011011101001110 3
b1 1
1#
#4000
0#
#4100
b1100 o
b1100 s
b1 M
b1 \
b1 K
b1 `
b0 J
b0 b
b11111100 O
b11111100 i
1@
b0 I
b0 d
b111111011010010010111101010000 !
b111111011010010010111101010000 )
b111111011010010010111101010000 *
b111111011010010010111101010000 ;
b11010010010111101010000 <
b111010010010111101010 9
b111 P
b111 Y
b100 Q
b100 [
b100 R
b100 ]
b111 S
b111 _
b1010 T
b1010 a
b1000 U
b1000 c
b111110101101101111 /
b111000101101101000011 .
b10011011011101001 -
b111110101101101111 0
b111000111001110110101 4
b1001101101110100111 3
b1110100100101111010100000000000 7
b1110100100101111010100000000000 =
b11101001001011110101 +
b11101001001011110101 2
b11101001001011110101 5
b10 1
1#
#4200
0#
#4300
b1000 o
b1000 s
b0 M
b0 \
b10 L
b10 ^
b0 K
b0 `
b11111000 O
b11111000 i
0@
b10 I
b10 d
b111111011111001001110111100000 !
b111111011111001001110111100000 )
b111111011111001001110111100000 *
b111111011111001001110111100000 ;
b11111001001110111100000 <
b111111001001110111100 9
b1110 Q
b1110 [
b10 R
b10 ]
b1110 S
b1110 _
b1111 T
b1111 a
b0 U
b0 c
b111100000001010100100 /
b11111100100111011 .
b111111101100100100011 -
b11111110101011100 0
b101111100100100 4
b10011011011101010 3
b1111110010011101111000000000000 7
b1111110010011101111000000000000 =
b11111100100111011110 +
b11111100100111011110 2
b11111100100111011110 5
b11 1
1#
#4400
0#
#4500
b1 l
b1 t
b1101 n
b1101 q
b100 o
b100 s
0C
0A
b10 J
b10 b
b11010100 O
b11010100 i
1@
b0 I
b0 d
b111111011110100011000000010000 !
b111111011110100011000000010000 )
b111111011110100011000000010000 *
b111111011110100011000000010000 ;
b11110100011000000010000 <
b111110100011000000010 9
b1101 Q
b1101 [
b0 R
b0 ]
b1000 S
b1000 _
b0 T
b0 a
b1000 U
b1000 c
b1111111110101011 /
b111110000010111010000 .
b11001100000010 -
b1111111110101011 0
b111100110000111001000 4
b110011000000100101 3
b1111101000110000000100000000000 7
b1111101000110000000100000000000 =
b11111010001100000001 +
b11111010001100000001 2
b11111010001100000001 5
b100 1
1#
#4600
0#
#4700
b0 l
b0 t
b1110 n
b1110 q
b1100 o
b1100 s
1C
b1 L
b1 ^
0B
b10 K
b10 `
b11101100 O
b11101100 i
1A
b11 J
b11 b
b111111011111010110000000110000 !
b111111011111010110000000110000 )
b111111011111010110000000110000 *
b111111011111010110000000110000 ;
b11111010110000000110000 <
b111111010110000000110 9
b1110 Q
b1110 [
b101 R
b101 ]
b0 S
b0 _
b1 T
b1 a
b111111111110101 /
b111111000000101010000 .
b1000110101111 -
b111111111110101 0
b111110110000101110011 4
b100011010111110101 3
b1111110101100000001100000000000 7
b1111110101100000001100000000000 =
b11111101011000000011 +
b11111101011000000011 2
b11111101011000000011 5
b101 1
1#
#4800
0#
#4900
b1111 n
b1111 q
b1000 o
b1000 s
b11 L
b11 ^
1B
b0 K
b0 `
b0 J
b0 b
b11111000 O
b11111000 i
0@
b10 I
b10 d
b111111011111100111101100100000 !
b111111011111100111101100100000 )
b111111011111100111101100100000 *
b111111011111100111101100100000 ;
b11111100111101100100000 <
b111111100111101100100 9
b1111 Q
b1111 [
b1 R
b1 ]
b1101 S
b1101 _
b1001 T
b1001 a
b0 U
b0 c
b11111111111111 /
b111111100000001100010 .
b11011011101 -
b11111111111111 0
b111111110000101101000 4
b11011011101000101 3
b1111111001111011001000000000000 7
b1111111001111011001000000000000 =
b11111110011110110010 +
b11111110011110110010 2
b11111110011110110010 5
b110 1
1#
#5000
0#
#5100
b1100 o
b1100 s
b10 L
b10 ^
b1 K
b1 `
b1 J
b1 b
b11111100 O
b11111100 i
1@
b0 I
b0 d
b111111011111101110100011110000 !
b111111011111101110100011110000 )
b111111011111101110100011110000 *
b111111011111101110100011110000 ;
b11111101110100011110000 <
b111111101110100011110 9
b11 R
b11 ]
b100 S
b100 _
b111 T
b111 a
b1000 U
b1000 c
b111111110000000000000 /
b1111111011101 .
b111111111110100010001 -
b10000000000000 0
b10000101100111 4
b10111011110100111 3
b1111111011101000111100000000000 7
b1111111011101000111100000000000 =
b11111110111010001111 +
b11111110111010001111 2
b11111110111010001111 5
b111 1
1#
#5200
0#
#5300
0j
b10 l
b10 t
b0 o
b0 s
b0 K
b0 `
0A
b10 J
b10 b
b11110000 O
b11110000 i
0@
b10 I
b10 d
b111111011111101011101000000000 !
b111111011111101011101000000000 )
b111111011111101011101000000000 *
b111111011111101011101000000000 ;
b11111101011101000000000 <
b111111101011101000000 9
b10 R
b10 ]
b1101 S
b1101 _
b0 T
b0 a
b0 U
b0 c
b111111111000000000000 /
b111111101011 .
b111111111111001101001 -
b1000000000000 0
b101100111 4
b11001011110000100 3
b1111111010111010000000000000000 7
b1111111010111010000000000000000 =
b11111110101110100000 +
b11111110101110100000 2
b11111110101110100000 5
b1000 1
1#
#5400
0#
#5500
1j
b0 l
b0 t
b1110 n
b1110 q
b1100 o
b1100 s
0B
b10 K
b10 `
1A
b1 J
b1 b
b11101100 O
b11101100 i
1@
b0 I
b0 d
b111111011111101010000010010000 !
b111111011111101010000010010000 )
b111111011111101010000010010000 *
b111111011111101010000010010000 ;
b11111101010000010010000 <
b111111101010000010010 9
b0 S
b0 _
b100 T
b100 a
b1000 U
b1000 c
b100000000000 /
b111111111100000001011 .
b11010011 -
b100000000000 0
b111111111000101100111 4
b11010011101101111 3
b1111111010100000100100000000000 7
b1111111010100000100100000000000 =
b11111110101000001001 +
b11111110101000001001 2
b11111110101000001001 5
b1001 1
1#
#5600
0#
#5700
b1111 n
b1111 q
b1000 o
b1000 s
1B
b1 K
b1 `
b0 J
b0 b
b11111000 O
b11111000 i
0@
b10 I
b10 d
b111111011111101010110111000000 !
b111111011111101010110111000000 )
b111111011111101010110111000000 *
b111111011111101010110111000000 ;
b11111101010110111000000 <
b111111101010110111000 9
b110 S
b110 _
b1110 T
b1110 a
b0 U
b0 c
b10000000000 /
b111111111110000000110 .
b1100111 -
b10000000000 0
b111111111100101100111 4
b11001111101111010 3
b1111111010101101110000000000000 7
b1111111010101101110000000000000 =
b11111110101011011100 +
b11111110101011011100 2
b11111110101011011100 5
b1010 1
1#
#5800
0#
#5900
b1100 o
b1100 s
b0 K
b0 `
b11 J
b11 b
b11111100 O
b11111100 i
1@
b0 I
b0 d
b111111011111101011010000110000 !
b111111011111101011010000110000 )
b111111011111101011010000110000 *
b111111011111101011010000110000 ;
b11111101011010000110000 <
b111111101011010000110 9
b1010 S
b1010 _
b1 T
b1 a
b1000 U
b1000 c
b1000000000 /
b111111111111000000011 .
b110011 -
b1000000000 0
b111111111110101100111 4
b11001101110000000 3
b1111111010110100001100000000000 7
b1111111010110100001100000000000 =
b11111110101101000011 +
b11111110101101000011 2
b11111110101101000011 5
b1011 1
1#
#6000
0#
#6100
b1000 o
b1000 s
b0 J
b0 b
b11111000 O
b11111000 i
0@
b10 I
b10 d
b111111011111101011011101100000 !
b111111011111101011011101100000 )
b111111011111101011011101100000 *
b111111011111101011011101100000 ;
b11111101011011101100000 <
b111111101011011101100 9
b1011 S
b1011 _
b1011 T
b1011 a
b0 U
b0 c
b100000000 /
b111111111111100000010 .
b11001 -
b100000000 0
b111111111111101100111 4
b11001100110000011 3
b1111111010110111011000000000000 7
b1111111010110111011000000000000 =
b11111110101101110110 +
b11111110101101110110 2
b11111110101101110110 5
b1100 1
1#
#6200
0#
#6300
b1100 o
b1100 s
b1 J
b1 b
b11111100 O
b11111100 i
1@
b0 I
b0 d
b111111011111101011100011110000 !
b111111011111101011100011110000 )
b111111011111101011100011110000 *
b111111011111101011100011110000 ;
b11111101011100011110000 <
b111111101011100011110 9
b1100 S
b1100 _
b111 T
b111 a
b1000 U
b1000 c
b111111111111110000000 /
b1111111 .
b111111111111111110100 -
b10000000 0
b1100111 4
b11001100010000101 3
b1111111010111000111100000000000 7
b1111111010111000111100000000000 =
b11111110101110001111 +
b11111110101110001111 2
b11111110101110001111 5
b1101 1
1#
#6400
0#
#6500
b11 J
b11 b
b111111011111101011100000110000 !
b111111011111101011100000110000 )
b111111011111101011100000110000 *
b111111011111101011100000110000 ;
b11111101011100000110000 <
b111111101011100000110 9
b1 T
b1 a
b1000000 /
b111111111111111000001 .
b110 -
b1000000 0
b111111111111111100111 4
b11001100100000100 3
b1111111010111000001100000000000 7
b1111111010111000001100000000000 =
b11111110101110000011 +
b11111110101110000011 2
b11111110101110000011 5
b1110 1
1#
#6600
0#
#6700
b1 J
b1 b
b111111011111101011100010010000 !
b111111011111101011100010010000 )
b111111011111101011100010010000 *
b111111011111101011100010010000 ;
b11111101011100010010000 <
b111111101011100010010 9
b100 T
b100 a
b111111111111111100000 /
b11111 .
b111111111111111111101 -
b100000 0
b100111 4
b11001100011000101 3
b1111111010111000100100000000000 7
b1111111010111000100100000000000 =
b11111110101110001001 +
b11111110101110001001 2
b11111110101110001001 5
b1111 1
1#
#6800
0#
#6900
b1000 o
b1000 s
b10 J
b10 b
b11111000 O
b11111000 i
0@
b10 I
b10 d
b111111011111101011100001100000 !
b111111011111101011100001100000 )
b111111011111101011100001100000 *
b111111011111101011100001100000 ;
b11111101011100001100000 <
b111111101011100001100 9
b11 T
b11 a
b0 U
b0 c
b0 /
b1111 .
b111111111111111111111 -
b0 0
b111 4
b11001100011100100 3
b1111111010111000011000000000000 7
b1111111010111000011000000000000 =
b11111110101110000110 +
b11111110101110000110 2
b11111110101110000110 5
1"
b10000 1
1#
#7000
b110011001100110011 ,
b110011001100110011 w
b1111100 x
b111110010011001100110011001101 %
b111110010011001100110011001101 (
b111110010011001100110011001101 u
1'
b10 y
0#
#7100
b1 L
b1 ^
b1 J
b1 b
b111111000110110111010011100000 !
b111111000110110111010011100000 )
b111111000110110111010011100000 *
b111111000110110111010011100000 ;
b110110111010011100000 <
b100110110111010011100 9
b100 P
b100 Y
b1101 Q
b1101 [
b101 R
b101 ]
b1010 S
b1010 _
b111 T
b111 a
b100110110111100000010 /
b10011011011101001110 .
b0 -
b11001001000011111110 0
b110011001100110011 4
b0 3
b1001101101110100111000000000000 7
b1001101101110100111000000000000 =
b10011011011101001110 +
b10011011011101001110 2
b10011011011101001110 5
0"
b0 1
1#
#7200
0'
0#
#7300
b1110110101100011010 /
b110110010010001011001 .
b1001101101110100111 -
b1110110101100011010 0
b101101010001000110101 4
b10011011011101001110 3
b1 1
1#
#7400
0#
#7500
b1100 o
b1100 s
b1 M
b1 \
b1 K
b1 `
b0 J
b0 b
b11111100 O
b11111100 i
1@
b0 I
b0 d
b111111011010010010111101010000 !
b111111011010010010111101010000 )
b111111011010010010111101010000 *
b111111011010010010111101010000 ;
b11010010010111101010000 <
b111010010010111101010 9
b111 P
b111 Y
b100 Q
b100 [
b100 R
b100 ]
b111 S
b111 _
b1010 T
b1010 a
b1000 U
b1000 c
b111110101101101111 /
b111000101101101000011 .
b10011011011101001 -
b111110101101101111 0
b111100000110101001111 4
b1001101101110100111 3
b1110100100101111010100000000000 7
b1110100100101111010100000000000 =
b11101001001011110101 +
b11101001001011110101 2
b11101001001011110101 5
b10 1
1#
#7600
0#
#7700
b1000 o
b1000 s
b0 M
b0 \
b10 L
b10 ^
b0 K
b0 `
b11111000 O
b11111000 i
0@
b10 I
b10 d
b111111011111001001110111100000 !
b111111011111001001110111100000 )
b111111011111001001110111100000 *
b111111011111001001110111100000 ;
b11111001001110111100000 <
b111111001001110111100 9
b1110 Q
b1110 [
b10 R
b10 ]
b1110 S
b1110 _
b1111 T
b1111 a
b0 U
b0 c
b111100000001010100100 /
b11111100100111011 .
b111111101100100100011 -
b11111110101011100 0
b11111100010111110 4
b10011011011101010 3
b1111110010011101111000000000000 7
b1111110010011101111000000000000 =
b11111100100111011110 +
b11111100100111011110 2
b11111100100111011110 5
b11 1
1#
#7800
0#
#7900
b1 l
b1 t
b1101 n
b1101 q
b100 o
b100 s
0C
0A
b10 J
b10 b
b11010100 O
b11010100 i
1@
b0 I
b0 d
b111111011110100011000000010000 !
b111111011110100011000000010000 )
b111111011110100011000000010000 *
b111111011110100011000000010000 ;
b11110100011000000010000 <
b111110100011000000010 9
b1101 Q
b1101 [
b0 R
b0 ]
b1000 S
b1000 _
b0 T
b0 a
b1000 U
b1000 c
b1111111110101011 /
b111110000010111010000 .
b11001100000010 -
b1111111110101011 0
b111111111101101100010 4
b110011000000100101 3
b1111101000110000000100000000000 7
b1111101000110000000100000000000 =
b11111010001100000001 +
b11111010001100000001 2
b11111010001100000001 5
b100 1
1#
#8000
0#
#8100
b0 l
b0 t
b1110 n
b1110 q
b1100 o
b1100 s
1C
b1 L
b1 ^
0B
b10 K
b10 `
b11101100 O
b11101100 i
1A
b11 J
b11 b
b111111011111010110000000110000 !
b111111011111010110000000110000 )
b111111011111010110000000110000 *
b111111011111010110000000110000 ;
b11111010110000000110000 <
b111111010110000000110 9
b1110 Q
b1110 [
b101 R
b101 ]
b0 S
b0 _
b1 T
b1 a
b111111000000000001011 /
b111111010110000 .
b111111110111001010001 -
b111111111110101 0
b1111101100001101 4
b100011010111110101 3
b1111110101100000001100000000000 7
b1111110101100000001100000000000 =
b11111101011000000011 +
b11111101011000000011 2
b11111101011000000011 5
b101 1
1#
#8200
0#
#8300
b1111 n
b1111 q
b1000 o
b1000 s
b11 L
b11 ^
1B
b0 J
b0 b
b11111000 O
b11111000 i
0@
b10 I
b10 d
b111111011111000100010101000000 !
b111111011111000100010101000000 )
b111111011111000100010101000000 *
b111111011111000100010101000000 ;
b11111000100010101000000 <
b111111000100010101000 9
b1 R
b1 ]
b10 S
b10 _
b1010 T
b1010 a
b0 U
b0 c
b111111100000000000001 /
b11111100010001 .
b111111111010100101110 -
b11111111111111 0
b111101100011000 4
b101011010010100101 3
b1111110001000101010000000000000 7
b1111110001000101010000000000000 =
b11111100010001010100 +
b11111100010001010100 2
b11111100010001010100 5
b110 1
1#
#8400
0#
#8500
b1 L
b1 ^
b0 K
b0 `
b11 J
b11 b
b111111011110111001100000100000 !
b111111011110111001100000100000 )
b111111011110111001100000100000 *
b111111011110111001100000100000 ;
b11110111001100000100000 <
b111110111001100000100 9
b1101 Q
b1101 [
b110 R
b110 ]
b1100 S
b1100 _
b1 T
b1 a
b111111110000000000000 /
b1111101110011 .
b111111111101000011001 -
b10000000000000 0
b11101100011001 4
b101111001110110110 3
b1111101110011000001000000000000 7
b1111101110011000001000000000000 =
b11111011100110000010 +
b11111011100110000010 2
b11111011100110000010 5
b111 1
1#
#8600
0#
