src/cordic_tb_waves_v.vcd
$date
	Tue Mar 14 06:56:29 2023
$end
$version
	Icarus Verilog
$end
$timescale
	100ps
$end
$scope module tb_unroll_var $end
$var wire 32 ! result [31:0] $end
$var wire 1 " done $end
$var reg 1 # clk $end
$var reg 1 $ clk_en $end
$var reg 32 % dataa [31:0] $end
$var reg 1 & reset $end
$var reg 1 ' start $end
$var integer 32 ( i [31:0] $end
$scope module unit $end
$var wire 1 & aclr $end
$var wire 1 $ clk_en $end
$var wire 1 # clock $end
$var wire 32 ) dataa [31:0] $end
$var wire 32 * result [31:0] $end
$var wire 1 ' start $end
$var wire 32 + result_fp [31:0] $end
$var wire 21 , fixed_point_result [20:0] $end
$var wire 21 - fixed_point_input [20:0] $end
$var wire 1 " done $end
$var reg 21 . offsetX [20:0] $end
$var reg 21 / offsetX1 [20:0] $end
$var reg 21 0 offsetY [20:0] $end
$var reg 21 1 offsetY1 [20:0] $end
$var reg 21 2 offsetZ [20:0] $end
$var reg 21 3 offsetZ1 [20:0] $end
$var reg 21 4 rotateAngle [20:0] $end
$var reg 21 5 rotateAngle1 [20:0] $end
$var reg 5 6 rotate_index [4:0] $end
$var reg 5 7 rotate_index1 [4:0] $end
$var reg 21 8 x [20:0] $end
$var reg 21 9 x1 [20:0] $end
$var reg 21 : y [20:0] $end
$var reg 21 ; y1 [20:0] $end
$var reg 21 < z [20:0] $end
$var reg 21 = z1 [20:0] $end
$scope module fixed_to_float_unit $end
$var wire 21 > fixed_point_result [20:0] $end
$var wire 5 ? leadingOneIndex [4:0] $end
$var wire 32 @ fixed_point_result_appended_to_32_bits [31:0] $end
$var wire 1 A containOne_valid $end
$var reg 21 B intermediate_result [20:0] $end
$var reg 8 C result_exponent [7:0] $end
$var reg 32 D result_fp [31:0] $end
$var reg 23 E result_significant [22:0] $end
$scope module encoder32 $end
$var wire 32 F encoder_input [31:0] $end
$var wire 1 G valid7 $end
$var wire 1 H valid6 $end
$var wire 1 I valid5 $end
$var wire 1 J valid4 $end
$var wire 1 K valid3 $end
$var wire 1 L valid2 $end
$var wire 1 M valid1 $end
$var wire 1 N valid0 $end
$var wire 1 A valid $end
$var wire 3 O encoder_output8 [2:0] $end
$var wire 2 P encoder_output7 [1:0] $end
$var wire 2 Q encoder_output6 [1:0] $end
$var wire 2 R encoder_output5 [1:0] $end
$var wire 2 S encoder_output4 [1:0] $end
$var wire 2 T encoder_output3 [1:0] $end
$var wire 2 U encoder_output2 [1:0] $end
$var wire 2 V encoder_output1 [1:0] $end
$var wire 2 W encoder_output0 [1:0] $end
$var wire 8 X encoder_input8 [7:0] $end
$var reg 4 Y encoder_input0 [3:0] $end
$var reg 4 Z encoder_input1 [3:0] $end
$var reg 4 [ encoder_input2 [3:0] $end
$var reg 4 \ encoder_input3 [3:0] $end
$var reg 4 ] encoder_input4 [3:0] $end
$var reg 4 ^ encoder_input5 [3:0] $end
$var reg 4 _ encoder_input6 [3:0] $end
$var reg 4 ` encoder_input7 [3:0] $end
$var reg 5 a encoder_output [4:0] $end
$scope module encoder0 $end
$var wire 4 b encoder_input [3:0] $end
$var reg 2 c encoder_output [1:0] $end
$var reg 1 N valid $end
$upscope $end
$scope module encoder1 $end
$var wire 4 d encoder_input [3:0] $end
$var reg 2 e encoder_output [1:0] $end
$var reg 1 M valid $end
$upscope $end
$scope module encoder2 $end
$var wire 4 f encoder_input [3:0] $end
$var reg 2 g encoder_output [1:0] $end
$var reg 1 L valid $end
$upscope $end
$scope module encoder3 $end
$var wire 4 h encoder_input [3:0] $end
$var reg 2 i encoder_output [1:0] $end
$var reg 1 K valid $end
$upscope $end
$scope module encoder4 $end
$var wire 4 j encoder_input [3:0] $end
$var reg 2 k encoder_output [1:0] $end
$var reg 1 J valid $end
$upscope $end
$scope module encoder5 $end
$var wire 4 l encoder_input [3:0] $end
$var reg 2 m encoder_output [1:0] $end
$var reg 1 I valid $end
$upscope $end
$scope module encoder6 $end
$var wire 4 n encoder_input [3:0] $end
$var reg 2 o encoder_output [1:0] $end
$var reg 1 H valid $end
$upscope $end
$scope module encoder7 $end
$var wire 4 p encoder_input [3:0] $end
$var reg 2 q encoder_output [1:0] $end
$var reg 1 G valid $end
$upscope $end
$scope module encoder8 $end
$var wire 8 r encoder_input [7:0] $end
$var wire 1 s valid8_1 $end
$var wire 1 t valid8_0 $end
$var wire 2 u encoder_output8_1 [1:0] $end
$var wire 2 v encoder_output8_0 [1:0] $end
$var reg 4 w encoder_input8_0 [3:0] $end
$var reg 4 x encoder_input8_1 [3:0] $end
$var reg 3 y encoder_output [2:0] $end
$var reg 1 A valid $end
$scope module encoder8_0 $end
$var wire 4 z encoder_input [3:0] $end
$var reg 2 { encoder_output [1:0] $end
$var reg 1 t valid $end
$upscope $end
$scope module encoder8_1 $end
$var wire 4 | encoder_input [3:0] $end
$var reg 2 } encoder_output [1:0] $end
$var reg 1 s valid $end
$upscope $end
$upscope $end
$upscope $end
$upscope $end
$scope module floating_to_fixed_unit $end
$var wire 32 ~ dataa [31:0] $end
$var wire 23 !" significand [22:0] $end
$var wire 21 "" fixed_point_input [20:0] $end
$var wire 8 #" exponent [7:0] $end
$upscope $end
$upscope $end
$upscope $end
$enddefinitions $end
$comment Show the parameter values. $end
$dumpall
$end
#0
$dumpvars
bx #"
bx ""
bx !"
bx ~
bx }
bx00 |
bx {
bx z
bx y
bx00 x
bx w
bx v
bx u
xt
xs
bx00 r
b10 q
b0 p
b10 o
b0 n
bx0 m
bx000 l
bx k
bx j
bx i
bx h
bx g
b0xxx f
bx e
bx d
bx c
bx b
b0 a
b0 `
b0 _
bx000 ^
bx ]
bx \
b0xxx [
bx Z
bx Y
bx00 X
bx W
bx V
bx U
bx T
bx S
bx0 R
b10 Q
b10 P
bx O
xN
xM
xL
xK
xJ
xI
0H
0G
bx00000000000 F
bx000 E
b1111111xxxxxxxxxxxxxxxxxxxx000 D
b1111111 C
bx B
xA
bx00000000000 @
b0 ?
bx >
bx =
bx <
bx ;
bx :
bx 9
bx 8
bx 7
bx 6
bx 5
bx 4
bx 3
bx 2
bx 1
bx 0
bx /
bx .
bx -
bx ,
b1111111xxxxxxxxxxxxxxxxxxxx000 +
b1111111xxxxxxxxxxxxxxxxxxxx000 *
bx )
bx (
0'
1&
bx %
0$
0#
x"
b1111111xxxxxxxxxxxxxxxxxxxx000 !
$end
#100
b1111110 C
b1 ?
b1 a
1A
b0 O
b0 y
1t
b0 v
b0 {
1s
b0 u
b0 }
b1111 w
b1111 z
b1000 x
b1000 |
1N
b1 W
b1 c
1M
b0 V
b0 e
1L
b1 U
b1 g
1K
b0 T
b0 i
1J
b1 S
b1 k
b11111000 X
b11111000 r
0I
b10 R
b10 m
b111111000110110111010011100000 !
b111111000110110111010011100000 *
b111111000110110111010011100000 +
b111111000110110111010011100000 D
b110110111010011100000 E
b100110110111010011100 B
b100 Y
b100 b
b1101 Z
b1101 d
b101 [
b101 f
b1010 \
b1010 h
b111 ]
b111 j
b0 ^
b0 l
b1110110101100011001 3
b110110010010001011001 1
b1001101101110100111 /
b100110110111100000011 =
b10011011011101001110 ;
b10011011011101001110 9
b1 7
b100110110111100000011 2
b10011011011101001110 0
b0 .
b1110110101100011001 5
b11001001000011111101 4
b0 <
b0 :
b1001101101110100111000000000000 @
b1001101101110100111000000000000 F
b10011011011101001110 ,
b10011011011101001110 8
b10011011011101001110 >
0"
b0 6
1#
#200
b0 -
b0 ""
b0 #"
b0 !"
b0 %
b0 )
b0 ~
1'
0&
1$
b0 (
0#
#300
1#
#400
0'
0#
#500
b1100 x
b1100 |
b1 V
b1 e
b1 T
b1 i
b0 S
b0 k
b11111100 X
b11111100 r
1I
b0 R
b0 m
b111111011010010010111101010000 !
b111111011010010010111101010000 *
b111111011010010010111101010000 +
b111111011010010010111101010000 D
b11010010010111101010000 E
b111010010010111101010 B
b111 Y
b111 b
b100 Z
b100 d
b100 [
b100 f
b111 \
b111 h
b1010 ]
b1010 j
b1000 ^
b1000 l
b11111110101011011 3
b111100000011011000101 1
b10011011011101 /
b111101100010110001010 =
b10011011011101010 ;
b11111100100111011110 9
b11 7
b111110101101101110 2
b111000101101101000011 0
b10011011011101001 .
b11111110101011011 5
b111110101101101110 4
b110101101101000011100 <
b1001101101110100111 :
b1110100100101111010100000000000 @
b1110100100101111010100000000000 F
b11101001001011110101 ,
b11101001001011110101 8
b11101001001011110101 >
b10 6
1#
#600
0#
#700
b0 V
b0 e
b111111011111110000101110110000 !
b111111011111110000101110110000 *
b111111011111110000101110110000 +
b111111011111110000101110110000 D
b11111110000101110110000 E
b111111110000101110110 B
b1111 Z
b1111 d
b101 \
b101 h
b1101 ]
b1101 j
b111111111110101 3
b111111000000000011001 1
b111100101 /
b111111100001100111011 =
b11110010111010 ;
b11111111110011100001 9
b101 7
b111110000000001010110 2
b1111111100001011 0
b110000100110 .
b111111111110101 5
b1111111110101010 4
b1100001011100101 <
b111110011110110101111 :
b1111111100001011101100000000000 @
b1111111100001011101100000000000 F
b11111111000010111011 ,
b11111111000010111011 8
b11111111000010111011 >
b100 6
1#
#800
0#
#900
b1000 x
b1000 |
b10 S
b10 k
b11111000 X
b11111000 r
0I
b10 R
b10 m
b111111011111111110110001100000 !
b111111011111111110110001100000 *
b111111011111111110110001100000 +
b111111011111111110110001100000 D
b11111111110110001100000 E
b111111111110110001100 B
b111 [
b111 f
b110 \
b110 h
b11 ]
b11 j
b0 ^
b0 l
b111111110000000000001 3
b1111111111111 1
b111 /
b1100110010 =
b111111111110011001110 ;
b11111111111111010011 9
b111 7
b111111100000000000010 2
b11111111111011 0
b100001101 .
b1111111111111 5
b11111111111110 4
b100001100110000 <
b111111011110011010011 :
b1111111111101100011000000000000 @
b1111111111101100011000000000000 F
b11111111111011000110 ,
b11111111111011000110 8
b11111111111011000110 >
b110 6
1#
#1000
0#
#1100
b0 T
b0 i
b0 S
b0 k
b111111011111111111110110100000 !
b111111011111111111110110100000 *
b111111011111111111110110100000 +
b111111011111111111110110100000 D
b11111111111110110100000 E
b111111111111110110100 B
b1110 \
b1110 h
b1101 ]
b1101 j
b11111111111 3
b111111111100000000001 1
b110 /
b111111111001100110010 =
b110011001110 ;
b11111111111111110110 9
b1001 7
b111111111111 2
b111111111000000000001 0
b11100 .
b11111111111 5
b111111111111 4
b111111110001100110011 <
b1110011001101 :
b1111111111111101101000000000000 @
b1111111111111101101000000000000 F
b11111111111111011010 ,
b11111111111111011010 8
b11111111111111011010 >
b1000 6
1#
#1200
0#
#1300
b111111011111111111111111000000 !
b111111011111111111111111000000 *
b111111011111111111111111000000 +
b111111011111111111111111000000 D
b11111111111111111000000 E
b111111111111111111000 B
b1111 \
b1111 h
b1110 ]
b1110 j
b111111111 3
b111111111111000000001 1
b0 /
b111111111111100110000 =
b11010000 ;
b11111111111111111101 9
b1011 7
b1111111111 2
b111111111110000000001 0
b1 .
b111111111 5
b1111111111 4
b111111111101100110001 <
b10011001111 :
b1111111111111111110000000000000 @
b1111111111111111110000000000000 F
b11111111111111111100 ,
b11111111111111111100 8
b11111111111111111100 >
b1010 6
1#
#1400
0#
#1500
b1100 x
b1100 |
b11111100 X
b11111100 r
1I
b0 R
b0 m
b111111011111111111111111010000 !
b111111011111111111111111010000 *
b111111011111111111111111010000 +
b111111011111111111111111010000 D
b11111111111111111010000 E
b111111111111111111010 B
b1000 ^
b1000 l
b111111111111110000001 3
b1111111 1
b1 /
b110000 =
b111111111111111010000 ;
b11111111111111111110 9
b1101 7
b111111111111100000001 2
b11111111 0
b1111111 5
b11111111 4
b100101111 <
b111111111111011010001 :
b1111111111111111110100000000000 @
b1111111111111111110100000000000 F
b11111111111111111101 ,
b11111111111111111101 8
b11111111111111111101 >
b1100 6
1#
#1600
0#
#1700
b111111011111111111111111110000 !
b111111011111111111111111110000 *
b111111011111111111111111110000 +
b111111011111111111111111110000 D
b11111111111111111110000 E
b111111111111111111110 B
b1111 ]
b1111 j
b11111 3
b111111111111111100001 1
b0 /
b111111111111111110000 =
b10000 ;
b11111111111111111111 9
b1111 7
b111111 2
b111111111111111000001 0
b0 .
b11111 5
b111111 4
b111111111111110110001 <
b1001111 :
b1111111111111111111100000000000 @
b1111111111111111111100000000000 F
b11111111111111111111 ,
b11111111111111111111 8
b11111111111111111111 >
b1110 6
1#
#1800
0#
#1900
b0 3
b111111111111111111000 1
b1111 =
b0 ;
b100000000000000000000 9
b10001 7
b0 2
b1111 0
b1 .
b0 5
b0 4
b1111 <
b111111111111111110001 :
1"
b10000 6
1#
#2000
b11001100110011001 -
b11001100110011001 ""
b1111011 #"
b10011001100110011001101 !"
b111101110011001100110011001101 %
b111101110011001100110011001101 )
b111101110011001100110011001101 ~
1'
b1 (
0#
#2100
b1000 x
b1000 |
b1 S
b1 k
b11111000 X
b11111000 r
0I
b10 R
b10 m
b111111000110110111010011100000 !
b111111000110110111010011100000 *
b111111000110110111010011100000 +
b111111000110110111010011100000 D
b110110111010011100000 E
b100110110111010011100 B
b100 Y
b100 b
b1101 Z
b1101 d
b101 [
b101 f
b1010 \
b1010 h
b111 ]
b111 j
b0 ^
b0 l
b1110110101100011001 3
b110110010010001011001 1
b1001101101110100111 /
b101010000100010011100 =
b10011011011101001110 ;
b10011011011101001110 9
b1 7
b100110110111100000011 2
b10011011011101001110 0
b0 .
b1110110101100011001 5
b11001001000011111101 4
b11001100110011001 <
b0 :
b1001101101110100111000000000000 @
b1001101101110100111000000000000 F
b10011011011101001110 ,
b10011011011101001110 8
b10011011011101001110 >
0"
b0 6
1#
#2200
0'
0#
#2300
b1100 x
b1100 |
b1 V
b1 e
b1 T
b1 i
b0 S
b0 k
b11111100 X
b11111100 r
1I
b0 R
b0 m
b111111011010010010111101010000 !
b111111011010010010111101010000 *
b111111011010010010111101010000 +
b111111011010010010111101010000 D
b11010010010111101010000 E
b111010010010111101010 B
b111 Y
b111 b
b100 Z
b100 d
b100 [
b100 f
b111 \
b111 h
b1010 ]
b1010 j
b1000 ^
b1000 l
b111100000001010100101 3
b11111100100111011 1
b111111101100100100011 /
b101111100100011 =
b10011011011101010 ;
b11111100100111011110 9
b11 7
b111110101101101110 2
b111000101101101000011 0
b10011011011101001 .
b11111110101011011 5
b111110101101101110 4
b111000111001110110101 <
b1001101101110100111 :
b1110100100101111010100000000000 @
b1110100100101111010100000000000 F
b11101001001011110101 ,
b11101001001011110101 8
b11101001001011110101 >
b10 6
1#
#2400
0#
#2500
b1 u
b1 }
b1101 w
b1101 z
b100 x
b100 |
b0 V
b0 e
0L
b10 U
b10 g
b0 T
b0 i
b11010100 X
b11010100 r
0J
b10 S
b10 k
b111111011110100011000000010000 !
b111111011110100011000000010000 *
b111111011110100011000000010000 +
b111111011110100011000000010000 D
b11110100011000000010000 E
b111110100011000000010 B
b1101 Z
b1101 d
b0 [
b0 f
b1000 \
b1000 h
b0 ]
b0 j
b111111111110101 3
b111111000000101010000 1
b1000110101111 /
b111110110000101110010 =
b100011010111110101 ;
b11111101011000000011 9
b101 7
b1111111110101010 2
b111110000010111010000 0
b11001100000010 .
b111111111110101 5
b1111111110101010 4
b111100110000111001000 <
b110011000000100101 :
b1111101000110000000100000000000 @
b1111101000110000000100000000000 F
b11111010001100000001 ,
b11111010001100000001 8
b11111010001100000001 >
b100 6
1#
#2600
0#
#2700
b0 u
b0 }
b1111 w
b1111 z
b1000 x
b1000 |
1L
b11 U
b11 g
1J
b0 S
b0 k
b11111000 X
b11111000 r
0I
b10 R
b10 m
b111111011111100111101100100000 !
b111111011111100111101100100000 *
b111111011111100111101100100000 +
b111111011111100111101100100000 D
b11111100111101100100000 E
b111111100111101100100 B
b1111 Z
b1111 d
b1 [
b1 f
b1101 \
b1101 h
b1001 ]
b1001 j
b0 ^
b0 l
b111111110000000000001 3
b1111111011101 1
b111111111110100010001 /
b10000101100101 =
b10111011110100111 ;
b11111110111010001111 9
b111 7
b11111111111110 2
b111111100000001100010 0
b11011011101 .
b1111111111111 5
b11111111111110 4
b111111110000101100111 <
b11011011101000101 :
b1111111001111011001000000000000 @
b1111111001111011001000000000000 F
b11111110011110110010 ,
b11111110011110110010 8
b11111110011110110010 >
b110 6
1#
#2800
0#
#2900
0s
b10 u
b10 }
b0 x
b0 |
b10 U
b10 g
b11110000 X
b11110000 r
0J
b10 S
b10 k
b111111011111101011101000000000 !
b111111011111101011101000000000 *
b111111011111101011101000000000 +
b111111011111101011101000000000 D
b11111101011101000000000 E
b111111101011101000000 B
b10 [
b10 f
b0 ]
b0 j
b11111111111 3
b111111111100000001011 1
b11010011 /
b111111111000101100111 =
b11010011101101111 ;
b11111110101000001001 9
b1001 7
b111111111000000000001 2
b111111101011 0
b111111111111001101001 .
b11111111111 5
b111111111111 4
b101100110 <
b11001011110000100 :
b1111111010111010000000000000000 @
b1111111010111010000000000000000 F
b11111110101110100000 ,
b11111110101110100000 8
b11111110101110100000 >
b1000 6
1#
#3000
0#
#3100
1s
b0 u
b0 }
b1000 x
b1000 |
b1 T
b1 i
b11111000 X
b11111000 r
1J
b0 S
b0 k
b111111011111101010110111000000 !
b111111011111101010110111000000 *
b111111011111101010110111000000 +
b111111011111101010110111000000 D
b11111101010110111000000 E
b111111101010110111000 B
b110 \
b110 h
b1110 ]
b1110 j
b111111111 3
b111111111111000000011 1
b110011 /
b111111111110101100101 =
b11001101110000000 ;
b11111110101101000011 9
b1011 7
b1111111111 2
b111111111110000000110 0
b1100111 .
b111111111 5
b1111111111 4
b111111111100101100110 <
b11001111101111010 :
b1111111010101101110000000000000 @
b1111111010101101110000000000000 F
b11111110101011011100 ,
b11111110101011011100 8
b11111110101011011100 >
b1010 6
1#
#3200
0#
#3300
b0 T
b0 i
b111111011111101011011101100000 !
b111111011111101011011101100000 *
b111111011111101011011101100000 +
b111111011111101011011101100000 D
b11111101011011101100000 E
b111111101011011101100 B
b1011 \
b1011 h
b1011 ]
b1011 j
b111111111111110000001 3
b1111111 1
b111111111111111110100 /
b1100011 =
b11001100010000101 ;
b11111110101110001111 9
b1101 7
b11111111 2
b111111111111100000010 0
b11001 .
b1111111 5
b11111111 4
b111111111111101100100 <
b11001100110000011 :
b1111111010110111011000000000000 @
b1111111010110111011000000000000 F
b11111110101101110110 ,
b11111110101101110110 8
b11111110101101110110 >
b1100 6
1#
#3400
0#
#3500
b1100 x
b1100 |
b11 S
b11 k
b11111100 X
b11111100 r
1I
b0 R
b0 m
b111111011111101011100000110000 !
b111111011111101011100000110000 *
b111111011111101011100000110000 +
b111111011111101011100000110000 D
b11111101011100000110000 E
b111111101011100000110 B
b1100 \
b1100 h
b1 ]
b1 j
b1000 ^
b1000 l
b111111111111111100001 3
b11111 1
b111111111111111111101 /
b100011 =
b11001100011000101 ;
b11111110101110001001 9
b1111 7
b111111 2
b111111111111111000001 0
b110 .
b11111 5
b111111 4
b111111111111111100100 <
b11001100100000100 :
b1111111010111000001100000000000 @
b1111111010111000001100000000000 F
b11111110101110000011 ,
b11111110101110000011 8
b11111110101110000011 >
b1110 6
1#
#3600
0#
#3700
b1000 x
b1000 |
b10 S
b10 k
b11111000 X
b11111000 r
0I
b10 R
b10 m
b111111011111101011100001100000 !
b111111011111101011100001100000 *
b111111011111101011100001100000 +
b111111011111101011100001100000 D
b11111101011100001100000 E
b111111101011100001100 B
b11 ]
b11 j
b0 ^
b0 l
b0 3
b111 1
b0 /
b100 =
b11001100011110011 ;
b11111110101110000101 9
b10001 7
b0 2
b1111 0
b111111111111111111111 .
b0 5
b0 4
b100 <
b11001100011100100 :
b1111111010111000011000000000000 @
b1111111010111000011000000000000 F
b11111110101110000110 ,
b11111110101110000110 8
b11111110101110000110 >
1"
b10000 6
1#
#3800
b110011001100110011 -
b110011001100110011 ""
b1111100 #"
b111110010011001100110011001101 %
b111110010011001100110011001101 )
b111110010011001100110011001101 ~
1'
b10 (
0#
#3900
b1 U
b1 g
b1 S
b1 k
b111111000110110111010011100000 !
b111111000110110111010011100000 *
b111111000110110111010011100000 +
b111111000110110111010011100000 D
b110110111010011100000 E
b100110110111010011100 B
b100 Y
b100 b
b1101 Z
b1101 d
b101 [
b101 f
b1010 \
b1010 h
b111 ]
b111 j
b1110110101100011001 3
b110110010010001011001 1
b1001101101110100111 /
b101101010001000110110 =
b10011011011101001110 ;
b10011011011101001110 9
b1 7
b100110110111100000011 2
b10011011011101001110 0
b0 .
b1110110101100011001 5
b11001001000011111101 4
b110011001100110011 <
b0 :
b1001101101110100111000000000000 @
b1001101101110100111000000000000 F
b10011011011101001110 ,
b10011011011101001110 8
b10011011011101001110 >
0"
b0 6
1#
#4000
0'
0#
#4100
b1100 x
b1100 |
b1 V
b1 e
b1 T
b1 i
b0 S
b0 k
b11111100 X
b11111100 r
1I
b0 R
b0 m
b111111011010010010111101010000 !
b111111011010010010111101010000 *
b111111011010010010111101010000 +
b111111011010010010111101010000 D
b11010010010111101010000 E
b111010010010111101010 B
b111 Y
b111 b
b100 Z
b100 d
b100 [
b100 f
b111 \
b111 h
b1010 ]
b1010 j
b1000 ^
b1000 l
b111100000001010100101 3
b11111100100111011 1
b111111101100100100011 /
b11111100010111101 =
b10011011011101010 ;
b11111100100111011110 9
b11 7
b111110101101101110 2
b111000101101101000011 0
b10011011011101001 .
b11111110101011011 5
b111110101101101110 4
b111100000110101001111 <
b1001101101110100111 :
b1110100100101111010100000000000 @
b1110100100101111010100000000000 F
b11101001001011110101 ,
b11101001001011110101 8
b11101001001011110101 >
b10 6
1#
#4200
0#
#4300
b1 u
b1 }
b1101 w
b1101 z
b100 x
b100 |
b0 V
b0 e
0L
b10 U
b10 g
b0 T
b0 i
b11010100 X
b11010100 r
0J
b10 S
b10 k
b111111011110100011000000010000 !
b111111011110100011000000010000 *
b111111011110100011000000010000 +
b111111011110100011000000010000 D
b11110100011000000010000 E
b111110100011000000010 B
b1101 Z
b1101 d
b0 [
b0 f
b1000 \
b1000 h
b0 ]
b0 j
b111111000000000001011 3
b111111010110000 1
b111111110111001010001 /
b1111101100001100 =
b100011010111110101 ;
b11111101011000000011 9
b101 7
b1111111110101010 2
b111110000010111010000 0
b11001100000010 .
b111111111110101 5
b1111111110101010 4
b111111111101101100010 <
b110011000000100101 :
b1111101000110000000100000000000 @
b1111101000110000000100000000000 F
b11111010001100000001 ,
b11111010001100000001 8
b11111010001100000001 >
b100 6
1#
#4400
0#
#4500
b0 u
b0 }
b1111 w
b1111 z
b1000 x
b1000 |
1L
b11 U
b11 g
b10 T
b10 i
1J
b0 S
b0 k
b11111000 X
b11111000 r
0I
b10 R
b10 m
b111111011111000100010101000000 !
b111111011111000100010101000000 *
b111111011111000100010101000000 +
b111111011111000100010101000000 D
b11111000100010101000000 E
b111111000100010101000 B
b1110 Z
b1110 d
b1 [
b1 f
b10 \
b10 h
b1010 ]
b1010 j
b0 ^
b0 l
b111111110000000000001 3
b1111101110011 1
b111111111101000011001 /
b11101100011001 =
b101111001110110110 ;
b11111011100110000010 9
b111 7
b111111100000000000010 2
b11111100010001 0
b111111111010100101110 .
b1111111111111 5
b11111111111110 4
b111101100010111 <
b101011010010100101 :
b1111110001000101010000000000000 @
b1111110001000101010000000000000 F
b11111100010001010100 ,
b11111100010001010100 8
b11111100010001010100 >
b110 6
1#
#4600
0#
#4700
b1100 x
b1100 |
b1 U
b1 g
b0 T
b0 i
b11111100 X
b11111100 r
1I
b0 R
b0 m
b111111011110110011100110110000 !
b111111011110110011100110110000 *
b111111011110110011100110110000 +
b111111011110110011100110110000 D
b11110110011100110110000 E
b111110110011100110110 B
b1101 Z
b1101 d
b100 [
b100 f
b1100 \
b1100 h
b1101 ]
b1101 j
b1000 ^
b1000 l
b111111111100000000001 3
b11111011000 1
b111111111111001101111 /
b101100011011 =
b110010001011011100 ;
b11111011000010001000 9
b1001 7
b111111111000000000001 2
b111110110011 0
b111111111110011101101 .
b11111111111 5
b111111111111 4
b1101100011010 <
b110001001100101001 :
b1111101100111001101100000000000 @
b1111101100111001101100000000000 F
b11111011001110011011 ,
b11111011001110011011 8
b11111011001110011011 >
b1000 6
1#
#4800
0#
#4900
b10 U
b10 g
b1 T
b1 i
b111111011110101110111101110000 !
b111111011110101110111101110000 *
b111111011110101110111101110000 +
b111111011110101110111101110000 D
b11110101110111101110000 E
b111110101110111101110 B
b11 [
b11 f
b111 \
b111 h
b1011 ]
b1011 j
b111111111 3
b111111111111000001011 1
b1100101 /
b111111111111100011101 =
b110010111010011111 ;
b11111010111000101101 9
b1011 7
b111111111110000000001 2
b1111101011 0
b111111111111100110110 .
b111111111 5
b1111111111 4
b1100011100 <
b110010101010110100 :
b1111101011101111011100000000000 @
b1111101011101111011100000000000 F
b11111010111011110111 ,
b11111010111011110111 8
b11111010111011110111 >
b1010 6
1#
#5000
0#
#5100
b1000 x
b1000 |
b11111000 X
b11111000 r
0I
b10 R
b10 m
b111111011110101110100100100000 !
b111111011110101110100100100000 *
b111111011110101110100100100000 +
b111111011110101110100100100000 D
b11110101110100100100000 E
b111110101110100100100 B
b100 \
b100 h
b1001 ]
b1001 j
b0 ^
b0 l
b111111111111110000001 3
b1111101 1
b111111111111111100111 /
b11101 =
b110010110110100100 ;
b11111010111001100000 9
b1101 7
b111111111111100000001 2
b11111010 0
b111111111111111001110 .
b1111111 5
b11111111 4
b100011100 <
b110010110010101010 :
b1111101011101001001000000000000 @
b1111101011101001001000000000000 F
b11111010111010010010 ,
b11111010111010010010 8
b11111010111010010010 >
b1100 6
1#
#5200
0#
#5300
b1100 x
b1100 |
b10 T
b10 i
b10 S
b10 k
b11111100 X
b11111100 r
1I
b0 R
b0 m
b111111011110101110010001110000 !
b111111011110101110010001110000 *
b111111011110101110010001110000 +
b111111011110101110010001110000 D
b11110101110010001110000 E
b111110101110010001110 B
b10 \
b10 h
b11 ]
b11 j
b1000 ^
b1000 l
b11111 3
b111111111111111100001 1
b110 /
b111111111111111011101 =
b110010110111100011 ;
b11111010111001010011 9
b1111 7
b111111 2
b111111111111111000010 0
b1100 .
b11111 5
b111111 4
b111111111111110011110 <
b110010111000100001 :
b1111101011100100011100000000000 @
b1111101011100100011100000000000 F
b11111010111001000111 ,
b11111010111001000111 8
b11111010111001000111 >
b1110 6
1#
#5400
0#
#5500
b0 S
b0 k
b111111011110101110010110010000 !
b111111011110101110010110010000 *
b111111011110101110010110010000 +
b111111011110101110010110010000 D
b11110101110010110010000 E
b111110101110010110010 B
b1100 ]
b1100 j
b0 3
b111111111111111111001 1
b1 /
b111111111111111111100 =
b110010110110110101 ;
b11111010111001011100 9
b10001 7
b0 2
b111111111111111110001 0
b11 .
b0 5
b0 4
b111111111111111111100 <
b110010110111000100 :
b1111101011100101100100000000000 @
b1111101011100101100100000000000 F
b11111010111001011001 ,
b11111010111001011001 8
b11111010111001011001 >
1"
b10000 6
1#
#5600
b1001100110011001100 -
b1001100110011001100 ""
b1111101 #"
b110011001100110011010 !"
b111110100110011001100110011010 %
b111110100110011001100110011010 )
b111110100110011001100110011010 ~
1'
b11 (
0#
#5700
b1000 x
b1000 |
b1 U
b1 g
b0 T
b0 i
b1 S
b1 k
b11111000 X
b11111000 r
0I
b10 R
b10 m
b111111000110110111010011100000 !
b111111000110110111010011100000 *
b111111000110110111010011100000 +
b111111000110110111010011100000 D
b110110111010011100000 E
b100110110111010011100 B
b100 Y
b100 b
b101 [
b101 f
b1010 \
b1010 h
b111 ]
b111 j
b0 ^
b0 l
b1110110101100011001 3
b110110010010001011001 1
b1001101101110100111 /
b110000011101111001111 =
b10011011011101001110 ;
b10011011011101001110 9
b1 7
b100110110111100000011 2
b10011011011101001110 0
b0 .
b1110110101100011001 5
b11001001000011111101 4
b1001100110011001100 <
b0 :
b1001101101110100111000000000000 @
b1001101101110100111000000000000 F
b10011011011101001110 ,
b10011011011101001110 8
b10011011011101001110 >
0"
b0 6
1#
#5800
0'
0#
#5900
b1100 x
b1100 |
b1 V
b1 e
b1 T
b1 i
b0 S
b0 k
b11111100 X
b11111100 r
1I
b0 R
b0 m
b111111011010010010111101010000 !
b111111011010010010111101010000 *
b111111011010010010111101010000 +
b111111011010010010111101010000 D
b11010010010111101010000 E
b111010010010111101010 B
b111 Y
b111 b
b100 Z
b100 d
b100 [
b100 f
b111 \
b111 h
b1010 ]
b1010 j
b1000 ^
b1000 l
b111100000001010100101 3
b11111100100111011 1
b111111101100100100011 /
b111001001001010110 =
b10011011011101010 ;
b11111100100111011110 9
b11 7
b111110101101101110 2
b111000101101101000011 0
b10011011011101001 .
b11111110101011011 5
b111110101101101110 4
b111111010011011101000 <
b1001101101110100111 :
b1110100100101111010100000000000 @
b1110100100101111010100000000000 F
b11101001001011110101 ,
b11101001001011110101 8
b11101001001011110101 >
b10 6
1#
#6000
0#
#6100
b1 u
b1 }
b1101 w
b1101 z
b100 x
b100 |
b0 V
b0 e
0L
b10 U
b10 g
b0 T
b0 i
b11010100 X
b11010100 r
0J
b10 S
b10 k
b111111011110100011000000010000 !
b111111011110100011000000010000 *
b111111011110100011000000010000 +
b111111011110100011000000010000 D
b11110100011000000010000 E
b111110100011000000010 B
b1101 Z
b1101 d
b0 [
b0 f
b1000 \
b1000 h
b0 ]
b0 j
b111111000000000001011 3
b111101101111111 1
b111111101111010101110 /
b1001010101010001 =
b1000010101001010101 ;
b11110110111111111111 9
b101 7
b111110000000001010110 2
b1111101000110000 0
b111111100110011111110 .
b111111111110101 5
b1111111110101010 4
b11001010011111011 <
b110011000000100101 :
b1111101000110000000100000000000 @
b1111101000110000000100000000000 F
b11111010001100000001 ,
b11111010001100000001 8
b11111010001100000001 >
b100 6
1#
#6200
0#
