src/cordic_tb_waves_v.vcd
$date
	Thu Mar 16 14:06:48 2023
$end
$version
	Icarus Verilog
$end
$timescale
	100ps
$end
$scope module tb_unroll_var $end
$var wire 32 ! result [31:0] $end
$var wire 1 " done $end
$var reg 1 # clk $end
$var reg 1 $ clk_en $end
$var reg 32 % dataa [31:0] $end
$var reg 1 & reset $end
$var reg 1 ' start $end
$var integer 32 ( i [31:0] $end
$scope module unit $end
$var wire 1 & aclr $end
$var wire 1 $ clk_en $end
$var wire 1 # clock $end
$var wire 32 ) dataa [31:0] $end
$var wire 21 * fixed_point_result [20:0] $end
$var wire 32 + result [31:0] $end
$var wire 1 ' start $end
$var wire 32 , result_fp [31:0] $end
$var wire 21 - fixed_point_input [20:0] $end
$var wire 1 " done $end
$var reg 5 . rotate_index_reg [4:0] $end
$var reg 21 / x_reg [20:0] $end
$var reg 21 0 y_reg [20:0] $end
$var reg 21 1 z_reg [20:0] $end
$var integer 32 2 j [31:0] $end
$scope begin unroll[0] $end
$scope module cr_0 $end
$var wire 21 3 rotate_angle [20:0] $end
$var wire 4 4 rotate_index [3:0] $end
$var wire 21 5 x [20:0] $end
$var wire 21 6 y [20:0] $end
$var wire 21 7 z [20:0] $end
$var reg 21 8 rot_x [20:0] $end
$var reg 21 9 rot_y [20:0] $end
$var reg 21 : rot_z [20:0] $end
$var reg 21 ; x_shift [20:0] $end
$var reg 21 < y_shift [20:0] $end
$var reg 21 = z_replicated [20:0] $end
$upscope $end
$upscope $end
$scope begin unroll[1] $end
$scope module cr_0 $end
$var wire 21 > rotate_angle [20:0] $end
$var wire 4 ? rotate_index [3:0] $end
$var wire 21 @ x [20:0] $end
$var wire 21 A y [20:0] $end
$var wire 21 B z [20:0] $end
$var reg 21 C rot_x [20:0] $end
$var reg 21 D rot_y [20:0] $end
$var reg 21 E rot_z [20:0] $end
$var reg 21 F x_shift [20:0] $end
$var reg 21 G y_shift [20:0] $end
$var reg 21 H z_replicated [20:0] $end
$upscope $end
$upscope $end
$scope begin unroll[2] $end
$scope module cr_0 $end
$var wire 21 I rotate_angle [20:0] $end
$var wire 4 J rotate_index [3:0] $end
$var wire 21 K x [20:0] $end
$var wire 21 L y [20:0] $end
$var wire 21 M z [20:0] $end
$var reg 21 N rot_x [20:0] $end
$var reg 21 O rot_y [20:0] $end
$var reg 21 P rot_z [20:0] $end
$var reg 21 Q x_shift [20:0] $end
$var reg 21 R y_shift [20:0] $end
$var reg 21 S z_replicated [20:0] $end
$upscope $end
$upscope $end
$scope begin unroll[3] $end
$scope module cr_0 $end
$var wire 21 T rotate_angle [20:0] $end
$var wire 4 U rotate_index [3:0] $end
$var wire 21 V x [20:0] $end
$var wire 21 W y [20:0] $end
$var wire 21 X z [20:0] $end
$var reg 21 Y rot_x [20:0] $end
$var reg 21 Z rot_y [20:0] $end
$var reg 21 [ rot_z [20:0] $end
$var reg 21 \ x_shift [20:0] $end
$var reg 21 ] y_shift [20:0] $end
$var reg 21 ^ z_replicated [20:0] $end
$upscope $end
$upscope $end
$scope begin unroll[4] $end
$scope module cr_0 $end
$var wire 21 _ rotate_angle [20:0] $end
$var wire 4 ` rotate_index [3:0] $end
$var wire 21 a x [20:0] $end
$var wire 21 b y [20:0] $end
$var wire 21 c z [20:0] $end
$var reg 21 d rot_x [20:0] $end
$var reg 21 e rot_y [20:0] $end
$var reg 21 f rot_z [20:0] $end
$var reg 21 g x_shift [20:0] $end
$var reg 21 h y_shift [20:0] $end
$var reg 21 i z_replicated [20:0] $end
$upscope $end
$upscope $end
$scope begin unroll[5] $end
$scope module cr_0 $end
$var wire 21 j rotate_angle [20:0] $end
$var wire 4 k rotate_index [3:0] $end
$var wire 21 l x [20:0] $end
$var wire 21 m y [20:0] $end
$var wire 21 n z [20:0] $end
$var reg 21 o rot_x [20:0] $end
$var reg 21 p rot_y [20:0] $end
$var reg 21 q rot_z [20:0] $end
$var reg 21 r x_shift [20:0] $end
$var reg 21 s y_shift [20:0] $end
$var reg 21 t z_replicated [20:0] $end
$upscope $end
$upscope $end
$scope begin unroll[6] $end
$scope module cr_0 $end
$var wire 21 u rotate_angle [20:0] $end
$var wire 4 v rotate_index [3:0] $end
$var wire 21 w x [20:0] $end
$var wire 21 x y [20:0] $end
$var wire 21 y z [20:0] $end
$var reg 21 z rot_x [20:0] $end
$var reg 21 { rot_y [20:0] $end
$var reg 21 | rot_z [20:0] $end
$var reg 21 } x_shift [20:0] $end
$var reg 21 ~ y_shift [20:0] $end
$var reg 21 !" z_replicated [20:0] $end
$upscope $end
$upscope $end
$scope begin unroll[7] $end
$scope module cr_0 $end
$var wire 21 "" rotate_angle [20:0] $end
$var wire 4 #" rotate_index [3:0] $end
$var wire 21 $" x [20:0] $end
$var wire 21 %" y [20:0] $end
$var wire 21 &" z [20:0] $end
$var reg 21 '" rot_x [20:0] $end
$var reg 21 (" rot_y [20:0] $end
$var reg 21 )" rot_z [20:0] $end
$var reg 21 *" x_shift [20:0] $end
$var reg 21 +" y_shift [20:0] $end
$var reg 21 ," z_replicated [20:0] $end
$upscope $end
$upscope $end
$scope module fixed_to_float_unit $end
$var wire 21 -" fixed_point_result [20:0] $end
$var wire 5 ." leadingOneIndex [4:0] $end
$var wire 32 /" fixed_point_result_appended_to_32_bits [31:0] $end
$var wire 1 0" containOne_valid $end
$var reg 21 1" intermediate_result [20:0] $end
$var reg 8 2" result_exponent [7:0] $end
$var reg 32 3" result_fp [31:0] $end
$var reg 23 4" result_significant [22:0] $end
$scope module encoder32 $end
$var wire 32 5" encoder_input [31:0] $end
$var wire 1 6" valid7 $end
$var wire 1 7" valid6 $end
$var wire 1 8" valid5 $end
$var wire 1 9" valid4 $end
$var wire 1 :" valid3 $end
$var wire 1 ;" valid2 $end
$var wire 1 <" valid1 $end
$var wire 1 =" valid0 $end
$var wire 1 0" valid $end
$var wire 3 >" encoder_output8 [2:0] $end
$var wire 2 ?" encoder_output7 [1:0] $end
$var wire 2 @" encoder_output6 [1:0] $end
$var wire 2 A" encoder_output5 [1:0] $end
$var wire 2 B" encoder_output4 [1:0] $end
$var wire 2 C" encoder_output3 [1:0] $end
$var wire 2 D" encoder_output2 [1:0] $end
$var wire 2 E" encoder_output1 [1:0] $end
$var wire 2 F" encoder_output0 [1:0] $end
$var wire 8 G" encoder_input8 [7:0] $end
$var reg 4 H" encoder_input0 [3:0] $end
$var reg 4 I" encoder_input1 [3:0] $end
$var reg 4 J" encoder_input2 [3:0] $end
$var reg 4 K" encoder_input3 [3:0] $end
$var reg 4 L" encoder_input4 [3:0] $end
$var reg 4 M" encoder_input5 [3:0] $end
$var reg 4 N" encoder_input6 [3:0] $end
$var reg 4 O" encoder_input7 [3:0] $end
$var reg 5 P" encoder_output [4:0] $end
$scope module encoder0 $end
$var wire 4 Q" encoder_input [3:0] $end
$var reg 2 R" encoder_output [1:0] $end
$var reg 1 =" valid $end
$upscope $end
$scope module encoder1 $end
$var wire 4 S" encoder_input [3:0] $end
$var reg 2 T" encoder_output [1:0] $end
$var reg 1 <" valid $end
$upscope $end
$scope module encoder2 $end
$var wire 4 U" encoder_input [3:0] $end
$var reg 2 V" encoder_output [1:0] $end
$var reg 1 ;" valid $end
$upscope $end
$scope module encoder3 $end
$var wire 4 W" encoder_input [3:0] $end
$var reg 2 X" encoder_output [1:0] $end
$var reg 1 :" valid $end
$upscope $end
$scope module encoder4 $end
$var wire 4 Y" encoder_input [3:0] $end
$var reg 2 Z" encoder_output [1:0] $end
$var reg 1 9" valid $end
$upscope $end
$scope module encoder5 $end
$var wire 4 [" encoder_input [3:0] $end
$var reg 2 \" encoder_output [1:0] $end
$var reg 1 8" valid $end
$upscope $end
$scope module encoder6 $end
$var wire 4 ]" encoder_input [3:0] $end
$var reg 2 ^" encoder_output [1:0] $end
$var reg 1 7" valid $end
$upscope $end
$scope module encoder7 $end
$var wire 4 _" encoder_input [3:0] $end
$var reg 2 `" encoder_output [1:0] $end
$var reg 1 6" valid $end
$upscope $end
$scope module encoder8 $end
$var wire 8 a" encoder_input [7:0] $end
$var wire 1 b" valid8_1 $end
$var wire 1 c" valid8_0 $end
$var wire 2 d" encoder_output8_1 [1:0] $end
$var wire 2 e" encoder_output8_0 [1:0] $end
$var reg 4 f" encoder_input8_0 [3:0] $end
$var reg 4 g" encoder_input8_1 [3:0] $end
$var reg 3 h" encoder_output [2:0] $end
$var reg 1 0" valid $end
$scope module encoder8_0 $end
$var wire 4 i" encoder_input [3:0] $end
$var reg 2 j" encoder_output [1:0] $end
$var reg 1 c" valid $end
$upscope $end
$scope module encoder8_1 $end
$var wire 4 k" encoder_input [3:0] $end
$var reg 2 l" encoder_output [1:0] $end
$var reg 1 b" valid $end
$upscope $end
$upscope $end
$upscope $end
$upscope $end
$scope module floating_to_fixed_unit $end
$var wire 32 m" dataa [31:0] $end
$var wire 23 n" significand [22:0] $end
$var wire 21 o" fixed_point_input [20:0] $end
$var wire 8 p" exponent [7:0] $end
$upscope $end
$upscope $end
$upscope $end
$enddefinitions $end
#0
$dumpvars
bx p"
bx o"
bx n"
bx m"
bx l"
bx00 k"
bx j"
bx i"
bx h"
bx00 g"
bx f"
bx e"
bx d"
xc"
xb"
bx00 a"
b10 `"
b0 _"
b10 ^"
b0 ]"
bx0 \"
bx000 ["
bx Z"
bx Y"
bx X"
bx W"
bx V"
b0xxx U"
bx T"
bx S"
bx R"
bx Q"
b0 P"
b0 O"
b0 N"
bx000 M"
bx L"
bx K"
b0xxx J"
bx I"
bx H"
bx00 G"
bx F"
bx E"
bx D"
bx C"
bx B"
bx0 A"
b10 @"
b10 ?"
bx >"
x="
x<"
x;"
x:"
x9"
x8"
07"
06"
bx00000000000 5"
bx000 4"
b1111111xxxxxxxxxxxxxxxxxxxx000 3"
b1111111 2"
bx 1"
x0"
bx00000000000 /"
b0 ."
bx -"
bx ,"
bx +"
bx *"
bx )"
bx ("
bx '"
bx &"
bx %"
bx $"
bx #"
bx ""
bx !"
bx ~
bx }
bx |
bx {
bx z
bx y
bx x
bx w
bx v
bx u
bx t
bx s
bx r
bx q
bx p
bx o
bx n
bx m
bx l
bx k
bx j
bx i
bx h
bx g
bx f
bx e
bx d
bx c
bx b
bx a
bx `
bx _
bx ^
bx ]
bx \
bx [
bx Z
bx Y
bx X
bx W
bx V
bx U
bx T
bx S
bx R
bx Q
bx P
bx O
bx N
bx M
bx L
bx K
bx J
bx I
bx H
bx G
bx F
bx E
bx D
bx C
bx B
bx A
bx @
bx ?
bx >
bx =
bx <
bx ;
bx :
bx 9
bx 8
bx 7
bx 6
bx 5
bx 4
bx 3
bx 2
bx 1
bx 0
bx /
bx .
bx -
b1111111xxxxxxxxxxxxxxxxxxxx000 ,
b1111111xxxxxxxxxxxxxxxxxxxx000 +
bx *
bx )
bx (
0'
1&
bx %
0$
0#
x"
b1111111xxxxxxxxxxxxxxxxxxxx000 !
$end
#100
b1111110 2"
b1 ."
b1 P"
10"
b0 >"
b0 h"
1c"
b0 e"
b0 j"
1b"
b0 d"
b0 l"
b1111 f"
b1111 i"
b1000 g"
b1000 k"
1="
b1 F"
b1 R"
1<"
b0 E"
b0 T"
1;"
b1 D"
b1 V"
1:"
b0 C"
b0 X"
19"
b1 B"
b1 Z"
b11111000 G"
b11111000 a"
08"
b10 A"
b10 \"
b111111110001100110010 )"
b1110011001101 ("
b11111111111111011010 '"
b1111111111111 *"
b111111111111111111001 +"
b0 ,"
b1100110010 |
b1100110010 &"
b111111111110011001110 {
b111111111110011001110 %"
b11111111111111010011 z
b11111111111111010011 $"
b11111111111011 }
b111111111111011110011 ~
b0 !"
b100001100110001 q
b100001100110001 y
b111111011110011010011 p
b111111011110011010011 x
b11111111111011000110 o
b11111111111011000110 w
b111111111100111 r
b111100101 s
b111111111111111111111 t
b111111100001100111100 f
b111111100001100111100 n
b11110010111010 e
b11110010111010 m
b11111111110011100001 d
b11111111110011100001 l
b1111111100001011 g
b111111111001111011010 h
b0 i
b1100001011100111 [
b1100001011100111 c
b111110011110110101111 Z
b111110011110110101111 b
b11111111000010111011 Y
b11111111000010111011 a
b11111100100111011 \
b10011011011101 ]
b111111111111111111111 ^
b111101100010110001011 P
b111101100010110001011 X
b10011011011101010 O
b10011011011101010 W
b11111100100111011110 N
b11111100100111011110 V
b111010010010111101 Q
b10011011011101001 R
b111111111111111111111 S
b110101101101000011100 E
b110101101101000011100 M
b1001101101110100111 D
b1001101101110100111 L
b11101001001011110101 C
b11101001001011110101 K
b1001101101110100111 F
b1001101101110100111 G
b111111111111111111111 H
b111111000110110111010011100000 !
b111111000110110111010011100000 +
b111111000110110111010011100000 ,
b111111000110110111010011100000 3"
b110110111010011100000 4"
b100110110111010011100 1"
b100 H"
b100 Q"
b1101 I"
b1101 S"
b101 J"
b101 U"
b1010 K"
b1010 W"
b111 L"
b111 Y"
b0 M"
b0 ["
b100110110111100000010 :
b100110110111100000010 B
b10011011011101001110 9
b10011011011101001110 A
b10011011011101001110 8
b10011011011101001110 @
b10011011011101001110 ;
b0 <
b0 =
b10000000000000 ""
b11111111111111 u
b111111111110101 j
b1111111110101011 _
b11111110101011100 T
b111110101101101111 I
b1110110101100011010 >
b11001001000011111110 3
b111 #"
b110 v
b101 k
b100 `
b11 U
b10 J
b1 ?
b111 2
b0 4
b0 7
b0 1
b0 6
b0 0
b1001101101110100111000000000000 /"
b1001101101110100111000000000000 5"
b10011011011101001110 *
b10011011011101001110 -"
b10011011011101001110 5
b10011011011101001110 /
0"
b0 .
1#
#200
b0 -
b0 o"
b0 p"
b0 n"
b0 %
b0 )
b0 m"
1'
0&
1$
b0 (
0#
#300
1#
#400
0'
0#
#500
b0 B"
b0 Z"
b10010 )"
b111111111111111110001 ("
b11111111111111111111 '"
b11111 *"
b0 +"
b111111111111111111111 ,"
b111111111111111110010 |
b111111111111111110010 &"
b10000 {
b10000 %"
b11111111111111111111 z
b11111111111111111111 $"
b111111 }
b0 ~
b111111111111111111111 !"
b111111111111110110010 q
b111111111111110110010 y
b1001111 p
b1001111 x
b11111111111111111111 o
b11111111111111111111 w
b1111111 r
b111111111111111111111 s
b0 t
b110010 f
b110010 n
b111111111111111010000 e
b111111111111111010000 m
b11111111111111111110 d
b11111111111111111110 l
b11111111 g
b111111111111111111111 h
b100110010 [
b100110010 c
b111111111111011010001 Z
b111111111111011010001 b
b11111111111111111101 Y
b11111111111111111101 a
b111111111 \
b0 ]
b111111111111100110010 P
b111111111111100110010 X
b11010000 O
b11010000 W
b11111111111111111101 N
b11111111111111111101 V
b1111111111 Q
b1 R
b111111111101100110010 E
b111111111101100110010 M
b10011001111 D
b10011001111 L
b11111111111111111100 C
b11111111111111111100 K
b11111111111 F
b110 G
b111111011111111111110110100000 !
b111111011111111111110110100000 +
b111111011111111111110110100000 ,
b111111011111111111110110100000 3"
b11111111111110110100000 4"
b111111111111110110100 1"
b111 H"
b111 Q"
b1111 I"
b1111 S"
b111 J"
b111 U"
b1110 K"
b1110 W"
b1101 L"
b1101 Y"
b111111111001100110010 :
b111111111001100110010 B
b110011001110 9
b110011001110 A
b11111111111111110110 8
b11111111111111110110 @
b111111111111 ;
b11100 <
b111111111111111111111 =
b100000 ""
b1000000 u
b10000000 j
b100000000 _
b1000000000 T
b10000000000 I
b100000000000 >
b1000000000000 3
b1111 #"
b1110 v
b1101 k
b1100 `
b1011 U
b1010 J
b1001 ?
b111 2
b1000 4
b111111110001100110010 7
b111111110001100110010 1
b1110011001101 6
b1110011001101 0
b1111111111111101101000000000000 /"
b1111111111111101101000000000000 5"
b11111111111111011010 *
b11111111111111011010 -"
b11111111111111011010 5
b11111111111111011010 /
b1000 .
1#
#600
0#
#700
b1100 g"
b1100 k"
b11111100 G"
b11111100 a"
18"
b0 A"
b0 \"
b111111110001101000100 )"
b10111101010101 ("
b110100101100011100100 '"
b11010010110001 *"
b111111111111111110101 +"
b0 ,"
b1101000100 |
b1101000100 &"
b111111111101010100100 {
b111111111101010100100 %"
b110100101100011011001 z
b110100101100011011001 $"
b110100101011100 }
b111111111111001000101 ~
b0 !"
b100001101000011 q
b100001101000011 y
b111111001000101001000 p
b111111001000101001000 x
b110100101011100011110 o
b110100101011100011110 w
b1101001010011111 r
b1100011111 s
b111111111111111111111 t
b111111100001101001110 f
b111111100001101001110 n
b110001111100111 e
b110001111100111 m
b110100101001111111111 d
b110100101001111111111 l
b11010001111111111 g
b111111110101111111110 h
b1100001011111001 [
b1100001011111001 c
b111101011111111101000 Z
b111101011111111101000 b
b110100011111111111101 Y
b110100011111111111101 a
b110100000000000000 \
b11111111111101 ]
b111101100010110011101 P
b111101100010110011101 X
b11111111111101000 O
b11111111111101000 W
b110100000000000000000 N
b110100000000000000000 V
b1100000000000000001 Q
b11111111111111010 R
b110101101101000101110 E
b110101101101000101110 M
b1111111111111101001 D
b1111111111111101001 L
b110000000000000000110 C
b110000000000000000110 K
b10000000000000000111 F
b1111111111111111000 G
b111111011111111111111111110000 !
b111111011111111111111111110000 +
b111111011111111111111111110000 ,
b111111011111111111111111110000 3"
b11111111111111111110000 4"
b111111111111111111110 1"
b1111 K"
b1111 W"
b1111 L"
b1111 Y"
b1000 M"
b1000 ["
b100110110111100010100 :
b100110110111100010100 B
b11111111111111110000 9
b11111111111111110000 A
b100000000000000001110 8
b100000000000000001110 @
b11111111111111111111 ;
b111111111111111110001 <
b0 =
b10000000000000 ""
b11111111111111 u
b111111111110101 j
b1111111110101011 _
b11111110101011100 T
b111110101101101111 I
b1110110101100011010 >
b11001001000011111110 3
b111 #"
b110 v
b101 k
b100 `
b11 U
b10 J
b1 ?
b111 2
b0 4
b10010 7
b10010 1
b111111111111111110001 6
b111111111111111110001 0
b1111111111111111111100000000000 /"
b1111111111111111111100000000000 5"
b11111111111111111111 *
b11111111111111111111 -"
b11111111111111111111 5
b11111111111111111111 /
1"
b10000 .
1#
#800
b11001100110011001 -
b11001100110011001 o"
b1111011 p"
b10011001100110011001101 n"
b111101110011001100110011001101 %
b111101110011001100110011001101 )
b111101110011001100110011001101 m"
1'
b1 (
0#
#900
b101100111 )"
b11001011110000100 ("
b11111110101110100000 '"
b1111111011101 *"
b1011101111 +"
b10000101100111 |
b10000101100111 &"
b10111011110100111 {
b10111011110100111 %"
b11111110111010001111 z
b11111110111010001111 $"
b11111110011110 }
b11011011101 ~
b111111111111111111111 !"
b111111110000101101000 q
b111111110000101101000 y
b11011011101000101 p
b11011011101000101 x
b11111110011110110010 o
b11111110011110110010 w
b111111010110000 r
b1000110101111 s
b111110110000101110011 f
b111110110000101110011 n
b100011010111110101 e
b100011010111110101 m
b11111101011000000011 d
b11111101011000000011 l
b1111101000110000 g
b11001100000010 h
b111111111111111111111 i
b111100110000111001000 [
b111100110000111001000 c
b110011000000100101 Z
b110011000000100101 b
b11111010001100000001 Y
b11111010001100000001 a
b11111100100111011 \
b10011011011101 ]
b0 ^
b1000 g"
b1000 k"
b101111100100100 P
b101111100100100 X
b10011011011101010 O
b10011011011101010 W
b11111100100111011110 N
b11111100100111011110 V
b111010010010111101 Q
b10011011011101001 R
b1 B"
b1 Z"
b11111000 G"
b11111000 a"
08"
b10 A"
b10 \"
b111000111001110110101 E
b111000111001110110101 M
b1001101101110100111 D
b1001101101110100111 L
b11101001001011110101 C
b11101001001011110101 K
b1001101101110100111 F
b1001101101110100111 G
b111111000110110111010011100000 !
b111111000110110111010011100000 +
b111111000110110111010011100000 ,
b111111000110110111010011100000 3"
b110110111010011100000 4"
b100110110111010011100 1"
b100 H"
b100 Q"
b1101 I"
b1101 S"
b101 J"
b101 U"
b1010 K"
b1010 W"
b111 L"
b111 Y"
b0 M"
b0 ["
b101010000100010011011 :
b101010000100010011011 B
b10011011011101001110 9
b10011011011101001110 A
b10011011011101001110 8
b10011011011101001110 @
b10011011011101001110 ;
b0 <
b111 2
b11001100110011001 7
b11001100110011001 1
b0 6
b0 0
b1001101101110100111000000000000 /"
b1001101101110100111000000000000 5"
b10011011011101001110 *
b10011011011101001110 -"
b10011011011101001110 5
b10011011011101001110 /
0"
b0 .
1#
#1000
0'
0#
#1100
0b"
b10 d"
b10 l"
b0 g"
b0 k"
b10 D"
b10 V"
b11110000 G"
b11110000 a"
09"
b10 B"
b10 Z"
b111 )"
b11001100011100100 ("
b11111110101110000110 '"
b11111 *"
b11 +"
b100111 |
b100111 &"
b11001100011000101 {
b11001100011000101 %"
b11111110101110001001 z
b11111110101110001001 $"
b111111 }
b110 ~
b111111111111111100111 q
b111111111111111100111 y
b11001100100000100 p
b11001100100000100 x
b11111110101110000011 o
b11111110101110000011 w
b1111111 r
b1100 s
b0 t
b1100111 f
b1100111 n
b11001100010000101 e
b11001100010000101 m
b11111110101110001111 d
b11111110101110001111 l
b11111110 g
b11001 h
b111111111111101100111 [
b111111111111101100111 c
b11001100110000011 Z
b11001100110000011 b
b11111110101101110110 Y
b11111110101101110110 a
b111111101 \
b110011 ]
b111111111111111111111 ^
b111111111110101100111 P
b111111111110101100111 X
b11001101110000000 O
b11001101110000000 W
b11111110101101000011 N
b11111110101101000011 V
b1111111010 Q
b1100111 R
b111111111100101100111 E
b111111111100101100111 M
b11001111101111010 D
b11001111101111010 L
b11111110101011011100 C
b11111110101011011100 K
b11111110101 F
b11010011 G
b111111011111101011101000000000 !
b111111011111101011101000000000 +
b111111011111101011101000000000 ,
b111111011111101011101000000000 3"
b11111101011101000000000 4"
b111111101011101000000 1"
b111 H"
b111 Q"
b1111 I"
b1111 S"
b10 J"
b10 U"
b1101 K"
b1101 W"
b0 L"
b0 Y"
b111111111000101100111 :
b111111111000101100111 B
b11010011101101111 9
b11010011101101111 A
b11111110101000001001 8
b11111110101000001001 @
b111111101011 ;
b110010111 <
b100000 ""
b1000000 u
b10000000 j
b100000000 _
b1000000000 T
b10000000000 I
b100000000000 >
b1000000000000 3
b1111 #"
b1110 v
b1101 k
b1100 `
b1011 U
b1010 J
b1001 ?
b111 2
b1000 4
b101100111 7
b101100111 1
b11001011110000100 6
b11001011110000100 0
b1111111010111010000000000000000 /"
b1111111010111010000000000000000 5"
b11111110101110100000 *
b11111110101110100000 -"
b11111110101110100000 5
b11111110101110100000 /
b1000 .
1#
#1200
0#
#1300
1b"
b0 d"
b0 l"
b1000 g"
b1000 k"
b11111000 G"
b11111000 a"
19"
b111111110001100111001 )"
b1111111100100001001 ("
b10100101101000000100 '"
b1010011010011 *"
b111111001000 +"
b1100111001 |
b1100111001 &"
b1111110010000110110 {
b1111110010000110110 %"
b10100110100111001100 z
b10100110100111001100 $"
b10101000100010 }
b1111011101000 ~
b0 !"
b100001100111000 q
b100001100111000 y
b1111011101000010100 p
b1111011101000010100 x
b10101000100010110100 o
b10101000100010110100 w
b101001001000010 r
b100000001100010 s
b111111111111111111111 t
b111111100001101000011 f
b111111100001101000011 n
b10000000110001010110 e
b10000000110001010110 m
b10100100100001010010 d
b10100100100001010010 l
b1010101111100101 g
b111011000000111 h
b0 i
b1100001011101110 [
b1100001011101110 c
b1110110000001110001 Z
b1110110000001110001 b
b10101011111001011001 Y
b10101011111001011001 a
b10011010101110011 \
b10001001010111100 ]
b111101100010110010010 P
b111101100010110010010 X
b10001001010111100100 O
b10001001010111100100 W
b10011010101110011101 N
b10011010101110011101 V
b11100010100110101 Q
b101001011011000110 R
b110101101101000100011 E
b110101101101000100011 M
b10100101101100011001 D
b10100101101100011001 L
b1110001010011010111 C
b1110001010011010111 K
b1110010100101010001 F
b110001100001000110101 G
b111111011111101011100001100000 !
b111111011111101011100001100000 +
b111111011111101011100001100000 ,
b111111011111101011100001100000 3"
b11111101011100001100000 4"
b111111101011100001100 1"
b1100 K"
b1100 W"
b11 L"
b11 Y"
b100110110111100001001 :
b100110110111100001001 B
b100011000010001101010 9
b100011000010001101010 A
b11100101001010100010 8
b11100101001010100010 @
b11111110101110000110 ;
b11001100011100100 <
b10000000000000 ""
b11111111111111 u
b111111111110101 j
b1111111110101011 _
b11111110101011100 T
b111110101101101111 I
b1110110101100011010 >
b11001001000011111110 3
b111 #"
b110 v
b101 k
b100 `
b11 U
b10 J
b1 ?
b111 2
b0 4
b111 7
b111 1
b11001100011100100 6
b11001100011100100 0
b1111111010111000011000000000000 /"
b1111111010111000011000000000000 5"
b11111110101110000110 *
b11111110101110000110 -"
b11111110101110000110 5
b11111110101110000110 /
1"
b10000 .
1#
#1400
b110011001100110011 -
b110011001100110011 o"
b1111100 p"
b111110010011001100110011001101 %
b111110010011001100110011001101 )
b111110010011001100110011001101 m"
1'
b10 (
0#
#1500
b1101100011001 )"
b110001001100101001 ("
b11111011001110011011 '"
b1111101110011 *"
b10111100111 +"
b11101100011001 |
b11101100011001 &"
b101111001110110110 {
b101111001110110110 %"
b11111011100110000010 z
b11111011100110000010 $"
b11111100010001 }
b101011010010 ~
b111101100011000 q
b111101100011000 y
b101011010010100101 p
b101011010010100101 x
b11111100010001010100 o
b11111100010001010100 w
b111111010110000 r
b1000110101111 s
b0 t
b1111101100001101 f
b1111101100001101 n
b100011010111110101 e
b100011010111110101 m
b11111101011000000011 d
b11111101011000000011 l
b1111101000110000 g
b11001100000010 h
b111111111111111111111 i
b111111111101101100010 [
b111111111101101100010 c
b110011000000100101 Z
b110011000000100101 b
b11111010001100000001 Y
b11111010001100000001 a
b11111100100111011 \
b10011011011101 ]
b0 ^
b11111100010111110 P
b11111100010111110 X
b10011011011101010 O
b10011011011101010 W
b11111100100111011110 N
b11111100100111011110 V
b111010010010111101 Q
b10011011011101001 R
b1 D"
b1 V"
b1 B"
b1 Z"
b111100000110101001111 E
b111100000110101001111 M
b1001101101110100111 D
b1001101101110100111 L
b11101001001011110101 C
b11101001001011110101 K
b1001101101110100111 F
b1001101101110100111 G
b111111000110110111010011100000 !
b111111000110110111010011100000 +
b111111000110110111010011100000 ,
b111111000110110111010011100000 3"
b110110111010011100000 4"
b100110110111010011100 1"
b100 H"
b100 Q"
b1101 I"
b1101 S"
b101 J"
b101 U"
b1010 K"
b1010 W"
b111 L"
b111 Y"
b101101010001000110101 :
b101101010001000110101 B
b10011011011101001110 9
b10011011011101001110 A
b10011011011101001110 8
b10011011011101001110 @
b10011011011101001110 ;
b0 <
b111 2
b110011001100110011 7
b110011001100110011 1
b0 6
b0 0
b1001101101110100111000000000000 /"
b1001101101110100111000000000000 5"
b10011011011101001110 *
b10011011011101001110 -"
b10011011011101001110 5
b10011011011101001110 /
0"
b0 .
1#
#1600
0'
0#
#1700
b1100 g"
b1100 k"
b0 B"
b0 Z"
b11111100 G"
b11111100 a"
18"
b0 A"
b0 \"
b111111111111111111001 )"
b110010110111000100 ("
b11111010111001011001 '"
b11111 *"
b110 +"
b111111111111111111111 ,"
b111111111111111011001 |
b111111111111111011001 &"
b110010110111100011 {
b110010110111100011 %"
b11111010111001010011 z
b11111010111001010011 $"
b111110 }
b1100 ~
b111111111111111111111 !"
b111111111111110011001 q
b111111111111110011001 y
b110010111000100001 p
b110010111000100001 x
b11111010111001000111 o
b11111010111001000111 w
b1111101 r
b11001 s
b11001 f
b11001 n
b110010110110100100 e
b110010110110100100 m
b11111010111001100000 d
b11111010111001100000 l
b11111010 g
b110010 h
b0 i
b100011001 [
b100011001 c
b110010110010101010 Z
b110010110010101010 b
b11111010111010010010 Y
b11111010111010010010 a
b111110101 \
b1100101 ]
b111111111111111111111 ^
b111111111111100011001 P
b111111111111100011001 X
b110010111010011111 O
b110010111010011111 W
b11111010111000101101 N
b11111010111000101101 V
b1111101011 Q
b11001010 R
b0 S
b1100011001 E
b1100011001 M
b110010101010110100 D
b110010101010110100 L
b11111010111011110111 C
b11111010111011110111 K
b11111011000 F
b110010001 G
b0 H
b111111011110110011100110110000 !
b111111011110110011100110110000 +
b111111011110110011100110110000 ,
b111111011110110011100110110000 3"
b11110110011100110110000 4"
b111110110011100110110 1"
b111 H"
b111 Q"
b100 J"
b100 U"
b1100 K"
b1100 W"
b1101 L"
b1101 Y"
b1000 M"
b1000 ["
b101100011001 :
b101100011001 B
b110010001011011100 9
b110010001011011100 A
b11111011000010001000 8
b11111011000010001000 @
b111110110011 ;
b1100010011 <
b100000 ""
b1000000 u
b10000000 j
b100000000 _
b1000000000 T
b10000000000 I
b100000000000 >
b1000000000000 3
b1111 #"
b1110 v
b1101 k
b1100 `
b1011 U
b1010 J
b1001 ?
b111 2
b1000 4
b1101100011001 7
b1101100011001 1
b110001001100101001 6
b110001001100101001 0
b1111101100111001101100000000000 /"
b1111101100111001101100000000000 5"
b11111011001110011011 *
b11111011001110011011 -"
b11111011001110011011 5
b11111011001110011011 /
b1000 .
1#
#1800
0#
