src/cordic_tb_waves_v.vcd
$date
	Tue Mar 14 11:18:32 2023
$end
$version
	Icarus Verilog
$end
$timescale
	100ps
$end
$scope module tb_unroll_var $end
$var wire 32 ! result [31:0] $end
$var wire 1 " done $end
$var reg 1 # clk $end
$var reg 1 $ clk_en $end
$var reg 32 % dataa [31:0] $end
$var reg 1 & reset $end
$var reg 1 ' start $end
$var integer 32 ( i [31:0] $end
$scope module unit $end
$var wire 1 & aclr $end
$var wire 1 $ clk_en $end
$var wire 1 # clock $end
$var wire 32 ) dataa [31:0] $end
$var wire 21 * fixed_point_result [20:0] $end
$var wire 32 + result [31:0] $end
$var wire 1 ' start $end
$var wire 32 , result_fp [31:0] $end
$var wire 21 - fixed_point_input [20:0] $end
$var wire 1 " done $end
$var parameter 32 . UNROLLS $end
$var reg 5 / rotate_index_reg [4:0] $end
$var reg 21 0 x_reg [20:0] $end
$var reg 21 1 y_reg [20:0] $end
$var reg 21 2 z_reg [20:0] $end
$var integer 32 3 j [31:0] $end
$scope begin unroll[0] $end
$var parameter 2 4 i $end
$scope module cr_0 $end
$var wire 21 5 rotate_angle [20:0] $end
$var wire 4 6 rotate_index [3:0] $end
$var wire 21 7 x [20:0] $end
$var wire 21 8 y [20:0] $end
$var wire 21 9 z [20:0] $end
$var reg 21 : rot_x [20:0] $end
$var reg 21 ; rot_y [20:0] $end
$var reg 21 < rot_z [20:0] $end
$var reg 21 = x_shift [20:0] $end
$var reg 21 > y_shift [20:0] $end
$var reg 21 ? z_replicated [20:0] $end
$upscope $end
$upscope $end
$scope begin unroll[1] $end
$var parameter 2 @ i $end
$scope module cr_0 $end
$var wire 21 A rotate_angle [20:0] $end
$var wire 4 B rotate_index [3:0] $end
$var wire 21 C x [20:0] $end
$var wire 21 D y [20:0] $end
$var wire 21 E z [20:0] $end
$var reg 21 F rot_x [20:0] $end
$var reg 21 G rot_y [20:0] $end
$var reg 21 H rot_z [20:0] $end
$var reg 21 I x_shift [20:0] $end
$var reg 21 J y_shift [20:0] $end
$var reg 21 K z_replicated [20:0] $end
$upscope $end
$upscope $end
$scope begin unroll[2] $end
$var parameter 3 L i $end
$scope module cr_0 $end
$var wire 21 M rotate_angle [20:0] $end
$var wire 4 N rotate_index [3:0] $end
$var wire 21 O x [20:0] $end
$var wire 21 P y [20:0] $end
$var wire 21 Q z [20:0] $end
$var reg 21 R rot_x [20:0] $end
$var reg 21 S rot_y [20:0] $end
$var reg 21 T rot_z [20:0] $end
$var reg 21 U x_shift [20:0] $end
$var reg 21 V y_shift [20:0] $end
$var reg 21 W z_replicated [20:0] $end
$upscope $end
$upscope $end
$scope begin unroll[3] $end
$var parameter 3 X i $end
$scope module cr_0 $end
$var wire 21 Y rotate_angle [20:0] $end
$var wire 4 Z rotate_index [3:0] $end
$var wire 21 [ x [20:0] $end
$var wire 21 \ y [20:0] $end
$var wire 21 ] z [20:0] $end
$var reg 21 ^ rot_x [20:0] $end
$var reg 21 _ rot_y [20:0] $end
$var reg 21 ` rot_z [20:0] $end
$var reg 21 a x_shift [20:0] $end
$var reg 21 b y_shift [20:0] $end
$var reg 21 c z_replicated [20:0] $end
$upscope $end
$upscope $end
$scope begin unroll[4] $end
$var parameter 4 d i $end
$scope module cr_0 $end
$var wire 21 e rotate_angle [20:0] $end
$var wire 4 f rotate_index [3:0] $end
$var wire 21 g x [20:0] $end
$var wire 21 h y [20:0] $end
$var wire 21 i z [20:0] $end
$var reg 21 j rot_x [20:0] $end
$var reg 21 k rot_y [20:0] $end
$var reg 21 l rot_z [20:0] $end
$var reg 21 m x_shift [20:0] $end
$var reg 21 n y_shift [20:0] $end
$var reg 21 o z_replicated [20:0] $end
$upscope $end
$upscope $end
$scope begin unroll[5] $end
$var parameter 4 p i $end
$scope module cr_0 $end
$var wire 21 q rotate_angle [20:0] $end
$var wire 4 r rotate_index [3:0] $end
$var wire 21 s x [20:0] $end
$var wire 21 t y [20:0] $end
$var wire 21 u z [20:0] $end
$var reg 21 v rot_x [20:0] $end
$var reg 21 w rot_y [20:0] $end
$var reg 21 x rot_z [20:0] $end
$var reg 21 y x_shift [20:0] $end
$var reg 21 z y_shift [20:0] $end
$var reg 21 { z_replicated [20:0] $end
$upscope $end
$upscope $end
$scope begin unroll[6] $end
$var parameter 4 | i $end
$scope module cr_0 $end
$var wire 21 } rotate_angle [20:0] $end
$var wire 4 ~ rotate_index [3:0] $end
$var wire 21 !" x [20:0] $end
$var wire 21 "" y [20:0] $end
$var wire 21 #" z [20:0] $end
$var reg 21 $" rot_x [20:0] $end
$var reg 21 %" rot_y [20:0] $end
$var reg 21 &" rot_z [20:0] $end
$var reg 21 '" x_shift [20:0] $end
$var reg 21 (" y_shift [20:0] $end
$var reg 21 )" z_replicated [20:0] $end
$upscope $end
$upscope $end
$scope begin unroll[7] $end
$var parameter 4 *" i $end
$scope module cr_0 $end
$var wire 21 +" rotate_angle [20:0] $end
$var wire 4 ," rotate_index [3:0] $end
$var wire 21 -" x [20:0] $end
$var wire 21 ." y [20:0] $end
$var wire 21 /" z [20:0] $end
$var reg 21 0" rot_x [20:0] $end
$var reg 21 1" rot_y [20:0] $end
$var reg 21 2" rot_z [20:0] $end
$var reg 21 3" x_shift [20:0] $end
$var reg 21 4" y_shift [20:0] $end
$var reg 21 5" z_replicated [20:0] $end
$upscope $end
$upscope $end
$scope module fixed_to_float_unit $end
$var wire 21 6" fixed_point_result [20:0] $end
$var wire 5 7" leadingOneIndex [4:0] $end
$var wire 32 8" fixed_point_result_appended_to_32_bits [31:0] $end
$var wire 1 9" containOne_valid $end
$var reg 21 :" intermediate_result [20:0] $end
$var reg 8 ;" result_exponent [7:0] $end
$var reg 32 <" result_fp [31:0] $end
$var reg 23 =" result_significant [22:0] $end
$scope module encoder32 $end
$var wire 32 >" encoder_input [31:0] $end
$var wire 1 ?" valid7 $end
$var wire 1 @" valid6 $end
$var wire 1 A" valid5 $end
$var wire 1 B" valid4 $end
$var wire 1 C" valid3 $end
$var wire 1 D" valid2 $end
$var wire 1 E" valid1 $end
$var wire 1 F" valid0 $end
$var wire 1 9" valid $end
$var wire 3 G" encoder_output8 [2:0] $end
$var wire 2 H" encoder_output7 [1:0] $end
$var wire 2 I" encoder_output6 [1:0] $end
$var wire 2 J" encoder_output5 [1:0] $end
$var wire 2 K" encoder_output4 [1:0] $end
$var wire 2 L" encoder_output3 [1:0] $end
$var wire 2 M" encoder_output2 [1:0] $end
$var wire 2 N" encoder_output1 [1:0] $end
$var wire 2 O" encoder_output0 [1:0] $end
$var wire 8 P" encoder_input8 [7:0] $end
$var reg 4 Q" encoder_input0 [3:0] $end
$var reg 4 R" encoder_input1 [3:0] $end
$var reg 4 S" encoder_input2 [3:0] $end
$var reg 4 T" encoder_input3 [3:0] $end
$var reg 4 U" encoder_input4 [3:0] $end
$var reg 4 V" encoder_input5 [3:0] $end
$var reg 4 W" encoder_input6 [3:0] $end
$var reg 4 X" encoder_input7 [3:0] $end
$var reg 5 Y" encoder_output [4:0] $end
$scope module encoder0 $end
$var wire 4 Z" encoder_input [3:0] $end
$var reg 2 [" encoder_output [1:0] $end
$var reg 1 F" valid $end
$upscope $end
$scope module encoder1 $end
$var wire 4 \" encoder_input [3:0] $end
$var reg 2 ]" encoder_output [1:0] $end
$var reg 1 E" valid $end
$upscope $end
$scope module encoder2 $end
$var wire 4 ^" encoder_input [3:0] $end
$var reg 2 _" encoder_output [1:0] $end
$var reg 1 D" valid $end
$upscope $end
$scope module encoder3 $end
$var wire 4 `" encoder_input [3:0] $end
$var reg 2 a" encoder_output [1:0] $end
$var reg 1 C" valid $end
$upscope $end
$scope module encoder4 $end
$var wire 4 b" encoder_input [3:0] $end
$var reg 2 c" encoder_output [1:0] $end
$var reg 1 B" valid $end
$upscope $end
$scope module encoder5 $end
$var wire 4 d" encoder_input [3:0] $end
$var reg 2 e" encoder_output [1:0] $end
$var reg 1 A" valid $end
$upscope $end
$scope module encoder6 $end
$var wire 4 f" encoder_input [3:0] $end
$var reg 2 g" encoder_output [1:0] $end
$var reg 1 @" valid $end
$upscope $end
$scope module encoder7 $end
$var wire 4 h" encoder_input [3:0] $end
$var reg 2 i" encoder_output [1:0] $end
$var reg 1 ?" valid $end
$upscope $end
$scope module encoder8 $end
$var wire 8 j" encoder_input [7:0] $end
$var wire 1 k" valid8_1 $end
$var wire 1 l" valid8_0 $end
$var wire 2 m" encoder_output8_1 [1:0] $end
$var wire 2 n" encoder_output8_0 [1:0] $end
$var reg 4 o" encoder_input8_0 [3:0] $end
$var reg 4 p" encoder_input8_1 [3:0] $end
$var reg 3 q" encoder_output [2:0] $end
$var reg 1 9" valid $end
$scope module encoder8_0 $end
$var wire 4 r" encoder_input [3:0] $end
$var reg 2 s" encoder_output [1:0] $end
$var reg 1 l" valid $end
$upscope $end
$scope module encoder8_1 $end
$var wire 4 t" encoder_input [3:0] $end
$var reg 2 u" encoder_output [1:0] $end
$var reg 1 k" valid $end
$upscope $end
$upscope $end
$upscope $end
$upscope $end
$scope module floating_to_fixed_unit $end
$var wire 32 v" dataa [31:0] $end
$var wire 23 w" significand [22:0] $end
$var wire 21 x" fixed_point_input [20:0] $end
$var wire 8 y" exponent [7:0] $end
$upscope $end
$upscope $end
$upscope $end
$enddefinitions $end
$comment Show the parameter values. $end
$dumpall
b111 *"
b110 |
b101 p
b100 d
b11 X
b10 L
b1 @
b0 4
b1000 .
$end
#0
$dumpvars
bx y"
bx x"
bx w"
bx v"
bx u"
bx00 t"
bx s"
bx r"
bx q"
bx00 p"
bx o"
bx n"
bx m"
xl"
xk"
bx00 j"
b10 i"
b0 h"
b10 g"
b0 f"
bx0 e"
bx000 d"
bx c"
bx b"
bx a"
bx `"
bx _"
b0xxx ^"
bx ]"
bx \"
bx ["
bx Z"
b0 Y"
b0 X"
b0 W"
bx000 V"
bx U"
bx T"
b0xxx S"
bx R"
bx Q"
bx00 P"
bx O"
bx N"
bx M"
bx L"
bx K"
bx0 J"
b10 I"
b10 H"
bx G"
xF"
xE"
xD"
xC"
xB"
xA"
0@"
0?"
bx00000000000 >"
bx000 ="
b1111111xxxxxxxxxxxxxxxxxxxx000 <"
b1111111 ;"
bx :"
x9"
bx00000000000 8"
b0 7"
bx 6"
bx 5"
bx 4"
bx 3"
bx 2"
bx 1"
bx 0"
bx /"
bx ."
bx -"
bx ,"
bx +"
bx )"
bx ("
bx '"
bx &"
bx %"
bx $"
bx #"
bx ""
bx !"
bx ~
bx }
bx {
bx z
bx y
bx x
bx w
bx v
bx u
bx t
bx s
bx r
bx q
bx o
bx n
bx m
bx l
bx k
bx j
bx i
bx h
bx g
bx f
bx e
bx c
bx b
bx a
bx `
bx _
bx ^
bx ]
bx \
bx [
bx Z
bx Y
bx W
bx V
bx U
bx T
bx S
bx R
bx Q
bx P
bx O
bx N
bx M
bx K
bx J
bx I
bx H
bx G
bx F
bx E
bx D
bx C
bx B
bx A
bx ?
bx >
bx =
bx <
bx ;
bx :
bx 9
bx 8
bx 7
bx 6
bx 5
bx 3
bx 2
bx 1
bx 0
bx /
bx -
b1111111xxxxxxxxxxxxxxxxxxxx000 ,
b1111111xxxxxxxxxxxxxxxxxxxx000 +
bx *
bx )
bx (
0'
1&
bx %
0$
0#
x"
b1111111xxxxxxxxxxxxxxxxxxxx000 !
$end
#100
b1111110 ;"
b1 7"
b1 Y"
19"
b0 G"
b0 q"
1l"
b0 n"
b0 s"
1k"
b0 m"
b0 u"
b1111 o"
b1111 r"
b1000 p"
b1000 t"
1F"
b1 O"
b1 ["
1E"
b0 N"
b0 ]"
1D"
b1 M"
b1 _"
1C"
b0 L"
b0 a"
1B"
b1 K"
b1 c"
b11111000 P"
b11111000 j"
0A"
b10 J"
b10 e"
b111111110001100110010 2"
b1110011001101 1"
b11111111111111011010 0"
b1111111111111 3"
b111111111111111111001 4"
b0 5"
b1100110010 &"
b1100110010 /"
b111111111110011001110 %"
b111111111110011001110 ."
b11111111111111010011 $"
b11111111111111010011 -"
b11111111111011 '"
b111111111111011110011 ("
b0 )"
b100001100110001 x
b100001100110001 #"
b111111011110011010011 w
b111111011110011010011 ""
b11111111111011000110 v
b11111111111011000110 !"
b111111111100111 y
b111100101 z
b111111111111111111111 {
b111111100001100111100 l
b111111100001100111100 u
b11110010111010 k
b11110010111010 t
b11111111110011100001 j
b11111111110011100001 s
b1111111100001011 m
b111111111001111011010 n
b0 o
b1100001011100111 `
b1100001011100111 i
b111110011110110101111 _
b111110011110110101111 h
b11111111000010111011 ^
b11111111000010111011 g
b11111100100111011 a
b10011011011101 b
b111111111111111111111 c
b111101100010110001011 T
b111101100010110001011 ]
b10011011011101010 S
b10011011011101010 \
b11111100100111011110 R
b11111100100111011110 [
b111010010010111101 U
b10011011011101001 V
b111111111111111111111 W
b110101101101000011100 H
b110101101101000011100 Q
b1001101101110100111 G
b1001101101110100111 P
b11101001001011110101 F
b11101001001011110101 O
b1001101101110100111 I
b1001101101110100111 J
b111111111111111111111 K
b111111000110110111010011100000 !
b111111000110110111010011100000 +
b111111000110110111010011100000 ,
b111111000110110111010011100000 <"
b110110111010011100000 ="
b100110110111010011100 :"
b100 Q"
b100 Z"
b1101 R"
b1101 \"
b101 S"
b101 ^"
b1010 T"
b1010 `"
b111 U"
b111 b"
b0 V"
b0 d"
b100110110111100000010 <
b100110110111100000010 E
b10011011011101001110 ;
b10011011011101001110 D
b10011011011101001110 :
b10011011011101001110 C
b10011011011101001110 =
b0 >
b0 ?
b10000000000000 +"
b11111111111111 }
b111111111110101 q
b1111111110101011 e
b11111110101011100 Y
b111110101101101111 M
b1110110101100011010 A
b11001001000011111110 5
b111 ,"
b110 ~
b101 r
b100 f
b11 Z
b10 N
b1 B
b111 3
b0 6
b0 9
b0 2
b0 8
b0 1
b1001101101110100111000000000000 8"
b1001101101110100111000000000000 >"
b10011011011101001110 *
b10011011011101001110 6"
b10011011011101001110 7
b10011011011101001110 0
0"
b0 /
1#
#200
b0 -
b0 x"
b0 y"
b0 w"
b0 %
b0 )
b0 v"
1'
0&
1$
b0 (
0#
#300
1#
#400
0'
0#
#500
b0 K"
b0 c"
b10010 2"
b111111111111111110001 1"
b11111111111111111111 0"
b11111 3"
b0 4"
b111111111111111111111 5"
b111111111111111110010 &"
b111111111111111110010 /"
b10000 %"
b10000 ."
b11111111111111111111 $"
b11111111111111111111 -"
b111111 '"
b0 ("
b111111111111111111111 )"
b111111111111110110010 x
b111111111111110110010 #"
b1001111 w
b1001111 ""
b11111111111111111111 v
b11111111111111111111 !"
b1111111 y
b111111111111111111111 z
b0 {
b110010 l
b110010 u
b111111111111111010000 k
b111111111111111010000 t
b11111111111111111110 j
b11111111111111111110 s
b11111111 m
b111111111111111111111 n
b100110010 `
b100110010 i
b111111111111011010001 _
b111111111111011010001 h
b11111111111111111101 ^
b11111111111111111101 g
b111111111 a
b0 b
b111111111111100110010 T
b111111111111100110010 ]
b11010000 S
b11010000 \
b11111111111111111101 R
b11111111111111111101 [
b1111111111 U
b1 V
b111111111101100110010 H
b111111111101100110010 Q
b10011001111 G
b10011001111 P
b11111111111111111100 F
b11111111111111111100 O
b11111111111 I
b110 J
b111111011111111111110110100000 !
b111111011111111111110110100000 +
b111111011111111111110110100000 ,
b111111011111111111110110100000 <"
b11111111111110110100000 ="
b111111111111110110100 :"
b111 Q"
b111 Z"
b1111 R"
b1111 \"
b111 S"
b111 ^"
b1110 T"
b1110 `"
b1101 U"
b1101 b"
b111111111001100110010 <
b111111111001100110010 E
b110011001110 ;
b110011001110 D
b11111111111111110110 :
b11111111111111110110 C
b111111111111 =
b11100 >
b111111111111111111111 ?
b100000 +"
b1000000 }
b10000000 q
b100000000 e
b1000000000 Y
b10000000000 M
b100000000000 A
b1000000000000 5
b1111 ,"
b1110 ~
b1101 r
b1100 f
b1011 Z
b1010 N
b1001 B
b111 3
b1000 6
b111111110001100110010 9
b111111110001100110010 2
b1110011001101 8
b1110011001101 1
b1111111111111101101000000000000 8"
b1111111111111101101000000000000 >"
b11111111111111011010 *
b11111111111111011010 6"
b11111111111111011010 7
b11111111111111011010 0
b1000 /
1#
#600
0#
#700
b1100 p"
b1100 t"
b11111100 P"
b11111100 j"
1A"
b0 J"
b0 e"
b111111110001101000100 2"
b10111101010101 1"
b110100101100011100100 0"
b11010010110001 3"
b111111111111111110101 4"
b0 5"
b1101000100 &"
b1101000100 /"
b111111111101010100100 %"
b111111111101010100100 ."
b110100101100011011001 $"
b110100101100011011001 -"
b110100101011100 '"
b111111111111001000101 ("
b0 )"
b100001101000011 x
b100001101000011 #"
b111111001000101001000 w
b111111001000101001000 ""
b110100101011100011110 v
b110100101011100011110 !"
b1101001010011111 y
b1100011111 z
b111111111111111111111 {
b111111100001101001110 l
b111111100001101001110 u
b110001111100111 k
b110001111100111 t
b110100101001111111111 j
b110100101001111111111 s
b11010001111111111 m
b111111110101111111110 n
b1100001011111001 `
b1100001011111001 i
b111101011111111101000 _
b111101011111111101000 h
b110100011111111111101 ^
b110100011111111111101 g
b110100000000000000 a
b11111111111101 b
b111101100010110011101 T
b111101100010110011101 ]
b11111111111101000 S
b11111111111101000 \
b110100000000000000000 R
b110100000000000000000 [
b1100000000000000001 U
b11111111111111010 V
b110101101101000101110 H
b110101101101000101110 Q
b1111111111111101001 G
b1111111111111101001 P
b110000000000000000110 F
b110000000000000000110 O
b10000000000000000111 I
b1111111111111111000 J
b111111011111111111111111110000 !
b111111011111111111111111110000 +
b111111011111111111111111110000 ,
b111111011111111111111111110000 <"
b11111111111111111110000 ="
b111111111111111111110 :"
b1111 T"
b1111 `"
b1111 U"
b1111 b"
b1000 V"
b1000 d"
b100110110111100010100 <
b100110110111100010100 E
b11111111111111110000 ;
b11111111111111110000 D
b100000000000000001110 :
b100000000000000001110 C
b11111111111111111111 =
b111111111111111110001 >
b0 ?
b10000000000000 +"
b11111111111111 }
b111111111110101 q
b1111111110101011 e
b11111110101011100 Y
b111110101101101111 M
b1110110101100011010 A
b11001001000011111110 5
b111 ,"
b110 ~
b101 r
b100 f
b11 Z
b10 N
b1 B
b111 3
b0 6
b10010 9
b10010 2
b111111111111111110001 8
b111111111111111110001 1
b1111111111111111111100000000000 8"
b1111111111111111111100000000000 >"
b11111111111111111111 *
b11111111111111111111 6"
b11111111111111111111 7
b11111111111111111111 0
1"
b10000 /
1#
#800
b11001100110011001 -
b11001100110011001 x"
b1111011 y"
b10011001100110011001101 w"
b111101110011001100110011001101 %
b111101110011001100110011001101 )
b111101110011001100110011001101 v"
1'
b1 (
0#
#900
b101100111 2"
b11001011110000100 1"
b11111110101110100000 0"
b1111111011101 3"
b1011101111 4"
b10000101100111 &"
b10000101100111 /"
b10111011110100111 %"
b10111011110100111 ."
b11111110111010001111 $"
b11111110111010001111 -"
b11111110011110 '"
b11011011101 ("
b111111111111111111111 )"
b111111110000101101000 x
b111111110000101101000 #"
b11011011101000101 w
b11011011101000101 ""
b11111110011110110010 v
b11111110011110110010 !"
b111111010110000 y
b1000110101111 z
b111110110000101110011 l
b111110110000101110011 u
b100011010111110101 k
b100011010111110101 t
b11111101011000000011 j
b11111101011000000011 s
b1111101000110000 m
b11001100000010 n
b111111111111111111111 o
b111100110000111001000 `
b111100110000111001000 i
b110011000000100101 _
b110011000000100101 h
b11111010001100000001 ^
b11111010001100000001 g
b11111100100111011 a
b10011011011101 b
b0 c
b1000 p"
b1000 t"
b101111100100100 T
b101111100100100 ]
b10011011011101010 S
b10011011011101010 \
b11111100100111011110 R
b11111100100111011110 [
b111010010010111101 U
b10011011011101001 V
b1 K"
b1 c"
b11111000 P"
b11111000 j"
0A"
b10 J"
b10 e"
b111000111001110110101 H
b111000111001110110101 Q
b1001101101110100111 G
b1001101101110100111 P
b11101001001011110101 F
b11101001001011110101 O
b1001101101110100111 I
b1001101101110100111 J
b111111000110110111010011100000 !
b111111000110110111010011100000 +
b111111000110110111010011100000 ,
b111111000110110111010011100000 <"
b110110111010011100000 ="
b100110110111010011100 :"
b100 Q"
b100 Z"
b1101 R"
b1101 \"
b101 S"
b101 ^"
b1010 T"
b1010 `"
b111 U"
b111 b"
b0 V"
b0 d"
b101010000100010011011 <
b101010000100010011011 E
b10011011011101001110 ;
b10011011011101001110 D
b10011011011101001110 :
b10011011011101001110 C
b10011011011101001110 =
b0 >
b111 3
b11001100110011001 9
b11001100110011001 2
b0 8
b0 1
b1001101101110100111000000000000 8"
b1001101101110100111000000000000 >"
b10011011011101001110 *
b10011011011101001110 6"
b10011011011101001110 7
b10011011011101001110 0
0"
b0 /
1#
#1000
0'
0#
#1100
0k"
b10 m"
b10 u"
b0 p"
b0 t"
b10 M"
b10 _"
b11110000 P"
b11110000 j"
0B"
b10 K"
b10 c"
b111 2"
b11001100011100100 1"
b11111110101110000110 0"
b11111 3"
b11 4"
b100111 &"
b100111 /"
b11001100011000101 %"
b11001100011000101 ."
b11111110101110001001 $"
b11111110101110001001 -"
b111111 '"
b110 ("
b111111111111111100111 x
b111111111111111100111 #"
b11001100100000100 w
b11001100100000100 ""
b11111110101110000011 v
b11111110101110000011 !"
b1111111 y
b1100 z
b0 {
b1100111 l
b1100111 u
b11001100010000101 k
b11001100010000101 t
b11111110101110001111 j
b11111110101110001111 s
b11111110 m
b11001 n
b111111111111101100111 `
b111111111111101100111 i
b11001100110000011 _
b11001100110000011 h
b11111110101101110110 ^
b11111110101101110110 g
b111111101 a
b110011 b
b111111111111111111111 c
b111111111110101100111 T
b111111111110101100111 ]
b11001101110000000 S
b11001101110000000 \
b11111110101101000011 R
b11111110101101000011 [
b1111111010 U
b1100111 V
b111111111100101100111 H
b111111111100101100111 Q
b11001111101111010 G
b11001111101111010 P
b11111110101011011100 F
b11111110101011011100 O
b11111110101 I
b11010011 J
b111111011111101011101000000000 !
b111111011111101011101000000000 +
b111111011111101011101000000000 ,
b111111011111101011101000000000 <"
b11111101011101000000000 ="
b111111101011101000000 :"
b111 Q"
b111 Z"
b1111 R"
b1111 \"
b10 S"
b10 ^"
b1101 T"
b1101 `"
b0 U"
b0 b"
b111111111000101100111 <
b111111111000101100111 E
b11010011101101111 ;
b11010011101101111 D
b11111110101000001001 :
b11111110101000001001 C
b111111101011 =
b110010111 >
b100000 +"
b1000000 }
b10000000 q
b100000000 e
b1000000000 Y
b10000000000 M
b100000000000 A
b1000000000000 5
b1111 ,"
b1110 ~
b1101 r
b1100 f
b1011 Z
b1010 N
b1001 B
b111 3
b1000 6
b101100111 9
b101100111 2
b11001011110000100 8
b11001011110000100 1
b1111111010111010000000000000000 8"
b1111111010111010000000000000000 >"
b11111110101110100000 *
b11111110101110100000 6"
b11111110101110100000 7
b11111110101110100000 0
b1000 /
1#
#1200
0#
#1300
1k"
b0 m"
b0 u"
b1000 p"
b1000 t"
b11111000 P"
b11111000 j"
1B"
b111111110001100111001 2"
b1111111100100001001 1"
b10100101101000000100 0"
b1010011010011 3"
b111111001000 4"
b1100111001 &"
b1100111001 /"
b1111110010000110110 %"
b1111110010000110110 ."
b10100110100111001100 $"
b10100110100111001100 -"
b10101000100010 '"
b1111011101000 ("
b0 )"
b100001100111000 x
b100001100111000 #"
b1111011101000010100 w
b1111011101000010100 ""
b10101000100010110100 v
b10101000100010110100 !"
b101001001000010 y
b100000001100010 z
b111111111111111111111 {
b111111100001101000011 l
b111111100001101000011 u
b10000000110001010110 k
b10000000110001010110 t
b10100100100001010010 j
b10100100100001010010 s
b1010101111100101 m
b111011000000111 n
b0 o
b1100001011101110 `
b1100001011101110 i
b1110110000001110001 _
b1110110000001110001 h
b10101011111001011001 ^
b10101011111001011001 g
b10011010101110011 a
b10001001010111100 b
b111101100010110010010 T
b111101100010110010010 ]
b10001001010111100100 S
b10001001010111100100 \
b10011010101110011101 R
b10011010101110011101 [
b11100010100110101 U
b101001011011000110 V
b110101101101000100011 H
b110101101101000100011 Q
b10100101101100011001 G
b10100101101100011001 P
b1110001010011010111 F
b1110001010011010111 O
b1110010100101010001 I
b110001100001000110101 J
b111111011111101011100001100000 !
b111111011111101011100001100000 +
b111111011111101011100001100000 ,
b111111011111101011100001100000 <"
b11111101011100001100000 ="
b111111101011100001100 :"
b1100 T"
b1100 `"
b11 U"
b11 b"
b100110110111100001001 <
b100110110111100001001 E
b100011000010001101010 ;
b100011000010001101010 D
b11100101001010100010 :
b11100101001010100010 C
b11111110101110000110 =
b11001100011100100 >
b10000000000000 +"
b11111111111111 }
b111111111110101 q
b1111111110101011 e
b11111110101011100 Y
b111110101101101111 M
b1110110101100011010 A
b11001001000011111110 5
b111 ,"
b110 ~
b101 r
b100 f
b11 Z
b10 N
b1 B
b111 3
b0 6
b111 9
b111 2
b11001100011100100 8
b11001100011100100 1
b1111111010111000011000000000000 8"
b1111111010111000011000000000000 >"
b11111110101110000110 *
b11111110101110000110 6"
b11111110101110000110 7
b11111110101110000110 0
1"
b10000 /
1#
#1400
b110011001100110011 -
b110011001100110011 x"
b1111100 y"
b111110010011001100110011001101 %
b111110010011001100110011001101 )
b111110010011001100110011001101 v"
1'
b10 (
0#
#1500
b1101100011001 2"
b110001001100101001 1"
b11111011001110011011 0"
b1111101110011 3"
b10111100111 4"
b11101100011001 &"
b11101100011001 /"
b101111001110110110 %"
b101111001110110110 ."
b11111011100110000010 $"
b11111011100110000010 -"
b11111100010001 '"
b101011010010 ("
b111101100011000 x
b111101100011000 #"
b101011010010100101 w
b101011010010100101 ""
b11111100010001010100 v
b11111100010001010100 !"
b111111010110000 y
b1000110101111 z
b0 {
b1111101100001101 l
b1111101100001101 u
b100011010111110101 k
b100011010111110101 t
b11111101011000000011 j
b11111101011000000011 s
b1111101000110000 m
b11001100000010 n
b111111111111111111111 o
b111111111101101100010 `
b111111111101101100010 i
b110011000000100101 _
b110011000000100101 h
b11111010001100000001 ^
b11111010001100000001 g
b11111100100111011 a
b10011011011101 b
b0 c
b11111100010111110 T
b11111100010111110 ]
b1001101101110#4600

b10011011011101010 \
b11111100100111011110 R
b11111100100111011110 [
b111010010010111101 U
b10011011011101001 V
b1 M"
b1 _"
b1 K"
b1 c"
b111100000110101001111 H
b111100000110101001111 Q
b1001101101110100111 G
b1001101101110100111 P
b11101001001011110101 F
b11101001001011110101 O
b1001101101110100111 I
b1001101101110100111 J
b111111000110110111010011100000 !
b111111000110110111010011100000 +
b111111000110110111010011100000 ,
b111111000110110111010011100000 <"
b110110111010011100000 ="
b100110110111010011100 :"
b100 Q"
b100 Z"
b1101 R"
b1101 \"
b101 S"
b101 ^"
b1010 T"
b1010 `"
b111 U"
b111 b"
b101101010001000110101 <
b101101010001000110101 E
b10011011011101001110 ;
b10011011011101001110 D
b10011011011101001110 :
b10011011011101001110 C
b#4600
11011101001110 =
b0 >
b111 3
b110011001100110011 9
b110011001100110011 2
b0 8
b0 1
b1001101101110100111000000000000 8"
b1001101101110100111000000000000 >"
b10011011011101001110 *
b10011011011101001110 6"
b10011011011101001110 7
b10011011011101001110 0
0"
b0 /
1#
#1600
0'
0#
#1700
b1100 p"
b1100 t"
b0 K"
b0 c"
b11111100 P"
b11111100 j"
1A"
b0 J"
b0 e"
b111111111111111111001 2"
b110010110111000100 1"
b11111010111001011001 0"
b11111 3"
b110 4"
b111111111111111111111 5"
b111111111111111011001 &"
b111111111111111011001 /"
b110010110111100011 %"
b110010110111100011 ."
b11111010111001010011 $"
b11111010111001010011 -"
b111110 '"
b1100 ("
b111111111111111111111 )"
b111111111111110011001 x
b111111111111110011001 #"
b110010111000100001 w
b110010111000100001 ""
b11111010111001000111 v
b11111010111001000111 !"
b1111101 y
b11001 z
b11001 l
b11001 u
b110010110110100100 k
b110010110110100100 t
b11111010111001100000 j
b11111010111001100000 s
b11111010 m
b110010 n
b0 o
b100011001 `
b100011001 i
b110010110010101010 _
b110010110010101010 h
b11111010111010010010 ^
b11111010111010010010 g
b111110101 a
b1100101 b
b111111111111111111111 c
b111111111111100011001 T
b111111111111100011001 ]
b110010111010011111 S
b110010111010011111 \
b11111010111000101101 R
b11111010111000101101 [
b1111101011 U
b11001010 V
b0 W
b1100011001 H
b1100011001 Q
b110010101010110100 G
b110010101010110100 P
b11111010111011110111 F
b11111010111011110111 O
b11111011000 I
b110010001 J
b0 K
b111111011110110011100110110000 !
b111111011110110011100110110000 +
b111111011110110011100110110000 ,
b111111011110110011100110110000 <"
b11110110011100110110000 ="
b111110110011100110110 :"
b111 Q"
b111 Z"
b100 S"
b100 ^"
b1100 T"
b1100 `"
b1101 U"
b1101 b"
b1000 V"
b1000 d"
b101100011001 <
b101100011001 E
b110010001011011100 ;
b110010001011011100 D
b11111011000010001000 :
b11111011000010001000 C
b111110110011 =
b1100010011 >
b100000 +"
b1000000 }
b10000000 q
b100000000 e
b1000000000 Y
b10000000000 M
b100000000000 A
b1000000000000 5
b1111 ,"
b1110 ~
b1101 r
b1100 f
b1011 Z
b1010 N
b1001 B
b111 3
b1000 6
b1101100011001 9
b1101100011001 2
b110001001100101001 8
b#4600
001100101001 1
b1111101100111001101100000000000 8"
b1111101100111001101100000000000 >"
b11111011001110011011 *
b11111011001110011011 6"
b11111011001110011011 7
b11111011001110011011 0
b1000 /
1#
#1800
0#
