src/fp_half.vcd
$date
	Fri Mar 10 14:04:04 2023
$end
$version
	Icarus Verilog
$end
$timescale
	100ps
$end
$scope module tb $end
$var wire 32 ! result2 [31:0] $end
$var wire 32 " result1 [31:0] $end
$var reg 1 # clk $end
$var reg 32 $ dataa [31:0] $end
$scope module unit0 $end
$var wire 32 % dataa [31:0] $end
$var wire 32 & result [31:0] $end
$var wire 8 ' exponent [7:0] $end
$upscope $end
$scope module unit1 $end
$var wire 32 ( dataa [31:0] $end
$var wire 32 ) result [31:0] $end
$var wire 8 * exponent [7:0] $end
$upscope $end
$scope begin $ivl_for_loop0 $end
$var integer 32 + i [31:0] $end
$upscope $end
$scope begin $ivl_for_loop1 $end
$var integer 32 , i [31:0] $end
$upscope $end
$upscope $end
$enddefinitions $end
#0
$dumpvars
bx ,
bx +
bx *
bx )
bx (
bx '
bx &
bx %
bx $
0#
bx "
bx !
$end
#100
1#
#200
b0 "
b0 &
b0 !
b0 )
b0 '
b0 *
b0 $
b0 %
b0 (
b0 +
0#
#300
1#
#400
b111110001000000000000000000000 !
b111110001000000000000000000000 )
b1000001001000000000000000000000 "
b1000001001000000000000000000000 &
b10000011 '
b10000011 *
b1000001101000000000000000000000 $
b1000001101000000000000000000000 %
b1000001101000000000000000000000 (
b1 +
0#
#500
1#
#600
b1000001101000000000000000000000 "
b1000001101000000000000000000000 &
b111110101000000000000000000000 !
b111110101000000000000000000000 )
b10000100 '
b10000100 *
b1000010001000000000000000000000 $
b1000010001000000000000000000000 %
b1000010001000000000000000000000 (
b10 +
0#
#700
1#
#800
b1000001111100000000000000000000 "
b1000001111100000000000000000000 &
b111110111100000000000000000000 !
b111110111100000000000000000000 )
b1000010011100000000000000000000 $
b1000010011100000000000000000000 %
b1000010011100000000000000000000 (
b11 +
0#
#900
1#
#1000
b1000010001000000000000000000000 "
b1000010001000000000000000000000 &
b111111001000000000000000000000 !
b111111001000000000000000000000 )
b10000101 '
b10000101 *
b1000010101000000000000000000000 $
b1000010101000000000000000000000 %
b1000010101000000000000000000000 (
b100 +
0#
#1100
1#
#1200
b1000010010010000000000000000000 "
b1000010010010000000000000000000 &
b111111010010000000000000000000 !
b111111010010000000000000000000 )
b1000010110010000000000000000000 $
b1000010110010000000000000000000 %
b1000010110010000000000000000000 (
b101 +
0#
#1300
1#
#1400
b1000010011100000000000000000000 "
b1000010011100000000000000000000 &
b111111011100000000000000000000 !
b111111011100000000000000000000 )
b1000010111100000000000000000000 $
b1000010111100000000000000000000 %
b1000010111100000000000000000000 (
b110 +
0#
#1500
1#
#1600
b1000010100011000000000000000000 "
b1000010100011000000000000000000 &
b111111100011000000000000000000 !
b111111100011000000000000000000 )
b10000110 '
b10000110 *
b1000011000011000000000000000000 $
b1000011000011000000000000000000 %
b1000011000011000000000000000000 (
b111 +
0#
#1700
1#
#1800
b1000010101000000000000000000000 "
b1000010101000000000000000000000 &
b111111101000000000000000000000 !
b111111101000000000000000000000 )
b1000011001000000000000000000000 $
b1000011001000000000000000000000 %
b1000011001000000000000000000000 (
b1000 +
0#
#1900
1#
#2000
b1000010101101000000000000000000 "
b1000010101101000000000000000000 &
b111111101101000000000000000000 !
b111111101101000000000000000000 )
b1000011001101000000000000000000 $
b1000011001101000000000000000000 %
b1000011001101000000000000000000 (
b1001 +
0#
#2100
1#
#2200
b1000010110010000000000000000000 "
b1000010110010000000000000000000 &
b111111110010000000000000000000 !
b111111110010000000000000000000 )
b1000011010010000000000000000000 $
b1000011010010000000000000000000 %
b1000011010010000000000000000000 (
b1010 +
0#
#2300
1#
#2400
b1000010110111000000000000000000 "
b1000010110111000000000000000000 &
b111111110111000000000000000000 !
b111111110111000000000000000000 )
b1000011010111000000000000000000 $
b1000011010111000000000000000000 %
b1000011010111000000000000000000 (
b1011 +
0#
#2500
1#
#2600
b1000010111100000000000000000000 "
b1000010111100000000000000000000 &
b111111111100000000000000000000 !
b111111111100000000000000000000 )
b1000011011100000000000000000000 $
b1000011011100000000000000000000 %
b1000011011100000000000000000000 (
b1100 +
0#
#2700
1#
#2800
b1101 +
0#
#2900
1#
#3000
b0 "
b0 &
b0 !
b0 )
b0 '
b0 *
b0 $
b0 %
b0 (
b0 ,
0#
#3100
1#
#3200
b111110001000000000000000000000 !
b111110001000000000000000000000 )
b1000001001000000000000000000000 "
b1000001001000000000000000000000 &
b10000011 '
b10000011 *
b1000001101000000000000000000000 $
b#2800
1101000000000000000000000 %
b1000001101000000000000000000000 (
b1 ,
0#
#3300
1#
#3400
b1000001101000000000000000000000 "
b1000001101000000000000000000000 &
b111110101000000000000000000000 !
b111110101000000000000000000000 )
b10000100 '
b10000100 *
b1000010001000000000000000000000 $
b1000010001000000000000000000000 %
b1000010001000000000000000000000 (
b10 ,
0#
#3500
1#
#3600
b1000001111100000000000000000000 "
b1000001111100000000000000000000 &
b111110111100000000000000000000 !
b111110111100000000000000000000 )
b1000010011100000000000000000000 $
b1000010011100000000000000000000 %
b1000010011100000000000000000000 (
b11 ,
0#
#3700
1#
#3800
b1000010001000000000000000000000 "
b1000010001000000000000000000000 &
b111111001000000000000000000000 !
b111111001000000000000000000000 )
b10000101 '
b10000101 *
b1000010101000000000000000000000 $
b1000010101000000000000000000000 %
b1000010101000000000000000000000 (
b100 ,
0#
#3900
1#
#4000
b1000010010010000000000000000000 "
b1000010010010000000000000000000 &
b111111010010000000000000000000 !
b111111010010000000000000000000 )
b1000010110010000000000000000000 $
b1000010110010000000000000000000 %
b1000010110010000000000000000000 (
b101 ,
0#
#4100
1#
#4200
b1000010011100000000000000000000 "
b1000010011100000000000000000000 &
b111111011100000000000000000000 !
b111111011100000000000000000000 )
b1000010111100000000000000000000 $
b1000010111100000000000000000000 %
b1000010111100000000000000000000 (
b110 ,
0#
#4300
1#
#4400
b1000010100011000000000000000000 "
b1000010100011000000000000000000 &
b111111100011000000000000000000 !
b111111100011000000000000000000 )
b10000110 '
b10000110 *
b1000011000011000000000000000000 $
b1000011000011000000000000000000 %
b1000011000011000000000000000000 (
b111 ,
0#
#4500
1#
#4600
b1000010101000000000000000000000 "
b1000010101000000000000000000000 &
b111111101000000000000000000000 !
b111111101000000000000000000000 )
b1000011001000000000000000000000 $
b1000011001000000000000000000000 %
b1000011001000000000000000000000 (
b1000 ,
0#
#4700
1#
#4800
b1000010101101000000000000000000 "
b1000010101101000000000000000000 &
b111111101101000000000000000000 !
b111111101101000000000000000000 )
b1000011001101000000000000000000 $
b1000011001101000000000000000000 %
b1000011001101000000000000000000 (
b1001 ,
0#
#4900
1#
#5000
b1000010110010000000000000000000 "
b1000010110010000000000000000000 &
b111111110010000000000000000000 !
b111111110010000000000000000000 )
b1000011010010000000000000000000 $
b1000011010010000000000000000000 %
b1000011010010000000000000000000 (
b1010 ,
0#
#5100
1#
#5200
b1000010110111000000000000000000 "
b1000010110111000000000000000000 &
b111111110111000000000000000000 !
b111111110111000000000000000000 )
b1000011010111000000000000000000 $
b1000011010111000000000000000000 %
b1000011010111000000000000000000 (
b1011 ,
0#
#5300
1#
#5400
b1000010111100000000000000000000 "
b1000010111100000000000000000000 &
b111111111100000000000000000000 !
b111111111100000000000000000000 )
b1000011011100000000000000000000 $
b1000011011100000000000000000000 %
b1000011011100000000000000000000 (
b1100 ,
0#
